lab6/data/10V_high_freq.csv

X,CH1,CH2,Start,Increment,
Sequence,Volt,Volt,-1.599996e-08,2.000000e-09
0,-5.96e-01,-1.56e+01,
1,-6.04e-01,-1.56e+01,
2,-6.04e-01,-1.56e+01,
3,-6.04e-01,-1.56e+01,
4,-5.84e-01,-1.56e+01,
5,-5.64e-01,-1.56e+01,
6,-5.20e-01,-1.56e+01,
7,-4.80e-01,-1.88e+01,
8,-4.32e-01,7.56e+01,
9,-3.92e-01,6.76e+01,
10,-3.36e-01,5.88e+01,
11,-2.88e-01,5.00e+01,
12,-2.32e-01,4.20e+01,
13,-1.76e-01,3.44e+01,
14,-1.24e-01,2.76e+01,
15,-7.20e-02,2.24e+01,
16,-2.40e-02,1.76e+01,
17,2.40e-02,1.44e+01,
18,6.40e-02,1.12e+01,
19,1.12e-01,9.60e+00,
20,1.40e-01,8.00e+00,
21,1.76e-01,6.40e+00,
22,1.88e-01,5.60e+00,
23,2.12e-01,4.80e+00,
24,2.24e-01,4.40e+00,
25,2.40e-01,4.00e+00,
26,2.48e-01,3.20e+00,
27,2.56e-01,4.00e+00,
28,2.60e-01,4.00e+00,
29,2.76e-01,4.00e+00,
30,2.68e-01,4.00e+00,
31,2.76e-01,4.80e+00,
32,2.72e-01,5.20e+00,
33,2.76e-01,6.00e+00,
34,2.60e-01,6.80e+00,
35,2.60e-01,8.40e+00,
36,2.44e-01,1.00e+01,
37,2.32e-01,1.24e+01,
38,2.04e-01,1.44e+01,
39,1.80e-01,1.76e+01,
40,1.40e-01,2.16e+01,
41,1.08e-01,2.60e+01,
42,5.20e-02,3.12e+01,
43,8.00e-03,3.72e+01,
44,-4.00e-02,4.32e+01,
45,-8.80e-02,4.96e+01,
46,-1.40e-01,5.64e+01,
47,-1.92e-01,6.24e+01,
48,-2.32e-01,6.80e+01,
49,-2.72e-01,7.32e+01,
50,-3.12e-01,7.76e+01,
51,-3.40e-01,7.96e+01,
52,-3.60e-01,8.08e+01,
53,-3.80e-01,8.12e+01,
54,-3.84e-01,8.04e+01,
55,-3.80e-01,7.64e+01,
56,-3.64e-01,7.36e+01,
57,-3.48e-01,6.92e+01,
58,-3.20e-01,6.36e+01,
59,-2.92e-01,5.80e+01,
60,-2.52e-01,5.12e+01,
61,-2.20e-01,4.56e+01,
62,-1.80e-01,3.96e+01,
63,-1.32e-01,3.40e+01,
64,-9.20e-02,2.92e+01,
65,-5.20e-02,2.48e+01,
66,-2.00e-02,2.12e+01,
67,2.00e-02,1.80e+01,
68,5.20e-02,1.56e+01,
69,9.20e-02,1.32e+01,
70,1.12e-01,1.12e+01,
71,1.40e-01,1.04e+01,
72,1.56e-01,9.20e+00,
73,1.76e-01,8.40e+00,
74,1.84e-01,7.60e+00,
75,2.00e-01,7.60e+00,
76,2.08e-01,7.60e+00,
77,2.20e-01,7.20e+00,
78,2.20e-01,7.20e+00,
79,2.28e-01,7.60e+00,
80,2.24e-01,8.00e+00,
81,2.32e-01,8.80e+00,
82,2.20e-01,9.60e+00,
83,2.20e-01,1.08e+01,
84,2.08e-01,1.24e+01,
85,2.00e-01,1.36e+01,
86,1.80e-01,1.56e+01,
87,1.60e-01,1.80e+01,
88,1.36e-01,2.12e+01,
89,1.12e-01,2.40e+01,
90,7.20e-02,2.76e+01,
91,4.00e-02,3.20e+01,
92,4.00e-03,3.68e+01,
93,-3.20e-02,4.12e+01,
94,-6.80e-02,4.60e+01,
95,-1.08e-01,5.04e+01,
96,-1.40e-01,5.48e+01,
97,-1.84e-01,5.92e+01,
98,-2.12e-01,6.28e+01,
99,-2.36e-01,6.52e+01,
100,-2.56e-01,6.68e+01,
101,-2.76e-01,6.80e+01,
102,-2.88e-01,6.84e+01,
103,-2.92e-01,6.72e+01,
104,-2.84e-01,6.56e+01,
105,-2.76e-01,6.32e+01,
106,-2.68e-01,6.00e+01,
107,-2.48e-01,5.60e+01,
108,-2.24e-01,5.16e+01,
109,-2.00e-01,4.76e+01,
110,-1.72e-01,4.32e+01,
111,-1.36e-01,3.88e+01,
112,-1.08e-01,3.44e+01,
113,-7.20e-02,3.08e+01,
114,-4.80e-02,2.72e+01,
115,-1.60e-02,2.40e+01,
116,1.20e-02,2.16e+01,
117,4.40e-02,1.88e+01,
118,6.40e-02,1.68e+01,
119,9.20e-02,1.56e+01,
120,1.08e-01,1.44e+01,
121,1.32e-01,1.36e+01,
122,1.40e-01,1.24e+01,
123,1.56e-01,1.16e+01,
124,1.64e-01,1.12e+01,
125,1.76e-01,1.12e+01,
126,1.76e-01,1.08e+01,
127,1.88e-01,1.12e+01,
128,1.84e-01,1.16e+01,
129,1.92e-01,1.28e+01,
130,1.80e-01,1.32e+01,
131,1.80e-01,1.44e+01,
132,1.68e-01,1.56e+01,
133,1.64e-01,1.68e+01,
134,1.44e-01,1.84e+01,
135,1.32e-01,2.08e+01,
136,1.12e-01,2.28e+01,
137,9.20e-02,2.56e+01,
138,6.00e-02,2.88e+01,
139,3.60e-02,3.16e+01,
140,8.00e-03,3.48e+01,
141,-1.60e-02,3.88e+01,
142,-4.80e-02,4.20e+01,
143,-7.60e-02,4.56e+01,
144,-1.04e-01,4.88e+01,
145,-1.28e-01,5.16e+01,
146,-1.56e-01,5.44e+01,
147,-1.76e-01,5.64e+01,
148,-1.92e-01,5.76e+01,
149,-2.04e-01,5.84e+01,
150,-2.16e-01,5.88e+01,
151,-2.20e-01,5.84e+01,
152,-2.20e-01,5.72e+01,
153,-2.16e-01,5.60e+01,
154,-2.08e-01,5.40e+01,
155,-1.96e-01,5.08e+01,
156,-1.80e-01,4.80e+01,
157,-1.60e-01,4.52e+01,
158,-1.40e-01,4.20e+01,
159,-1.16e-01,3.84e+01,
160,-9.20e-02,3.52e+01,
161,-6.40e-02,3.24e+01,
162,-4.80e-02,2.96e+01,
163,-2.00e-02,2.68e+01,
164,0.00e+00,2.44e+01,
165,2.80e-02,2.24e+01,
166,4.40e-02,2.08e+01,
167,6.40e-02,1.92e+01,
168,7.60e-02,1.80e+01,
169,1.04e-01,1.72e+01,
170,1.08e-01,1.60e+01,
171,1.20e-01,1.60e+01,
172,1.28e-01,1.52e+01,
173,1.40e-01,1.52e+01,
174,1.40e-01,1.52e+01,
175,1.48e-01,1.52e+01,
176,1.48e-01,1.56e+01,
177,1.52e-01,1.60e+01,
178,1.40e-01,1.68e+01,
179,1.40e-01,1.76e+01,
180,1.28e-01,1.88e+01,
181,1.24e-01,2.04e+01,
182,1.08e-01,2.20e+01,
183,1.00e-01,2.36e+01,
184,7.60e-02,2.56e+01,
185,6.40e-02,2.76e+01,
186,4.00e-02,3.00e+01,
187,2.00e-02,3.28e+01,
188,0.00e+00,3.52e+01,
189,-1.60e-02,3.80e+01,
190,-4.40e-02,4.04e+01,
191,-6.40e-02,4.28e+01,
192,-8.40e-02,4.52e+01,
193,-1.00e-01,4.76e+01,
194,-1.24e-01,4.92e+01,
195,-1.36e-01,5.04e+01,
196,-1.52e-01,5.12e+01,
197,-1.60e-01,5.20e+01,
198,-1.68e-01,5.20e+01,
199,-1.68e-01,5.12e+01,
200,-1.68e-01,5.08e+01,
201,-1.64e-01,4.96e+01,
202,-1.64e-01,4.80e+01,
203,-1.48e-01,4.60e+01,
204,-1.32e-01,4.36e+01,
205,-1.20e-01,4.16e+01,
206,-1.08e-01,3.92e+01,
207,-8.80e-02,3.72e+01,
208,-7.20e-02,3.44e+01,
209,-5.20e-02,3.24e+01,
210,-3.60e-02,3.00e+01,
211,-1.20e-02,2.84e+01,
212,0.00e+00,2.60e+01,
213,2.00e-02,2.44e+01,
214,3.20e-02,2.28e+01,
215,4.80e-02,2.16e+01,
216,6.00e-02,2.08e+01,
217,7.60e-02,1.96e+01,
218,8.40e-02,1.88e+01,
219,1.00e-01,1.88e+01,
220,1.04e-01,1.84e+01,
221,1.12e-01,1.80e+01,
222,1.12e-01,1.80e+01,
223,1.16e-01,1.84e+01,
224,1.16e-01,1.88e+01,
225,1.20e-01,1.92e+01,
226,1.08e-01,2.04e+01,
227,1.08e-01,2.12e+01,
228,9.60e-02,2.24e+01,
229,9.60e-02,2.32e+01,
230,7.60e-02,2.48e+01,
231,6.40e-02,2.60e+01,
232,4.80e-02,2.84e+01,
233,4.00e-02,3.00e+01,
234,2.00e-02,3.20e+01,
235,8.00e-03,3.36e+01,
236,-1.20e-02,3.56e+01,
237,-2.40e-02,3.76e+01,
238,-4.40e-02,3.96e+01,
239,-6.00e-02,4.12e+01,
240,-7.20e-02,4.28e+01,
241,-8.40e-02,4.40e+01,
242,-1.00e-01,4.56e+01,
243,-1.08e-01,4.64e+01,
244,-1.16e-01,4.68e+01,
245,-1.20e-01,4.72e+01,
246,-1.28e-01,4.72e+01,
247,-1.28e-01,4.64e+01,
248,-1.24e-01,4.56e+01,
249,-1.20e-01,4.48e+01,
250,-1.20e-01,4.36e+01,
251,-1.08e-01,4.20e+01,
252,-1.00e-01,4.04e+01,
253,-8.80e-02,3.88e+01,
254,-8.00e-02,3.72e+01,
255,-6.40e-02,3.48e+01,
256,-4.80e-02,3.32e+01,
257,-3.20e-02,3.16e+01,
258,-2.40e-02,3.00e+01,
259,-8.00e-03,2.84e+01,
260,4.00e-03,2.68e+01,
261,2.00e-02,2.56e+01,
262,2.80e-02,2.44e+01,
263,4.40e-02,2.36e+01,
264,5.20e-02,2.28e+01,
265,6.40e-02,2.24e+01,
266,6.40e-02,2.16e+01,
267,7.60e-02,2.16e+01,
268,8.00e-02,2.12e+01,
269,9.20e-02,2.12e+01,
270,8.40e-02,2.12e+01,
271,9.20e-02,2.16e+01,
272,8.40e-02,2.20e+01,
273,9.20e-02,2.24e+01,
274,7.60e-02,2.32e+01,
275,7.60e-02,2.40e+01,
276,6.80e-02,2.48e+01,
277,6.40e-02,2.60e+01,
278,5.20e-02,2.68e+01,
279,4.40e-02,2.88e+01,
280,3.20e-02,3.00e+01,
281,2.40e-02,3.12e+01,
282,4.00e-03,3.28e+01,
283,-4.00e-03,3.44e+01,
284,-1.60e-02,3.56e+01,
285,-2.80e-02,3.72e+01,
286,-4.40e-02,3.88e+01,
287,-5.60e-02,3.96e+01,
288,-6.40e-02,4.08e+01,
289,-7.20e-02,4.16e+01,
290,-8.40e-02,4.24e+01,
291,-8.80e-02,4.28e+01,
292,-9.20e-02,4.32e+01,
293,-9.60e-02,4.28e+01,
294,-1.00e-01,4.28e+01,
295,-1.00e-01,4.24e+01,
296,-9.60e-02,4.16e+01,
297,-9.20e-02,4.12e+01,
298,-8.80e-02,4.00e+01,
299,-8.00e-02,3.88e+01,
300,-7.20e-02,3.76e+01,
301,-6.40e-02,3.60e+01,
302,-5.60e-02,3.48e+01,
303,-4.40e-02,3.36e+01,
304,-3.20e-02,3.20e+01,
305,-2.00e-02,3.12e+01,
306,-1.60e-02,2.96e+01,
307,0.00e+00,2.88e+01,
308,1.20e-02,2.72e+01,
309,2.00e-02,2.64e+01,
310,2.40e-02,2.56e+01,
311,3.60e-02,2.48e+01,
312,4.40e-02,2.44e+01,
313,5.20e-02,2.40e+01,
314,5.20e-02,2.36e+01,
315,6.00e-02,2.36e+01,
316,6.00e-02,2.32e+01,
317,6.80e-02,2.32e+01,
318,6.40e-02,2.36e+01,
319,6.80e-02,2.40e+01,
320,6.40e-02,2.44e+01,
321,6.80e-02,2.48e+01,
322,5.60e-02,2.52e+01,
323,5.60e-02,2.60e+01,
324,4.80e-02,2.68e+01,
325,4.40e-02,2.76e+01,
326,3.20e-02,2.92e+01,
327,2.40e-02,3.00e+01,
328,1.20e-02,3.12e+01,
329,1.20e-02,3.24e+01,
330,-4.00e-03,3.36e+01,
331,-1.20e-02,3.44e+01,
332,-2.40e-02,3.56e+01,
333,-3.20e-02,3.68e+01,
334,-4.00e-02,3.80e+01,
335,-4.80e-02,3.88e+01,
336,-5.60e-02,3.92e+01,
337,-6.00e-02,3.96e+01,
338,-6.80e-02,4.00e+01,
339,-7.20e-02,4.04e+01,
340,-7.20e-02,4.04e+01,
341,-7.60e-02,4.04e+01,
342,-8.00e-02,4.00e+01,
343,-7.60e-02,3.96e+01,
344,-7.20e-02,3.88e+01,
345,-6.80e-02,3.84e+01,
346,-6.80e-02,3.76e+01,
347,-6.00e-02,3.68e+01,
348,-5.20e-02,3.52e+01,
349,-4.40e-02,3.44e+01,
350,-4.00e-02,3.32e+01,
351,-2.80e-02,3.24e+01,
352,-2.00e-02,3.16e+01,
353,-1.20e-02,3.08e+01,
354,-8.00e-03,2.96e+01,
355,4.00e-03,2.88e+01,
356,1.20e-02,2.76e+01,
357,2.00e-02,2.72e+01,
358,2.40e-02,2.64e+01,
359,3.20e-02,2.60e+01,
360,3.60e-02,2.56e+01,
361,4.40e-02,2.52e+01,
362,4.00e-02,2.52e+01,
363,4.80e-02,2.52e+01,
364,4.80e-02,2.52e+01,
365,5.20e-02,2.52e+01,
366,4.80e-02,2.52e+01,
367,4.80e-02,2.56e+01,
368,4.80e-02,2.60e+01,
369,4.80e-02,2.68e+01,
370,4.00e-02,2.72e+01,
371,4.00e-02,2.84e+01,
372,3.20e-02,2.88e+01,
373,2.80e-02,2.96e+01,
374,1.60e-02,3.04e+01,
375,1.60e-02,3.12e+01,
376,4.00e-03,3.20e+01,
377,0.00e+00,3.28e+01,
378,-1.20e-02,3.36e+01,
379,-1.60e-02,3.44e+01,
380,-2.40e-02,3.52e+01,
381,-2.80e-02,3.60e+01,
382,-4.00e-02,3.72e+01,
383,-4.40e-02,3.72e+01,
384,-4.80e-02,3.80e+01,
385,-5.20e-02,3.84e+01,
386,-5.60e-02,3.84e+01,
387,-6.00e-02,3.84e+01,
388,-6.00e-02,3.84e+01,
389,-6.00e-02,3.80e+01,
390,-6.00e-02,3.80e+01,
391,-5.60e-02,3.76e+01,
392,-5.60e-02,3.68e+01,
393,-5.20e-02,3.60e+01,
394,-5.20e-02,3.56e+01,
395,-4.00e-02,3.48e+01,
396,-3.60e-02,3.40e+01,
397,-3.20e-02,3.32e+01,
398,-2.80e-02,3.24e+01,
399,-2.00e-02,3.16e+01,
400,-1.20e-02,3.08e+01,
401,-4.00e-03,3.04e+01,
402,-4.00e-03,2.96e+01,
403,8.00e-03,2.92e+01,
404,1.20e-02,2.88e+01,
405,2.00e-02,2.76e+01,
406,2.00e-02,2.72e+01,
407,2.80e-02,2.68e+01,
408,2.80e-02,2.68e+01,
409,3.60e-02,2.64e+01,
410,3.20e-02,2.64e+01,
411,3.60e-02,2.64e+01,
412,3.60e-02,2.68e+01,
413,4.00e-02,2.68e+01,
414,3.60e-02,2.68e+01,
415,3.60e-02,2.72e+01,
416,3.20e-02,2.76e+01,
417,3.60e-02,2.84e+01,
418,2.40e-02,2.88e+01,
419,2.40e-02,2.96e+01,
420,2.00e-02,3.00e+01,
421,1.60e-02,3.08e+01,
422,8.00e-03,3.12e+01,
423,4.00e-03,3.16e+01,
424,-4.00e-03,3.24e+01,
425,-4.00e-03,3.32e+01,
426,-1.60e-02,3.36e+01,
427,-2.00e-02,3.44e+01,
428,-2.40e-02,3.48e+01,
429,-2.40e-02,3.52e+01,
430,-3.60e-02,3.56e+01,
431,-4.00e-02,3.60e+01,
432,-4.00e-02,3.68e+01,
433,-4.00e-02,3.68e+01,
434,-4.80e-02,3.68e+01,
435,-4.80e-02,3.68e+01,
436,-4.80e-02,3.68e+01,
437,-4.40e-02,3.60e+01,
438,-4.80e-02,3.60e+01,
439,-4.40e-02,3.56e+01,
440,-4.40e-02,3.52e+01,
441,-3.60e-02,3.48e+01,
442,-3.60e-02,3.40e+01,
443,-3.20e-02,3.36e+01,
444,-2.80e-02,3.32e+01,
445,-2.00e-02,3.24e+01,
446,-2.00e-02,3.20e+01,
447,-1.20e-02,3.12e+01,
448,-8.00e-03,3.08e+01,
449,0.00e+00,3.04e+01,
450,0.00e+00,3.00e+01,
451,4.00e-03,2.96e+01,
452,8.00e-03,2.92e+01,
453,1.60e-02,2.88e+01,
454,1.60e-02,2.84e+01,
455,2.00e-02,2.76e+01,
456,2.40e-02,2.76e+01,
457,2.80e-02,2.76e+01,
458,2.40e-02,2.76e+01,
459,2.80e-02,2.76e+01,
460,2.40e-02,2.76e+01,
461,2.80e-02,2.76e+01,
462,2.40e-02,2.84e+01,
463,2.40e-02,2.88e+01,
464,2.00e-02,2.92e+01,
465,2.40e-02,2.96e+01,
466,1.60e-02,3.00e+01,
467,1.60e-02,3.04e+01,
468,8.00e-03,3.08e+01,
469,8.00e-03,3.12e+01,
470,0.00e+00,3.16e+01,
471,0.00e+00,3.24e+01,
472,-8.00e-03,3.28e+01,
473,-8.00e-03,3.32e+01,
474,-1.60e-02,3.36e+01,
475,-2.00e-02,3.40e+01,
476,-2.40e-02,3.44e+01,
477,-2.40e-02,3.48e+01,
478,-3.20e-02,3.48e+01,
479,-3.20e-02,3.52e+01,
480,-3.60e-02,3.52e+01,
481,-3.20e-02,3.52e+01,
482,-4.00e-02,3.52e+01,
483,-3.60e-02,3.52e+01,
484,-3.60e-02,3.52e+01,
485,-3.60e-02,3.48e+01,
486,-3.60e-02,3.48e+01,
487,-3.60e-02,3.44e+01,
488,-3.20e-02,3.40e+01,
489,-2.80e-02,3.36e+01,
490,-2.80e-02,3.32e+01,
491,-2.40e-02,3.28e+01,
492,-2.00e-02,3.24e+01,
493,-1.20e-02,3.20e+01,
494,-1.60e-02,3.16e+01,
495,-8.00e-03,3.12e+01,
496,-4.00e-03,3.08e+01,
497,0.00e+00,3.04e+01,
498,0.00e+00,3.00e+01,
499,8.00e-03,2.96e+01,
500,8.00e-03,2.96e+01,
501,1.20e-02,2.92e+01,
502,1.20e-02,2.92e+01,
503,1.60e-02,2.88e+01,
504,1.60e-02,2.88e+01,
505,2.00e-02,2.88e+01,
506,1.60e-02,2.88e+01,
507,2.00e-02,2.88e+01,
508,2.00e-02,2.92e+01,
509,2.40e-02,2.92e+01,
510,1.60e-02,2.92e+01,
511,2.00e-02,2.96e+01,
512,1.20e-02,3.00e+01,
513,1.60e-02,3.04e+01,
514,8.00e-03,3.04e+01,
515,4.00e-03,3.08e+01,
516,4.00e-03,3.12e+01,
517,4.00e-03,3.16e+01,
518,-4.00e-03,3.20e+01,
519,-8.00e-03,3.24e+01,
520,-1.20e-02,3.28e+01,
521,-1.20e-02,3.32e+01,
522,-2.00e-02,3.36e+01,
523,-2.00e-02,3.36e+01,
524,-2.00e-02,3.40e+01,
525,-2.00e-02,3.40e+01,
526,-2.80e-02,3.44e+01,
527,-2.80e-02,3.44e+01,
528,-2.80e-02,3.44e+01,
529,-2.80e-02,3.44e+01,
530,-3.20e-02,3.44e+01,
531,-2.80e-02,3.44e+01,
532,-2.80e-02,3.40e+01,
533,-2.80e-02,3.40e+01,
534,-2.80e-02,3.40e+01,
535,-2.40e-02,3.36e+01,
536,-2.40e-02,3.32e+01,
537,-2.00e-02,3.32e+01,
538,-2.40e-02,3.28e+01,
539,-1.60e-02,3.24e+01,
540,-1.20e-02,3.20e+01,
541,-8.00e-03,3.16e+01,
542,-8.00e-03,3.16e+01,
543,-8.00e-03,3.08e+01,
544,-4.00e-03,3.08e+01,
545,0.00e+00,3.04e+01,
546,0.00e+00,3.04e+01,
547,8.00e-03,3.00e+01,
548,8.00e-03,2.96e+01,
549,1.20e-02,2.96e+01,
550,8.00e-03,2.96e+01,
551,1.20e-02,2.96e+01,
552,1.20e-02,2.96e+01,
553,1.60e-02,2.96e+01,
554,8.00e-03,2.96e+01,
555,1.20e-02,2.96e+01,
556,1.20e-02,2.96e+01,
557,1.60e-02,3.00e+01,
558,8.00e-03,3.00e+01,
559,8.00e-03,3.04e+01,
560,8.00e-03,3.04e+01,
561,8.00e-03,3.08e+01,
562,0.00e+00,3.12e+01,
563,0.00e+00,3.12e+01,
564,0.00e+00,3.16e+01,
565,0.00e+00,3.20e+01,
566,-8.00e-03,3.24e+01,
567,-8.00e-03,3.24e+01,
568,-8.00e-03,3.28e+01,
569,-1.20e-02,3.32e+01,
570,-2.00e-02,3.32e+01,
571,-2.00e-02,3.36e+01,
572,-2.00e-02,3.36e+01,
573,-2.00e-02,3.36e+01,
574,-2.40e-02,3.40e+01,
575,-2.40e-02,3.40e+01,
576,-2.40e-02,3.40e+01,
577,-2.00e-02,3.40e+01,
578,-2.80e-02,3.36e+01,
579,-2.40e-02,3.36e+01,
580,-2.40e-02,3.36e+01,
581,-2.00e-02,3.32e+01,
582,-2.40e-02,3.32e+01,
583,-2.00e-02,3.28e+01,
584,-2.00e-02,3.28e+01,
585,-1.60e-02,3.24e+01,
586,-2.00e-02,3.24e+01,
587,-1.20e-02,3.20e+01,
588,-1.20e-02,3.16e+01,
589,-8.00e-03,3.16e+01,
590,-8.00e-03,3.12e+01,
591,-4.00e-03,3.08e+01,
592,0.00e+00,3.08e+01,
593,4.00e-03,3.04e+01,
594,-4.00e-03,3.04e+01,
595,4.00e-03,3.04e+01,
596,4.00e-03,3.00e+01,
597,8.00e-03,3.00e+01,
598,8.00e-03,3.00e+01,
599,8.00e-03,3.00e+01,
