lab7/data/baseline_full.csv

X,CH1,CH2,Start,Increment,
Sequence,Volt,Volt,-1.200000e-05,2.000000e-09
0,-4.00e-03,2.84e+01,
1,-4.00e-03,2.84e+01,
2,-8.00e-03,2.84e+01,
3,-4.00e-03,2.84e+01,
4,-8.00e-03,2.84e+01,
5,-4.00e-03,2.84e+01,
6,-8.00e-03,2.84e+01,
7,-8.00e-03,2.84e+01,
8,-8.00e-03,2.84e+01,
9,-4.00e-03,2.84e+01,
10,-4.00e-03,2.84e+01,
11,-4.00e-03,2.84e+01,
12,-8.00e-03,2.84e+01,
13,0.00e+00,2.84e+01,
14,-4.00e-03,2.84e+01,
15,-8.00e-03,2.84e+01,
16,-4.00e-03,2.84e+01,
17,-4.00e-03,2.84e+01,
18,-8.00e-03,2.84e+01,
19,-4.00e-03,2.84e+01,
20,-8.00e-03,2.84e+01,
21,0.00e+00,2.84e+01,
22,-4.00e-03,2.84e+01,
23,-8.00e-03,2.84e+01,
24,-4.00e-03,2.84e+01,
25,-4.00e-03,2.84e+01,
26,-4.00e-03,2.84e+01,
27,-4.00e-03,2.84e+01,
28,-4.00e-03,2.84e+01,
29,0.00e+00,2.84e+01,
30,-4.00e-03,2.84e+01,
31,-4.00e-03,2.84e+01,
32,-8.00e-03,2.84e+01,
33,-4.00e-03,2.84e+01,
34,-8.00e-03,2.84e+01,
35,-4.00e-03,2.84e+01,
36,-4.00e-03,2.84e+01,
37,-4.00e-03,2.84e+01,
38,-4.00e-03,2.84e+01,
39,-4.00e-03,2.84e+01,
40,-8.00e-03,2.84e+01,
41,-4.00e-03,2.84e+01,
42,-4.00e-03,2.84e+01,
43,-4.00e-03,2.84e+01,
44,-4.00e-03,2.84e+01,
45,-4.00e-03,2.84e+01,
46,-4.00e-03,2.84e+01,
47,-8.00e-03,2.84e+01,
48,-8.00e-03,2.84e+01,
49,-4.00e-03,2.84e+01,
50,-8.00e-03,2.84e+01,
51,-4.00e-03,2.84e+01,
52,-8.00e-03,2.84e+01,
53,-4.00e-03,2.84e+01,
54,-4.00e-03,2.84e+01,
55,-8.00e-03,2.84e+01,
56,-4.00e-03,2.84e+01,
57,-4.00e-03,2.84e+01,
58,-8.00e-03,2.84e+01,
59,-4.00e-03,2.84e+01,
60,-4.00e-03,2.84e+01,
61,-4.00e-03,2.84e+01,
62,-4.00e-03,2.84e+01,
63,-4.00e-03,2.84e+01,
64,-4.00e-03,2.84e+01,
65,0.00e+00,2.84e+01,
66,-8.00e-03,2.84e+01,
67,-4.00e-03,2.84e+01,
68,-4.00e-03,2.84e+01,
69,0.00e+00,2.84e+01,
70,-8.00e-03,2.84e+01,
71,-8.00e-03,2.84e+01,
72,-4.00e-03,2.84e+01,
73,-4.00e-03,2.84e+01,
74,-8.00e-03,2.84e+01,
75,-4.00e-03,2.84e+01,
76,-8.00e-03,2.84e+01,
77,0.00e+00,2.84e+01,
78,-4.00e-03,2.84e+01,
79,-4.00e-03,2.84e+01,
80,-8.00e-03,2.84e+01,
81,-4.00e-03,2.84e+01,
82,-8.00e-03,2.84e+01,
83,-4.00e-03,2.84e+01,
84,-8.00e-03,2.84e+01,
85,-4.00e-03,2.84e+01,
86,-4.00e-03,2.84e+01,
87,-4.00e-03,2.84e+01,
88,-4.00e-03,2.84e+01,
89,-4.00e-03,2.84e+01,
90,-4.00e-03,2.84e+01,
91,-4.00e-03,2.84e+01,
92,-8.00e-03,2.84e+01,
93,-4.00e-03,2.84e+01,
94,-4.00e-03,2.84e+01,
95,-4.00e-03,2.84e+01,
96,-8.00e-03,2.84e+01,
97,-4.00e-03,2.84e+01,
98,-4.00e-03,2.84e+01,
99,-4.00e-03,2.84e+01,
100,-8.00e-03,2.84e+01,
101,-4.00e-03,2.84e+01,
102,-4.00e-03,2.84e+01,
103,-8.00e-03,2.84e+01,
104,-8.00e-03,2.84e+01,
105,-4.00e-03,2.84e+01,
106,-4.00e-03,2.84e+01,
107,-4.00e-03,2.84e+01,
108,-8.00e-03,2.84e+01,
109,0.00e+00,2.84e+01,
110,-8.00e-03,2.84e+01,
111,-8.00e-03,2.84e+01,
112,-4.00e-03,2.84e+01,
113,-4.00e-03,2.84e+01,
114,-8.00e-03,2.84e+01,
115,-4.00e-03,2.84e+01,
116,-8.00e-03,2.84e+01,
117,-4.00e-03,2.84e+01,
118,-8.00e-03,2.84e+01,
119,-4.00e-03,2.84e+01,
120,-4.00e-03,2.84e+01,
121,0.00e+00,2.84e+01,
122,-8.00e-03,2.84e+01,
123,-4.00e-03,2.84e+01,
124,-8.00e-03,2.84e+01,
125,0.00e+00,2.84e+01,
126,-4.00e-03,2.84e+01,
127,-4.00e-03,2.84e+01,
128,-8.00e-03,2.84e+01,
129,-4.00e-03,2.84e+01,
130,-4.00e-03,2.84e+01,
131,-4.00e-03,2.84e+01,
132,-8.00e-03,2.84e+01,
133,-4.00e-03,2.84e+01,
134,-4.00e-03,2.84e+01,
135,-8.00e-03,2.84e+01,
136,-4.00e-03,2.84e+01,
137,-4.00e-03,2.84e+01,
138,-4.00e-03,2.84e+01,
139,-4.00e-03,2.84e+01,
140,-8.00e-03,2.84e+01,
141,-4.00e-03,2.84e+01,
142,-4.00e-03,2.84e+01,
143,-8.00e-03,2.84e+01,
144,-8.00e-03,2.84e+01,
145,-4.00e-03,2.84e+01,
146,-4.00e-03,2.84e+01,
147,-4.00e-03,2.84e+01,
148,-8.00e-03,2.84e+01,
149,-4.00e-03,2.84e+01,
150,-8.00e-03,2.84e+01,
151,-4.00e-03,2.84e+01,
152,-4.00e-03,2.84e+01,
153,-4.00e-03,2.84e+01,
154,-8.00e-03,2.84e+01,
155,-4.00e-03,2.84e+01,
156,-4.00e-03,2.84e+01,
157,-4.00e-03,2.84e+01,
158,-4.00e-03,2.84e+01,
159,-8.00e-03,2.84e+01,
160,-8.00e-03,2.84e+01,
161,-4.00e-03,2.84e+01,
162,-4.00e-03,2.84e+01,
163,-4.00e-03,2.84e+01,
164,-8.00e-03,2.84e+01,
165,-4.00e-03,2.84e+01,
166,-4.00e-03,2.84e+01,
167,-8.00e-03,2.84e+01,
168,-8.00e-03,2.84e+01,
169,-4.00e-03,2.84e+01,
170,-8.00e-03,2.84e+01,
171,-8.00e-03,2.84e+01,
172,-4.00e-03,2.84e+01,
173,-4.00e-03,2.84e+01,
174,-8.00e-03,2.84e+01,
175,-4.00e-03,2.84e+01,
176,-4.00e-03,2.84e+01,
177,-4.00e-03,2.84e+01,
178,-8.00e-03,2.84e+01,
179,-8.00e-03,2.84e+01,
180,-4.00e-03,2.84e+01,
181,-4.00e-03,2.84e+01,
182,-4.00e-03,2.84e+01,
183,-4.00e-03,2.84e+01,
184,-4.00e-03,2.84e+01,
185,-4.00e-03,2.84e+01,
186,-8.00e-03,2.84e+01,
187,-4.00e-03,2.84e+01,
188,-8.00e-03,2.84e+01,
189,-4.00e-03,2.84e+01,
190,-8.00e-03,2.84e+01,
191,-8.00e-03,2.84e+01,
192,-8.00e-03,2.84e+01,
193,-4.00e-03,2.84e+01,
194,-4.00e-03,2.84e+01,
195,-4.00e-03,2.84e+01,
196,-8.00e-03,2.84e+01,
197,-4.00e-03,2.84e+01,
198,-4.00e-03,2.84e+01,
199,-4.00e-03,2.84e+01,
200,-8.00e-03,2.84e+01,
201,-4.00e-03,2.84e+01,
202,-4.00e-03,2.84e+01,
203,-4.00e-03,2.84e+01,
204,-8.00e-03,2.84e+01,
205,-4.00e-03,2.84e+01,
206,-4.00e-03,2.84e+01,
207,-4.00e-03,2.84e+01,
208,-8.00e-03,2.84e+01,
209,0.00e+00,2.84e+01,
210,-4.00e-03,2.84e+01,
211,-4.00e-03,2.84e+01,
212,-4.00e-03,2.84e+01,
213,0.00e+00,2.84e+01,
214,-8.00e-03,2.84e+01,
215,-4.00e-03,2.84e+01,
216,-4.00e-03,2.84e+01,
217,-4.00e-03,2.84e+01,
218,-8.00e-03,2.84e+01,
219,-4.00e-03,2.84e+01,
220,-8.00e-03,2.84e+01,
221,0.00e+00,2.84e+01,
222,-8.00e-03,2.84e+01,
223,-4.00e-03,2.84e+01,
224,-4.00e-03,2.84e+01,
225,-4.00e-03,2.84e+01,
226,-4.00e-03,2.84e+01,
227,-4.00e-03,2.84e+01,
228,-4.00e-03,2.84e+01,
229,0.00e+00,2.84e+01,
230,-8.00e-03,2.84e+01,
231,-8.00e-03,2.84e+01,
232,-4.00e-03,2.84e+01,
233,-4.00e-03,2.84e+01,
234,-8.00e-03,2.84e+01,
235,-4.00e-03,2.84e+01,
236,-4.00e-03,2.84e+01,
237,-4.00e-03,2.84e+01,
238,-4.00e-03,2.84e+01,
239,-8.00e-03,2.84e+01,
240,-4.00e-03,2.84e+01,
241,-4.00e-03,2.84e+01,
242,-8.00e-03,2.84e+01,
243,-4.00e-03,2.84e+01,
244,-8.00e-03,2.84e+01,
245,-4.00e-03,2.84e+01,
246,-8.00e-03,2.84e+01,
247,-8.00e-03,2.84e+01,
248,-8.00e-03,2.84e+01,
249,-4.00e-03,2.84e+01,
250,-4.00e-03,2.84e+01,
251,-4.00e-03,2.84e+01,
252,-4.00e-03,2.84e+01,
253,-4.00e-03,2.84e+01,
254,-4.00e-03,2.84e+01,
255,-4.00e-03,2.84e+01,
256,-8.00e-03,2.84e+01,
257,0.00e+00,2.84e+01,
258,-4.00e-03,2.84e+01,
259,-4.00e-03,2.84e+01,
260,-4.00e-03,2.84e+01,
261,0.00e+00,2.84e+01,
262,-4.00e-03,2.84e+01,
263,-4.00e-03,2.84e+01,
264,-4.00e-03,2.84e+01,
265,-4.00e-03,2.84e+01,
266,-8.00e-03,2.84e+01,
267,-8.00e-03,2.84e+01,
268,-4.00e-03,2.84e+01,
269,0.00e+00,2.84e+01,
270,-8.00e-03,2.84e+01,
271,-4.00e-03,2.84e+01,
272,-4.00e-03,2.84e+01,
273,-4.00e-03,2.84e+01,
274,-4.00e-03,2.84e+01,
275,-4.00e-03,2.84e+01,
276,-4.00e-03,2.84e+01,
277,-4.00e-03,2.84e+01,
278,-4.00e-03,2.84e+01,
279,-4.00e-03,2.84e+01,
280,-4.00e-03,2.84e+01,
281,-4.00e-03,2.84e+01,
282,-8.00e-03,2.84e+01,
283,-4.00e-03,2.84e+01,
284,-8.00e-03,2.84e+01,
285,0.00e+00,2.84e+01,
286,-4.00e-03,2.84e+01,
287,-8.00e-03,2.84e+01,
288,-4.00e-03,2.84e+01,
289,-4.00e-03,2.84e+01,
290,-8.00e-03,2.84e+01,
291,-4.00e-03,2.84e+01,
292,-8.00e-03,2.84e+01,
293,-4.00e-03,2.84e+01,
294,-4.00e-03,2.84e+01,
295,-4.00e-03,2.84e+01,
296,-4.00e-03,2.84e+01,
297,-4.00e-03,2.84e+01,
298,-4.00e-03,2.84e+01,
299,-4.00e-03,2.84e+01,
300,-8.00e-03,2.84e+01,
301,-4.00e-03,2.84e+01,
302,-4.00e-03,2.84e+01,
303,-8.00e-03,2.84e+01,
304,-4.00e-03,2.84e+01,
305,-4.00e-03,2.84e+01,
306,-8.00e-03,2.84e+01,
307,-4.00e-03,2.84e+01,
308,-4.00e-03,2.84e+01,
309,0.00e+00,2.84e+01,
310,-4.00e-03,2.84e+01,
311,-4.00e-03,2.84e+01,
312,-8.00e-03,2.84e+01,
313,-4.00e-03,2.84e+01,
314,-4.00e-03,2.84e+01,
315,-4.00e-03,2.84e+01,
316,-8.00e-03,2.84e+01,
317,0.00e+00,2.84e+01,
318,-4.00e-03,2.84e+01,
319,-4.00e-03,2.84e+01,
320,-8.00e-03,2.84e+01,
321,-4.00e-03,2.84e+01,
322,-8.00e-03,2.84e+01,
323,-4.00e-03,2.84e+01,
324,-8.00e-03,2.84e+01,
325,-4.00e-03,2.84e+01,
326,-4.00e-03,2.84e+01,
327,-4.00e-03,2.84e+01,
328,-4.00e-03,2.84e+01,
329,-4.00e-03,2.84e+01,
330,-4.00e-03,2.84e+01,
331,-4.00e-03,2.84e+01,
332,-4.00e-03,2.84e+01,
333,0.00e+00,2.84e+01,
334,-4.00e-03,2.84e+01,
335,-8.00e-03,2.84e+01,
336,-4.00e-03,2.84e+01,
337,-4.00e-03,2.84e+01,
338,-4.00e-03,2.84e+01,
339,-4.00e-03,2.84e+01,
340,-8.00e-03,2.84e+01,
341,0.00e+00,2.84e+01,
342,-4.00e-03,2.84e+01,
343,-4.00e-03,2.84e+01,
344,-8.00e-03,2.84e+01,
345,-4.00e-03,2.84e+01,
346,-4.00e-03,2.84e+01,
347,-8.00e-03,2.84e+01,
348,-4.00e-03,2.84e+01,
349,0.00e+00,2.84e+01,
350,-4.00e-03,2.84e+01,
351,-4.00e-03,2.84e+01,
352,-8.00e-03,2.84e+01,
353,-4.00e-03,2.84e+01,
354,-4.00e-03,2.84e+01,
355,-4.00e-03,2.84e+01,
356,-8.00e-03,2.84e+01,
357,-4.00e-03,2.84e+01,
358,-4.00e-03,2.84e+01,
359,-4.00e-03,2.84e+01,
360,-4.00e-03,2.84e+01,
361,-4.00e-03,2.84e+01,
362,-4.00e-03,2.84e+01,
363,-4.00e-03,2.84e+01,
364,-8.00e-03,2.84e+01,
365,0.00e+00,2.84e+01,
366,-4.00e-03,2.84e+01,
367,-4.00e-03,2.84e+01,
368,-8.00e-03,2.84e+01,
369,-4.00e-03,2.84e+01,
370,-4.00e-03,2.84e+01,
371,-8.00e-03,2.84e+01,
372,-4.00e-03,2.84e+01,
373,-4.00e-03,2.84e+01,
374,-8.00e-03,2.84e+01,
375,-4.00e-03,2.84e+01,
376,-8.00e-03,2.84e+01,
377,-4.00e-03,2.84e+01,
378,-8.00e-03,2.84e+01,
379,-4.00e-03,2.84e+01,
380,-8.00e-03,2.84e+01,
381,-4.00e-03,2.84e+01,
382,-4.00e-03,2.84e+01,
383,-8.00e-03,2.84e+01,
384,-8.00e-03,2.84e+01,
385,-4.00e-03,2.84e+01,
386,-4.00e-03,2.84e+01,
387,-4.00e-03,2.84e+01,
388,-8.00e-03,2.84e+01,
389,0.00e+00,2.84e+01,
390,-8.00e-03,2.84e+01,
391,-4.00e-03,2.84e+01,
392,-8.00e-03,2.84e+01,
393,0.00e+00,2.84e+01,
394,-4.00e-03,2.84e+01,
395,-4.00e-03,2.84e+01,
396,-4.00e-03,2.84e+01,
397,-4.00e-03,2.84e+01,
398,-4.00e-03,2.84e+01,
399,-8.00e-03,2.84e+01,
400,-4.00e-03,2.84e+01,
401,-4.00e-03,2.84e+01,
402,-4.00e-03,2.84e+01,
403,-4.00e-03,2.84e+01,
404,-4.00e-03,2.84e+01,
405,0.00e+00,2.84e+01,
406,-8.00e-03,2.84e+01,
407,-4.00e-03,2.84e+01,
408,-4.00e-03,2.84e+01,
409,0.00e+00,2.84e+01,
410,-4.00e-03,2.84e+01,
411,-4.00e-03,2.84e+01,
412,-8.00e-03,2.84e+01,
413,0.00e+00,2.84e+01,
414,-4.00e-03,2.84e+01,
415,-8.00e-03,2.84e+01,
416,-8.00e-03,2.84e+01,
417,-4.00e-03,2.84e+01,
418,-4.00e-03,2.84e+01,
419,-4.00e-03,2.84e+01,
420,-4.00e-03,2.84e+01,
421,-4.00e-03,2.84e+01,
422,-4.00e-03,2.84e+01,
423,-4.00e-03,2.84e+01,
424,-4.00e-03,2.84e+01,
425,-4.00e-03,2.84e+01,
426,-4.00e-03,2.84e+01,
427,-4.00e-03,2.84e+01,
428,-4.00e-03,2.84e+01,
429,0.00e+00,2.84e+01,
430,-4.00e-03,2.84e+01,
431,-8.00e-03,2.84e+01,
432,-4.00e-03,2.84e+01,
433,0.00e+00,2.84e+01,
434,-4.00e-03,2.84e+01,
435,-4.00e-03,2.84e+01,
436,-8.00e-03,2.84e+01,
437,-4.00e-03,2.84e+01,
438,-4.00e-03,2.84e+01,
439,-4.00e-03,2.84e+01,
440,-8.00e-03,2.84e+01,
441,-4.00e-03,2.84e+01,
442,-8.00e-03,2.84e+01,
443,-4.00e-03,2.84e+01,
444,-4.00e-03,2.84e+01,
445,-4.00e-03,2.84e+01,
446,-4.00e-03,2.84e+01,
447,-8.00e-03,2.84e+01,
448,-8.00e-03,2.84e+01,
449,-4.00e-03,2.84e+01,
450,-4.00e-03,2.84e+01,
451,-4.00e-03,2.84e+01,
452,-4.00e-03,2.84e+01,
453,-4.00e-03,2.84e+01,
454,-4.00e-03,2.84e+01,
455,-4.00e-03,2.84e+01,
456,-8.00e-03,2.84e+01,
457,-4.00e-03,2.84e+01,
458,-4.00e-03,2.84e+01,
459,-4.00e-03,2.84e+01,
460,-8.00e-03,2.84e+01,
461,0.00e+00,2.84e+01,
462,-4.00e-03,2.84e+01,
463,-4.00e-03,2.84e+01,
464,-4.00e-03,2.84e+01,
465,-4.00e-03,2.84e+01,
466,-4.00e-03,2.84e+01,
467,-4.00e-03,2.84e+01,
468,-4.00e-03,2.84e+01,
469,-4.00e-03,2.84e+01,
470,-4.00e-03,2.84e+01,
471,-8.00e-03,2.84e+01,
472,-8.00e-03,2.84e+01,
473,-4.00e-03,2.84e+01,
474,-4.00e-03,2.84e+01,
475,-4.00e-03,2.84e+01,
476,-4.00e-03,2.84e+01,
477,-4.00e-03,2.84e+01,
478,-4.00e-03,2.84e+01,
479,-4.00e-03,2.84e+01,
480,-4.00e-03,2.84e+01,
481,-4.00e-03,2.84e+01,
482,-4.00e-03,2.84e+01,
483,-4.00e-03,2.84e+01,
484,-8.00e-03,2.84e+01,
485,-4.00e-03,2.84e+01,
486,-4.00e-03,2.84e+01,
487,-4.00e-03,2.84e+01,
488,-4.00e-03,2.84e+01,
489,-4.00e-03,2.84e+01,
490,-4.00e-03,2.84e+01,
491,-4.00e-03,2.84e+01,
492,-4.00e-03,2.84e+01,
493,0.00e+00,2.84e+01,
494,-4.00e-03,2.84e+01,
495,-8.00e-03,2.84e+01,
496,-4.00e-03,2.84e+01,
497,-4.00e-03,2.84e+01,
498,-8.00e-03,2.84e+01,
499,-4.00e-03,2.84e+01,
500,-8.00e-03,2.84e+01,
501,0.00e+00,2.84e+01,
502,-4.00e-03,2.84e+01,
503,-4.00e-03,2.84e+01,
504,-4.00e-03,2.84e+01,
505,-4.00e-03,2.84e+01,
506,-4.00e-03,2.76e+01,
507,-4.00e-03,2.84e+01,
508,-8.00e-03,2.84e+01,
509,-4.00e-03,2.84e+01,
510,-4.00e-03,2.76e+01,
511,-4.00e-03,2.84e+01,
512,-8.00e-03,2.84e+01,
513,0.00e+00,2.84e+01,
514,-8.00e-03,2.84e+01,
515,-4.00e-03,2.84e+01,
516,-4.00e-03,2.84e+01,
517,0.00e+00,2.84e+01,
518,-4.00e-03,2.84e+01,
519,-4.00e-03,2.84e+01,
520,-4.00e-03,2.84e+01,
521,0.00e+00,2.84e+01,
522,-4.00e-03,2.84e+01,
523,-4.00e-03,2.84e+01,
524,-8.00e-03,2.84e+01,
525,0.00e+00,2.84e+01,
526,-4.00e-03,2.76e+01,
527,-4.00e-03,2.84e+01,
528,-8.00e-03,2.84e+01,
529,-4.00e-03,2.84e+01,
530,-4.00e-03,2.84e+01,
531,-4.00e-03,2.84e+01,
532,-4.00e-03,2.84e+01,
533,0.00e+00,2.84e+01,
534,-4.00e-03,2.76e+01,
535,-4.00e-03,2.84e+01,
536,-4.00e-03,2.84e+01,
537,-4.00e-03,2.84e+01,
538,-4.00e-03,2.84e+01,
539,-4.00e-03,2.84e+01,
540,-4.00e-03,2.84e+01,
541,-4.00e-03,2.84e+01,
542,-4.00e-03,2.76e+01,
543,-8.00e-03,2.84e+01,
544,-4.00e-03,2.84e+01,
545,-4.00e-03,2.84e+01,
546,-4.00e-03,2.84e+01,
547,-4.00e-03,2.84e+01,
548,-4.00e-03,2.84e+01,
549,0.00e+00,2.84e+01,
550,-4.00e-03,2.84e+01,
551,-4.00e-03,2.84e+01,
552,-4.00e-03,2.84e+01,
553,0.00e+00,2.84e+01,
554,-8.00e-03,2.84e+01,
555,-4.00e-03,2.84e+01,
556,-8.00e-03,2.84e+01,
557,-4.00e-03,2.84e+01,
558,-4.00e-03,2.84e+01,
559,-4.00e-03,2.84e+01,
560,-4.00e-03,2.84e+01,
561,0.00e+00,2.84e+01,
562,-4.00e-03,2.76e+01,
563,-4.00e-03,2.84e+01,
564,-8.00e-03,2.84e+01,
565,0.00e+00,2.84e+01,
566,-4.00e-03,2.84e+01,
567,-4.00e-03,2.84e+01,
568,-4.00e-03,2.84e+01,
569,-4.00e-03,2.84e+01,
570,-4.00e-03,2.76e+01,
571,-4.00e-03,2.84e+01,
572,-4.00e-03,2.84e+01,
573,0.00e+00,2.84e+01,
574,-4.00e-03,2.76e+01,
575,-4.00e-03,2.84e+01,
576,-4.00e-03,2.84e+01,
577,-4.00e-03,2.84e+01,
578,-4.00e-03,2.76e+01,
579,-4.00e-03,2.84e+01,
580,-8.00e-03,2.84e+01,
581,0.00e+00,2.84e+01,
582,-4.00e-03,2.76e+01,
583,-4.00e-03,2.84e+01,
584,-4.00e-03,2.84e+01,
585,0.00e+00,2.84e+01,
586,-4.00e-03,2.76e+01,
587,-4.00e-03,2.84e+01,
588,-4.00e-03,2.84e+01,
589,0.00e+00,2.84e+01,
590,-4.00e-03,2.76e+01,
591,-4.00e-03,2.84e+01,
592,-4.00e-03,2.84e+01,
593,-4.00e-03,2.84e+01,
594,-4.00e-03,2.76e+01,
595,-4.00e-03,2.84e+01,
596,-4.00e-03,2.84e+01,
597,0.00e+00,2.84e+01,
598,-4.00e-03,2.76e+01,
599,-8.00e-03,2.84e+01,
600,-4.00e-03,2.84e+01,
601,0.00e+00,2.84e+01,
602,-4.00e-03,2.76e+01,
603,0.00e+00,2.84e+01,
604,-8.00e-03,2.84e+01,
605,-4.00e-03,2.84e+01,
606,-4.00e-03,2.76e+01,
607,-4.00e-03,2.84e+01,
608,-4.00e-03,2.84e+01,
609,-4.00e-03,2.84e+01,
610,-4.00e-03,2.76e+01,
611,-4.00e-03,2.84e+01,
612,-8.00e-03,2.84e+01,
613,-4.00e-03,2.84e+01,
614,-4.00e-03,2.76e+01,
615,-4.00e-03,2.84e+01,
616,-8.00e-03,2.84e+01,
617,-4.00e-03,2.76e+01,
618,-4.00e-03,2.76e+01,
619,-4.00e-03,2.84e+01,
620,-4.00e-03,2.76e+01,
621,-4.00e-03,2.76e+01,
622,-4.00e-03,2.76e+01,
623,-8.00e-03,2.76e+01,
624,-8.00e-03,2.76e+01,
625,-4.00e-03,2.76e+01,
626,-8.00e-03,2.76e+01,
627,-8.00e-03,2.76e+01,
628,-8.00e-03,2.76e+01,
629,-4.00e-03,2.76e+01,
630,-8.00e-03,2.76e+01,
631,-8.00e-03,2.76e+01,
632,-8.00e-03,2.76e+01,
633,-4.00e-03,2.76e+01,
634,-8.00e-03,2.76e+01,
635,-8.00e-03,2.76e+01,
636,-8.00e-03,2.76e+01,
637,-4.00e-03,2.76e+01,
638,-8.00e-03,2.68e+01,
639,-8.00e-03,2.68e+01,
640,-8.00e-03,2.68e+01,
641,-4.00e-03,2.68e+01,
642,-8.00e-03,2.68e+01,
643,-4.00e-03,2.68e+01,
644,-8.00e-03,2.68e+01,
645,-4.00e-03,2.68e+01,
646,-8.00e-03,2.60e+01,
647,-8.00e-03,2.68e+01,
648,-8.00e-03,2.60e+01,
649,-4.00e-03,2.60e+01,
650,-8.00e-03,2.60e+01,
651,-8.00e-03,2.60e+01,
652,-8.00e-03,2.60e+01,
653,-4.00e-03,2.60e+01,
654,-8.00e-03,2.60e+01,
655,-8.00e-03,2.60e+01,
656,-8.00e-03,2.52e+01,
657,-4.00e-03,2.52e+01,
658,-8.00e-03,2.52e+01,
659,-8.00e-03,2.52e+01,
660,-8.00e-03,2.52e+01,
661,-4.00e-03,2.52e+01,
662,-8.00e-03,2.44e+01,
663,-8.00e-03,2.44e+01,
664,-8.00e-03,2.44e+01,
665,-4.00e-03,2.44e+01,
666,-8.00e-03,2.44e+01,
667,-8.00e-03,2.44e+01,
668,-8.00e-03,2.44e+01,
669,-4.00e-03,2.36e+01,
670,-8.00e-03,2.36e+01,
671,-8.00e-03,2.36e+01,
672,-1.20e-02,2.36e+01,
673,-4.00e-03,2.36e+01,
674,-8.00e-03,2.28e+01,
675,-8.00e-03,2.36e+01,
676,-8.00e-03,2.28e+01,
677,-4.00e-03,2.28e+01,
678,-8.00e-03,2.28e+01,
679,-8.00e-03,2.28e+01,
680,-8.00e-03,2.28e+01,
681,-4.00e-03,2.20e+01,
682,-8.00e-03,2.20e+01,
683,-8.00e-03,2.20e+01,
684,-8.00e-03,2.20e+01,
685,-4.00e-03,2.20e+01,
686,-8.00e-03,2.12e+01,
687,-8.00e-03,2.12e+01,
688,-8.00e-03,2.12e+01,
689,-4.00e-03,2.12e+01,
690,-8.00e-03,2.12e+01,
691,-8.00e-03,2.12e+01,
692,-8.00e-03,2.04e+01,
693,-4.00e-03,2.04e+01,
694,-8.00e-03,2.04e+01,
695,-8.00e-03,2.04e+01,
696,-8.00e-03,2.04e+01,
697,-4.00e-03,2.04e+01,
698,-8.00e-03,1.96e+01,
699,-4.00e-03,1.96e+01,
700,-8.00e-03,1.96e+01,
701,-4.00e-03,1.96e+01,
702,-8.00e-03,1.80e+01,
703,-8.00e-03,1.80e+01,
704,-8.00e-03,1.80e+01,
705,-4.00e-03,1.80e+01,
706,-8.00e-03,1.80e+01,
707,-8.00e-03,1.80e+01,
708,-8.00e-03,1.80e+01,
709,-4.00e-03,1.72e+01,
710,-8.00e-03,1.72e+01,
711,-8.00e-03,1.72e+01,
712,-8.00e-03,1.72e+01,
713,-4.00e-03,1.64e+01,
714,-8.00e-03,1.64e+01,
715,-8.00e-03,1.64e+01,
716,-8.00e-03,1.64e+01,
717,-4.00e-03,1.64e+01,
718,-8.00e-03,1.56e+01,
719,-8.00e-03,1.64e+01,
720,-8.00e-03,1.64e+01,
721,-4.00e-03,1.56e+01,
722,-8.00e-03,1.56e+01,
723,-8.00e-03,1.56e+01,
724,-8.00e-03,1.56e+01,
725,-4.00e-03,1.56e+01,
726,-8.00e-03,1.48e+01,
727,-8.00e-03,1.48e+01,
728,-8.00e-03,1.48e+01,
729,-8.00e-03,1.48e+01,
730,-8.00e-03,1.48e+01,
731,-4.00e-03,1.48e+01,
732,-8.00e-03,1.48e+01,
733,0.00e+00,1.40e+01,
734,-8.00e-03,1.40e+01,
735,-8.00e-03,1.40e+01,
736,-8.00e-03,1.40e+01,
737,-4.00e-03,1.40e+01,
738,-8.00e-03,1.32e+01,
739,-4.00e-03,1.40e+01,
740,-8.00e-03,1.40e+01,
741,-4.00e-03,1.32e+01,
742,-8.00e-03,1.32e+01,
743,-8.00e-03,1.32e+01,
744,-8.00e-03,1.32e+01,
745,-4.00e-03,1.32e+01,
746,-8.00e-03,1.24e+01,
747,-4.00e-03,1.32e+01,
748,-8.00e-03,1.32e+01,
749,0.00e+00,1.24e+01,
750,-4.00e-03,1.24e+01,
751,-4.00e-03,1.24e+01,
752,-8.00e-03,1.24e+01,
753,-4.00e-03,1.24e+01,
754,-8.00e-03,1.16e+01,
755,-4.00e-03,1.24e+01,
756,-8.00e-03,1.24e+01,
757,0.00e+00,1.16e+01,
758,-4.00e-03,1.16e+01,
759,-4.00e-03,1.16e+01,
760,-8.00e-03,1.16e+01,
761,0.00e+00,1.16e+01,
762,-4.00e-03,1.16e+01,
763,-4.00e-03,1.16e+01,
764,-4.00e-03,1.16e+01,
765,-4.00e-03,1.16e+01,
766,-4.00e-03,1.08e+01,
767,-4.00e-03,1.08e+01,
768,-4.00e-03,1.16e+01,
769,0.00e+00,1.08e+01,
770,-4.00e-03,1.00e+01,
771,-4.00e-03,1.16e+01,
772,-4.00e-03,1.08e+01,
773,0.00e+00,1.08e+01,
774,-4.00e-03,1.08e+01,
775,-8.00e-03,1.08e+01,
776,-4.00e-03,1.08e+01,
777,0.00e+00,1.08e+01,
778,-4.00e-03,1.00e+01,
779,0.00e+00,1.08e+01,
780,-4.00e-03,1.08e+01,
781,0.00e+00,1.00e+01,
782,-4.00e-03,1.00e+01,
783,-4.00e-03,1.00e+01,
784,-4.00e-03,1.00e+01,
785,0.00e+00,1.00e+01,
786,-4.00e-03,1.00e+01,
787,0.00e+00,1.00e+01,
788,-4.00e-03,1.00e+01,
789,0.00e+00,1.00e+01,
790,-4.00e-03,1.00e+01,
791,-4.00e-03,1.00e+01,
792,-4.00e-03,1.00e+01,
793,0.00e+00,1.00e+01,
794,-4.00e-03,9.20e+00,
795,-4.00e-03,1.00e+01,
796,-4.00e-03,1.00e+01,
797,0.00e+00,1.00e+01,
798,-4.00e-03,9.20e+00,
799,-4.00e-03,9.20e+00,
800,-4.00e-03,1.00e+01,
801,0.00e+00,9.20e+00,
802,-4.00e-03,9.20e+00,
803,-4.00e-03,1.00e+01,
804,-4.00e-03,1.00e+01,
805,0.00e+00,9.20e+00,
806,-4.00e-03,9.20e+00,
807,-4.00e-03,9.20e+00,
808,-4.00e-03,9.20e+00,
809,0.00e+00,9.20e+00,
810,-4.00e-03,9.20e+00,
811,0.00e+00,9.20e+00,
812,-4.00e-03,9.20e+00,
813,0.00e+00,9.20e+00,
814,-4.00e-03,9.20e+00,
815,-4.00e-03,9.20e+00,
816,-4.00e-03,9.20e+00,
817,0.00e+00,9.20e+00,
818,-4.00e-03,9.20e+00,
819,0.00e+00,9.20e+00,
820,-4.00e-03,9.20e+00,
821,0.00e+00,9.20e+00,
822,-4.00e-03,9.20e+00,
823,-4.00e-03,9.20e+00,
824,-4.00e-03,9.20e+00,
825,0.00e+00,9.20e+00,
826,0.00e+00,9.20e+00,
827,0.00e+00,9.20e+00,
828,-4.00e-03,9.20e+00,
829,4.00e-03,9.20e+00,
830,-4.00e-03,9.20e+00,
831,0.00e+00,9.20e+00,
832,0.00e+00,9.20e+00,
833,0.00e+00,9.20e+00,
834,-4.00e-03,9.20e+00,
835,0.00e+00,1.00e+01,
836,0.00e+00,1.00e+01,
837,4.00e-03,9.20e+00,
