lab7/data/clamp_full_7.csv

X,CH1,CH2,CH3,Start,Increment,
Sequence,Volt,Volt,Volt,-1.202000e-05,4.000000e-09
0,-1.20e-02,2.72e+01,3.84e+01,
1,4.00e-03,2.72e+01,3.84e+01,
2,-1.20e-02,2.72e+01,3.84e+01,
3,4.00e-03,2.72e+01,3.80e+01,
4,-1.20e-02,2.72e+01,3.84e+01,
5,4.00e-03,2.72e+01,3.84e+01,
6,4.00e-03,2.72e+01,3.84e+01,
7,4.00e-03,2.72e+01,3.84e+01,
8,4.00e-03,2.72e+01,3.84e+01,
9,-1.20e-02,2.72e+01,3.80e+01,
10,-1.20e-02,2.72e+01,3.84e+01,
11,4.00e-03,2.72e+01,3.84e+01,
12,4.00e-03,2.72e+01,3.84e+01,
13,4.00e-03,2.72e+01,3.84e+01,
14,-1.20e-02,2.72e+01,3.80e+01,
15,4.00e-03,2.72e+01,3.84e+01,
16,4.00e-03,2.72e+01,3.84e+01,
17,-1.20e-02,2.72e+01,3.80e+01,
18,-1.20e-02,2.72e+01,3.80e+01,
19,4.00e-03,2.72e+01,3.80e+01,
20,4.00e-03,2.72e+01,3.84e+01,
21,-1.20e-02,2.72e+01,3.80e+01,
22,-1.20e-02,2.72e+01,3.80e+01,
23,4.00e-03,2.72e+01,3.84e+01,
24,4.00e-03,2.72e+01,3.84e+01,
25,-1.20e-02,2.72e+01,3.80e+01,
26,-1.20e-02,2.72e+01,3.80e+01,
27,-1.20e-02,2.72e+01,3.80e+01,
28,4.00e-03,2.72e+01,3.84e+01,
29,4.00e-03,2.72e+01,3.80e+01,
30,-1.20e-02,2.72e+01,3.80e+01,
31,4.00e-03,2.72e+01,3.80e+01,
32,4.00e-03,2.72e+01,3.84e+01,
33,4.00e-03,2.72e+01,3.84e+01,
34,4.00e-03,2.72e+01,3.80e+01,
35,4.00e-03,2.72e+01,3.80e+01,
36,-1.20e-02,2.72e+01,3.84e+01,
37,-1.20e-02,2.72e+01,3.80e+01,
38,-1.20e-02,2.72e+01,3.80e+01,
39,4.00e-03,2.72e+01,3.80e+01,
40,-1.20e-02,2.72e+01,3.84e+01,
41,-1.20e-02,2.72e+01,3.80e+01,
42,4.00e-03,2.72e+01,3.80e+01,
43,4.00e-03,2.72e+01,3.84e+01,
44,4.00e-03,2.72e+01,3.84e+01,
45,4.00e-03,2.72e+01,3.84e+01,
46,-1.20e-02,2.72e+01,3.80e+01,
47,-1.20e-02,2.72e+01,3.80e+01,
48,4.00e-03,2.72e+01,3.80e+01,
49,4.00e-03,2.72e+01,3.80e+01,
50,-1.20e-02,2.72e+01,3.80e+01,
51,4.00e-03,2.72e+01,3.80e+01,
52,4.00e-03,2.72e+01,3.80e+01,
53,4.00e-03,2.72e+01,3.80e+01,
54,-1.20e-02,2.72e+01,3.80e+01,
55,4.00e-03,2.72e+01,3.80e+01,
56,4.00e-03,2.72e+01,3.80e+01,
57,-1.20e-02,2.72e+01,3.80e+01,
58,4.00e-03,2.72e+01,3.80e+01,
59,4.00e-03,2.72e+01,3.80e+01,
60,-1.20e-02,2.72e+01,3.84e+01,
61,-1.20e-02,2.72e+01,3.80e+01,
62,-1.20e-02,2.72e+01,3.80e+01,
63,4.00e-03,2.72e+01,3.80e+01,
64,4.00e-03,2.72e+01,3.80e+01,
65,-1.20e-02,2.72e+01,3.84e+01,
66,-1.20e-02,2.72e+01,3.80e+01,
67,-1.20e-02,2.72e+01,3.80e+01,
68,4.00e-03,2.72e+01,3.80e+01,
69,-1.20e-02,2.72e+01,3.80e+01,
70,-1.20e-02,2.72e+01,3.80e+01,
71,4.00e-03,2.72e+01,3.80e+01,
72,4.00e-03,2.72e+01,3.84e+01,
73,-1.20e-02,2.72e+01,3.80e+01,
74,-1.20e-02,2.72e+01,3.80e+01,
75,4.00e-03,2.72e+01,3.80e+01,
76,4.00e-03,2.72e+01,3.80e+01,
77,-1.20e-02,2.72e+01,3.80e+01,
78,-1.20e-02,2.72e+01,3.80e+01,
79,4.00e-03,2.72e+01,3.80e+01,
80,-1.20e-02,2.72e+01,3.84e+01,
81,-1.20e-02,2.72e+01,3.80e+01,
82,-1.20e-02,2.72e+01,3.80e+01,
83,4.00e-03,2.72e+01,3.80e+01,
84,4.00e-03,2.72e+01,3.80e+01,
85,-1.20e-02,2.72e+01,3.80e+01,
86,4.00e-03,2.72e+01,3.80e+01,
87,4.00e-03,2.72e+01,3.80e+01,
88,4.00e-03,2.72e+01,3.80e+01,
89,-1.20e-02,2.72e+01,3.80e+01,
90,4.00e-03,2.72e+01,3.80e+01,
91,4.00e-03,2.72e+01,3.80e+01,
92,-1.20e-02,2.72e+01,3.80e+01,
93,4.00e-03,2.72e+01,3.80e+01,
94,4.00e-03,2.72e+01,3.80e+01,
95,4.00e-03,2.72e+01,3.80e+01,
96,4.00e-03,2.72e+01,3.80e+01,
97,4.00e-03,2.72e+01,3.80e+01,
98,-1.20e-02,2.72e+01,3.80e+01,
99,4.00e-03,2.72e+01,3.80e+01,
100,4.00e-03,2.72e+01,3.80e+01,
101,-1.20e-02,2.72e+01,3.80e+01,
102,-1.20e-02,2.72e+01,3.80e+01,
103,4.00e-03,2.72e+01,3.80e+01,
104,-1.20e-02,2.72e+01,3.80e+01,
105,4.00e-03,2.72e+01,3.80e+01,
106,4.00e-03,2.72e+01,3.80e+01,
107,4.00e-03,2.72e+01,3.80e+01,
108,-1.20e-02,2.72e+01,3.80e+01,
109,4.00e-03,2.72e+01,3.80e+01,
110,4.00e-03,2.72e+01,3.80e+01,
111,4.00e-03,2.72e+01,3.80e+01,
112,4.00e-03,2.72e+01,3.80e+01,
113,4.00e-03,2.72e+01,3.80e+01,
114,-1.20e-02,2.72e+01,3.80e+01,
115,4.00e-03,2.72e+01,3.80e+01,
116,4.00e-03,2.72e+01,3.80e+01,
117,-1.20e-02,2.72e+01,3.80e+01,
118,4.00e-03,2.72e+01,3.80e+01,
119,4.00e-03,2.72e+01,3.80e+01,
120,4.00e-03,2.72e+01,3.80e+01,
121,-1.20e-02,2.72e+01,3.80e+01,
122,-1.20e-02,2.72e+01,3.80e+01,
123,4.00e-03,2.72e+01,3.80e+01,
124,-1.20e-02,2.72e+01,3.80e+01,
125,4.00e-03,2.72e+01,3.80e+01,
126,-1.20e-02,2.72e+01,3.80e+01,
127,4.00e-03,2.72e+01,3.80e+01,
128,4.00e-03,2.72e+01,3.80e+01,
129,4.00e-03,2.72e+01,3.80e+01,
130,-1.20e-02,2.72e+01,3.80e+01,
131,4.00e-03,2.72e+01,3.80e+01,
132,-1.20e-02,2.72e+01,3.80e+01,
133,4.00e-03,2.72e+01,3.80e+01,
134,4.00e-03,2.72e+01,3.78e+01,
135,4.00e-03,2.72e+01,3.80e+01,
136,4.00e-03,2.72e+01,3.80e+01,
137,4.00e-03,2.72e+01,3.80e+01,
138,4.00e-03,2.72e+01,3.80e+01,
139,4.00e-03,2.72e+01,3.80e+01,
140,-1.20e-02,2.72e+01,3.80e+01,
141,-1.20e-02,2.72e+01,3.80e+01,
142,-1.20e-02,2.72e+01,3.80e+01,
143,4.00e-03,2.72e+01,3.80e+01,
144,4.00e-03,2.72e+01,3.80e+01,
145,-1.20e-02,2.72e+01,3.80e+01,
146,-1.20e-02,2.72e+01,3.80e+01,
147,4.00e-03,2.72e+01,3.80e+01,
148,4.00e-03,2.72e+01,3.80e+01,
149,4.00e-03,2.72e+01,3.80e+01,
150,-1.20e-02,2.72e+01,3.80e+01,
151,4.00e-03,2.72e+01,3.80e+01,
152,4.00e-03,2.72e+01,3.80e+01,
153,-1.20e-02,2.72e+01,3.80e+01,
154,4.00e-03,2.72e+01,3.80e+01,
155,4.00e-03,2.72e+01,3.80e+01,
156,4.00e-03,2.72e+01,3.80e+01,
157,-1.20e-02,2.72e+01,3.80e+01,
158,4.00e-03,2.72e+01,3.80e+01,
159,-1.20e-02,2.72e+01,3.80e+01,
160,-1.20e-02,2.72e+01,3.80e+01,
161,4.00e-03,2.72e+01,3.78e+01,
162,4.00e-03,2.72e+01,3.78e+01,
163,4.00e-03,2.72e+01,3.80e+01,
164,4.00e-03,2.72e+01,3.80e+01,
165,4.00e-03,2.72e+01,3.80e+01,
166,4.00e-03,2.72e+01,3.78e+01,
167,4.00e-03,2.72e+01,3.78e+01,
168,4.00e-03,2.72e+01,3.80e+01,
169,4.00e-03,2.72e+01,3.80e+01,
170,4.00e-03,2.72e+01,3.80e+01,
171,4.00e-03,2.72e+01,3.78e+01,
172,4.00e-03,2.72e+01,3.80e+01,
173,4.00e-03,2.72e+01,3.80e+01,
174,-1.20e-02,2.72e+01,3.78e+01,
175,4.00e-03,2.72e+01,3.78e+01,
176,4.00e-03,2.72e+01,3.80e+01,
177,-1.20e-02,2.72e+01,3.80e+01,
178,-1.20e-02,2.72e+01,3.80e+01,
179,4.00e-03,2.72e+01,3.80e+01,
180,4.00e-03,2.72e+01,3.80e+01,
181,4.00e-03,2.72e+01,3.78e+01,
182,4.00e-03,2.72e+01,3.80e+01,
183,4.00e-03,2.72e+01,3.78e+01,
184,4.00e-03,2.72e+01,3.80e+01,
185,4.00e-03,2.72e+01,3.78e+01,
186,4.00e-03,2.72e+01,3.80e+01,
187,4.00e-03,2.72e+01,3.78e+01,
188,4.00e-03,2.72e+01,3.80e+01,
189,4.00e-03,2.72e+01,3.80e+01,
190,-1.20e-02,2.72e+01,3.78e+01,
191,4.00e-03,2.72e+01,3.78e+01,
192,4.00e-03,2.72e+01,3.78e+01,
193,-1.20e-02,2.72e+01,3.80e+01,
194,-1.20e-02,2.72e+01,3.78e+01,
195,4.00e-03,2.72e+01,3.78e+01,
196,4.00e-03,2.72e+01,3.78e+01,
197,4.00e-03,2.72e+01,3.78e+01,
198,4.00e-03,2.72e+01,3.80e+01,
199,4.00e-03,2.72e+01,3.78e+01,
200,4.00e-03,2.72e+01,3.80e+01,
201,4.00e-03,2.72e+01,3.78e+01,
202,4.00e-03,2.72e+01,3.78e+01,
203,4.00e-03,2.72e+01,3.78e+01,
204,4.00e-03,2.72e+01,3.80e+01,
205,4.00e-03,2.72e+01,3.80e+01,
206,4.00e-03,2.72e+01,3.78e+01,
207,4.00e-03,2.72e+01,3.78e+01,
208,4.00e-03,2.72e+01,3.80e+01,
209,4.00e-03,2.72e+01,3.78e+01,
210,4.00e-03,2.72e+01,3.78e+01,
211,4.00e-03,2.72e+01,3.78e+01,
212,4.00e-03,2.72e+01,3.80e+01,
213,4.00e-03,2.72e+01,3.78e+01,
214,4.00e-03,2.72e+01,3.80e+01,
215,4.00e-03,2.72e+01,3.78e+01,
216,4.00e-03,2.72e+01,3.78e+01,
217,4.00e-03,2.72e+01,3.78e+01,
218,4.00e-03,2.72e+01,3.78e+01,
219,4.00e-03,2.72e+01,3.78e+01,
220,4.00e-03,2.72e+01,3.80e+01,
221,4.00e-03,2.72e+01,3.78e+01,
222,4.00e-03,2.72e+01,3.78e+01,
223,4.00e-03,2.72e+01,3.78e+01,
224,4.00e-03,2.72e+01,3.80e+01,
225,4.00e-03,2.72e+01,3.78e+01,
226,4.00e-03,2.72e+01,3.78e+01,
227,4.00e-03,2.72e+01,3.78e+01,
228,4.00e-03,2.72e+01,3.80e+01,
229,4.00e-03,2.72e+01,3.80e+01,
230,4.00e-03,2.72e+01,3.78e+01,
231,4.00e-03,2.72e+01,3.78e+01,
232,4.00e-03,2.72e+01,3.78e+01,
233,4.00e-03,2.72e+01,3.78e+01,
234,4.00e-03,2.72e+01,3.78e+01,
235,4.00e-03,2.72e+01,3.78e+01,
236,4.00e-03,2.72e+01,3.78e+01,
237,4.00e-03,2.72e+01,3.78e+01,
238,4.00e-03,2.72e+01,3.78e+01,
239,4.00e-03,2.72e+01,3.78e+01,
240,4.00e-03,2.72e+01,3.78e+01,
241,4.00e-03,2.72e+01,3.78e+01,
242,4.00e-03,2.72e+01,3.78e+01,
243,4.00e-03,2.72e+01,3.78e+01,
244,4.00e-03,2.72e+01,3.78e+01,
245,4.00e-03,2.72e+01,3.78e+01,
246,-1.20e-02,2.72e+01,3.78e+01,
247,4.00e-03,2.72e+01,3.78e+01,
248,4.00e-03,2.72e+01,3.78e+01,
249,4.00e-03,2.68e+01,3.78e+01,
250,4.00e-03,2.72e+01,3.78e+01,
251,4.00e-03,2.72e+01,3.78e+01,
252,4.00e-03,2.72e+01,3.78e+01,
253,4.00e-03,2.72e+01,3.78e+01,
254,4.00e-03,2.72e+01,3.78e+01,
255,4.00e-03,2.72e+01,3.78e+01,
256,4.00e-03,2.72e+01,3.80e+01,
257,-1.20e-02,2.72e+01,3.78e+01,
258,4.00e-03,2.72e+01,3.78e+01,
259,4.00e-03,2.72e+01,3.78e+01,
260,4.00e-03,2.72e+01,3.78e+01,
261,4.00e-03,2.72e+01,3.78e+01,
262,4.00e-03,2.72e+01,3.78e+01,
263,4.00e-03,2.72e+01,3.78e+01,
264,4.00e-03,2.72e+01,3.78e+01,
265,4.00e-03,2.72e+01,3.78e+01,
266,4.00e-03,2.72e+01,3.78e+01,
267,4.00e-03,2.72e+01,3.78e+01,
268,4.00e-03,2.72e+01,3.78e+01,
269,4.00e-03,2.72e+01,3.78e+01,
270,4.00e-03,2.72e+01,3.78e+01,
271,4.00e-03,2.72e+01,3.78e+01,
272,4.00e-03,2.72e+01,3.78e+01,
273,4.00e-03,2.72e+01,3.78e+01,
274,4.00e-03,2.72e+01,3.78e+01,
275,4.00e-03,2.72e+01,3.78e+01,
276,4.00e-03,2.68e+01,3.78e+01,
277,4.00e-03,2.68e+01,3.78e+01,
278,-1.20e-02,2.72e+01,3.78e+01,
279,4.00e-03,2.72e+01,3.78e+01,
280,4.00e-03,2.72e+01,3.78e+01,
281,4.00e-03,2.72e+01,3.78e+01,
282,4.00e-03,2.72e+01,3.78e+01,
283,4.00e-03,2.72e+01,3.78e+01,
284,4.00e-03,2.68e+01,3.78e+01,
285,4.00e-03,2.72e+01,3.78e+01,
286,4.00e-03,2.72e+01,3.78e+01,
287,4.00e-03,2.72e+01,3.78e+01,
288,4.00e-03,2.72e+01,3.78e+01,
289,4.00e-03,2.72e+01,3.78e+01,
290,4.00e-03,2.68e+01,3.78e+01,
291,4.00e-03,2.72e+01,3.78e+01,
292,4.00e-03,2.72e+01,3.78e+01,
293,4.00e-03,2.68e+01,3.78e+01,
294,4.00e-03,2.72e+01,3.78e+01,
295,4.00e-03,2.72e+01,3.78e+01,
296,4.00e-03,2.72e+01,3.78e+01,
297,4.00e-03,2.72e+01,3.74e+01,
298,4.00e-03,2.72e+01,3.78e+01,
299,4.00e-03,2.68e+01,3.78e+01,
300,4.00e-03,2.72e+01,3.78e+01,
301,4.00e-03,2.68e+01,3.78e+01,
302,4.00e-03,2.68e+01,3.78e+01,
303,4.00e-03,2.72e+01,3.78e+01,
304,4.00e-03,2.72e+01,3.78e+01,
305,4.00e-03,2.68e+01,3.78e+01,
306,4.00e-03,2.72e+01,3.78e+01,
307,4.00e-03,2.68e+01,3.78e+01,
308,4.00e-03,2.72e+01,3.78e+01,
309,4.00e-03,2.68e+01,3.78e+01,
310,4.00e-03,2.68e+01,3.78e+01,
311,4.00e-03,2.68e+01,3.78e+01,
312,4.00e-03,2.68e+01,3.78e+01,
313,4.00e-03,2.68e+01,3.78e+01,
314,4.00e-03,2.68e+01,3.78e+01,
315,4.00e-03,2.72e+01,3.78e+01,
316,4.00e-03,2.68e+01,3.78e+01,
317,4.00e-03,2.68e+01,3.74e+01,
318,4.00e-03,2.68e+01,3.78e+01,
319,4.00e-03,2.68e+01,3.78e+01,
320,4.00e-03,2.68e+01,3.78e+01,
321,4.00e-03,2.68e+01,3.78e+01,
322,4.00e-03,2.68e+01,3.78e+01,
323,4.00e-03,2.68e+01,3.78e+01,
324,4.00e-03,2.68e+01,3.78e+01,
325,4.00e-03,2.68e+01,3.78e+01,
326,4.00e-03,2.68e+01,3.78e+01,
327,4.00e-03,2.68e+01,3.78e+01,
328,4.00e-03,2.68e+01,3.78e+01,
329,4.00e-03,2.68e+01,3.74e+01,
330,4.00e-03,2.68e+01,3.78e+01,
331,4.00e-03,2.68e+01,3.78e+01,
332,4.00e-03,2.68e+01,3.78e+01,
333,4.00e-03,2.68e+01,3.78e+01,
334,4.00e-03,2.68e+01,3.78e+01,
335,4.00e-03,2.68e+01,3.78e+01,
336,4.00e-03,2.68e+01,3.78e+01,
337,-1.20e-02,2.68e+01,3.78e+01,
338,-1.20e-02,2.68e+01,3.78e+01,
339,-1.20e-02,2.60e+01,3.78e+01,
340,4.00e-03,2.60e+01,3.78e+01,
341,4.00e-03,2.60e+01,3.78e+01,
342,4.00e-03,2.60e+01,3.78e+01,
343,4.00e-03,2.60e+01,3.74e+01,
344,4.00e-03,2.56e+01,3.78e+01,
345,-1.20e-02,2.56e+01,3.78e+01,
346,-1.20e-02,2.56e+01,3.78e+01,
347,-1.20e-02,2.48e+01,3.74e+01,
348,4.00e-03,2.48e+01,3.78e+01,
349,-1.20e-02,2.48e+01,3.74e+01,
350,4.00e-03,2.48e+01,3.74e+01,
351,4.00e-03,2.44e+01,3.78e+01,
352,-1.20e-02,2.44e+01,3.78e+01,
353,4.00e-03,2.44e+01,3.78e+01,
354,4.00e-03,2.36e+01,3.78e+01,
355,4.00e-03,2.36e+01,3.74e+01,
356,4.00e-03,2.36e+01,3.78e+01,
357,-1.20e-02,2.32e+01,3.74e+01,
358,-1.20e-02,2.32e+01,3.74e+01,
359,4.00e-03,2.24e+01,3.78e+01,
360,-1.20e-02,2.24e+01,3.74e+01,
361,-1.20e-02,2.20e+01,3.78e+01,
362,-1.20e-02,2.20e+01,3.74e+01,
363,4.00e-03,2.20e+01,3.74e+01,
364,4.00e-03,2.12e+01,3.78e+01,
365,4.00e-03,2.12e+01,3.74e+01,
366,4.00e-03,2.08e+01,3.74e+01,
367,4.00e-03,2.08e+01,3.74e+01,
368,-1.20e-02,2.08e+01,3.74e+01,
369,-1.20e-02,2.00e+01,3.78e+01,
370,4.00e-03,2.00e+01,3.74e+01,
371,-1.20e-02,1.92e+01,3.78e+01,
372,-1.20e-02,1.92e+01,3.78e+01,
373,-1.20e-02,1.92e+01,3.74e+01,
374,4.00e-03,1.88e+01,3.74e+01,
375,4.00e-03,1.88e+01,3.74e+01,
376,4.00e-03,1.80e+01,3.74e+01,
377,4.00e-03,1.80e+01,3.78e+01,
378,4.00e-03,1.76e+01,3.74e+01,
379,-1.20e-02,1.76e+01,3.74e+01,
380,4.00e-03,1.68e+01,3.74e+01,
381,4.00e-03,1.68e+01,3.74e+01,
382,4.00e-03,1.68e+01,3.74e+01,
383,4.00e-03,1.64e+01,3.74e+01,
384,4.00e-03,1.64e+01,3.74e+01,
385,4.00e-03,1.56e+01,3.74e+01,
386,-1.20e-02,1.56e+01,3.74e+01,
387,4.00e-03,1.56e+01,3.74e+01,
388,4.00e-03,1.52e+01,3.78e+01,
389,4.00e-03,1.52e+01,3.74e+01,
390,-1.20e-02,1.52e+01,3.74e+01,
391,4.00e-03,1.44e+01,3.74e+01,
392,4.00e-03,1.44e+01,3.74e+01,
393,4.00e-03,1.44e+01,3.74e+01,
394,-1.20e-02,1.40e+01,3.74e+01,
395,4.00e-03,1.40e+01,3.74e+01,
396,4.00e-03,1.40e+01,3.78e+01,
397,-1.20e-02,1.32e+01,3.74e+01,
398,4.00e-03,1.32e+01,3.74e+01,
399,4.00e-03,1.32e+01,3.74e+01,
400,4.00e-03,1.32e+01,3.74e+01,
401,4.00e-03,1.28e+01,3.74e+01,
402,4.00e-03,1.28e+01,3.74e+01,
403,4.00e-03,1.28e+01,3.74e+01,
404,4.00e-03,1.28e+01,3.74e+01,
405,4.00e-03,1.20e+01,3.74e+01,
406,4.00e-03,1.20e+01,3.74e+01,
407,4.00e-03,1.20e+01,3.74e+01,
408,4.00e-03,1.12e+01,3.74e+01,
409,4.00e-03,1.12e+01,3.74e+01,
410,4.00e-03,1.12e+01,3.74e+01,
411,4.00e-03,1.12e+01,3.74e+01,
412,4.00e-03,1.12e+01,3.74e+01,
413,4.00e-03,1.12e+01,3.74e+01,
414,4.00e-03,1.08e+01,3.74e+01,
415,4.00e-03,1.08e+01,3.74e+01,
416,4.00e-03,1.08e+01,3.74e+01,
417,4.00e-03,1.08e+01,3.74e+01,
418,4.00e-03,1.08e+01,3.74e+01,
419,4.00e-03,1.08e+01,3.74e+01,
420,4.00e-03,1.08e+01,3.74e+01,
421,4.00e-03,1.00e+01,3.74e+01,
422,4.00e-03,1.00e+01,3.74e+01,
423,4.00e-03,1.00e+01,3.74e+01,
424,4.00e-03,1.00e+01,3.74e+01,
425,4.00e-03,1.00e+01,3.74e+01,
426,4.00e-03,1.00e+01,3.74e+01,
427,4.00e-03,1.00e+01,3.74e+01,
428,4.00e-03,1.00e+01,3.74e+01,
429,4.00e-03,1.00e+01,3.74e+01,
430,4.00e-03,1.00e+01,3.74e+01,
431,4.00e-03,1.00e+01,3.74e+01,
432,4.00e-03,1.00e+01,3.74e+01,
433,4.00e-03,1.00e+01,3.74e+01,
434,4.00e-03,1.00e+01,3.74e+01,
435,4.00e-03,1.00e+01,3.74e+01,
436,4.00e-03,1.00e+01,3.74e+01,
437,4.00e-03,1.00e+01,3.74e+01,
438,4.00e-03,1.00e+01,3.74e+01,
439,4.00e-03,1.00e+01,3.74e+01,
440,4.00e-03,1.00e+01,3.74e+01,
441,4.00e-03,1.00e+01,3.74e+01,
442,4.00e-03,1.00e+01,3.74e+01,
443,4.00e-03,1.08e+01,3.74e+01,
444,4.00e-03,1.08e+01,3.74e+01,
445,4.00e-03,1.08e+01,3.74e+01,
446,4.00e-03,1.08e+01,3.74e+01,
447,4.00e-03,1.08e+01,3.74e+01,
448,4.00e-03,1.08e+01,3.74e+01,
449,4.00e-03,1.08e+01,3.74e+01,
450,4.00e-03,1.08e+01,3.74e+01,
451,4.00e-03,1.08e+01,3.74e+01,
452,4.00e-03,1.12e+01,3.74e+01,
453,4.00e-03,1.12e+01,3.74e+01,
454,4.00e-03,1.12e+01,3.74e+01,
455,4.00e-03,1.12e+01,3.74e+01,
456,4.00e-03,1.12e+01,3.74e+01,
457,4.00e-03,1.12e+01,3.74e+01,
458,4.00e-03,1.20e+01,3.74e+01,
459,4.00e-03,1.20e+01,3.74e+01,
460,4.00e-03,1.20e+01,3.74e+01,
461,4.00e-03,1.20e+01,3.74e+01,
462,4.00e-03,1.28e+01,3.74e+01,
463,4.00e-03,1.28e+01,3.74e+01,
464,4.00e-03,1.28e+01,3.74e+01,
465,4.00e-03,1.28e+01,3.74e+01,
466,4.00e-03,1.32e+01,3.74e+01,
467,4.00e-03,1.32e+01,3.74e+01,
468,4.00e-03,1.32e+01,3.74e+01,
469,4.00e-03,1.32e+01,3.74e+01,
470,4.00e-03,1.40e+01,3.74e+01,
471,4.00e-03,1.40e+01,3.74e+01,
472,4.00e-03,1.44e+01,3.74e+01,
473,4.00e-03,1.44e+01,3.74e+01,
474,4.00e-03,1.44e+01,3.74e+01,
475,4.00e-03,1.44e+01,3.74e+01,
476,4.00e-03,1.52e+01,3.74e+01,
477,4.00e-03,1.52e+01,3.74e+01,
478,4.00e-03,1.56e+01,3.74e+01,
479,4.00e-03,1.56e+01,3.74e+01,
480,4.00e-03,1.56e+01,3.74e+01,
481,4.00e-03,1.64e+01,3.74e+01,
482,4.00e-03,1.64e+01,3.74e+01,
483,4.00e-03,1.64e+01,3.74e+01,
484,4.00e-03,1.68e+01,3.74e+01,
485,4.00e-03,1.68e+01,3.74e+01,
486,4.00e-03,1.76e+01,3.74e+01,
487,4.00e-03,1.76e+01,3.74e+01,
488,4.00e-03,1.76e+01,3.74e+01,
489,4.00e-03,1.80e+01,3.74e+01,
490,4.00e-03,1.80e+01,3.74e+01,
491,4.00e-03,1.80e+01,3.74e+01,
492,4.00e-03,1.88e+01,3.74e+01,
493,4.00e-03,1.88e+01,3.74e+01,
494,4.00e-03,1.92e+01,3.74e+01,
495,4.00e-03,1.92e+01,3.74e+01,
496,4.00e-03,2.00e+01,3.74e+01,
497,4.00e-03,2.00e+01,3.74e+01,
498,4.00e-03,2.00e+01,3.74e+01,
499,4.00e-03,2.08e+01,3.74e+01,
500,4.00e-03,2.08e+01,3.74e+01,
501,4.00e-03,2.12e+01,3.74e+01,
502,4.00e-03,2.12e+01,3.74e+01,
503,4.00e-03,2.12e+01,3.74e+01,
504,4.00e-03,2.20e+01,3.74e+01,
505,4.00e-03,2.20e+01,3.74e+01,
506,4.00e-03,2.24e+01,3.74e+01,
507,4.00e-03,2.24e+01,3.74e+01,
508,4.00e-03,2.24e+01,3.74e+01,
509,4.00e-03,2.32e+01,3.74e+01,
510,4.00e-03,2.32e+01,3.74e+01,
511,4.00e-03,2.36e+01,3.74e+01,
512,4.00e-03,2.36e+01,3.74e+01,
513,4.00e-03,2.36e+01,3.74e+01,
514,4.00e-03,2.36e+01,3.74e+01,
515,4.00e-03,2.44e+01,3.74e+01,
516,4.00e-03,2.44e+01,3.74e+01,
517,4.00e-03,2.44e+01,3.74e+01,
518,4.00e-03,2.48e+01,3.74e+01,
519,4.00e-03,2.48e+01,3.74e+01,
520,4.00e-03,2.48e+01,3.74e+01,
521,4.00e-03,2.48e+01,3.74e+01,
522,4.00e-03,2.48e+01,3.74e+01,
523,4.00e-03,2.56e+01,3.74e+01,
524,4.00e-03,2.56e+01,3.74e+01,
525,4.00e-03,2.56e+01,3.74e+01,
526,4.00e-03,2.56e+01,3.74e+01,
527,4.00e-03,2.56e+01,3.74e+01,
528,4.00e-03,2.60e+01,3.74e+01,
529,4.00e-03,2.60e+01,3.74e+01,
530,4.00e-03,2.60e+01,3.74e+01,
531,4.00e-03,2.60e+01,3.74e+01,
532,4.00e-03,2.60e+01,3.74e+01,
533,4.00e-03,2.60e+01,3.74e+01,
534,4.00e-03,2.60e+01,3.74e+01,
535,4.00e-03,2.60e+01,3.74e+01,
536,4.00e-03,2.60e+01,3.74e+01,
537,4.00e-03,2.60e+01,3.74e+01,
538,4.00e-03,2.60e+01,3.74e+01,
539,4.00e-03,2.60e+01,3.74e+01,
540,4.00e-03,2.60e+01,3.74e+01,
541,4.00e-03,2.60e+01,3.74e+01,
542,4.00e-03,2.60e+01,3.74e+01,
543,4.00e-03,2.60e+01,3.74e+01,
544,4.00e-03,2.60e+01,3.74e+01,
545,4.00e-03,2.60e+01,3.70e+01,
546,4.00e-03,2.60e+01,3.74e+01,
547,4.00e-03,2.60e+01,3.74e+01,
548,4.00e-03,2.60e+01,3.74e+01,
549,4.00e-03,2.60e+01,3.74e+01,
550,4.00e-03,2.60e+01,3.74e+01,
551,4.00e-03,2.56e+01,3.74e+01,
552,4.00e-03,2.56e+01,3.74e+01,
553,4.00e-03,2.56e+01,3.74e+01,
554,4.00e-03,2.56e+01,3.74e+01,
555,4.00e-03,2.56e+01,3.74e+01,
556,4.00e-03,2.56e+01,3.74e+01,
557,4.00e-03,2.48e+01,3.74e+01,
558,4.00e-03,2.48e+01,3.74e+01,
559,4.00e-03,2.48e+01,3.74e+01,
560,4.00e-03,2.48e+01,3.74e+01,
561,4.00e-03,2.44e+01,3.74e+01,
562,4.00e-03,2.44e+01,3.74e+01,
563,4.00e-03,2.44e+01,3.70e+01,
564,4.00e-03,2.44e+01,3.74e+01,
565,4.00e-03,2.36e+01,3.74e+01,
566,4.00e-03,2.36e+01,3.74e+01,
567,4.00e-03,2.36e+01,3.74e+01,
568,4.00e-03,2.32e+01,3.74e+01,
569,4.00e-03,2.32e+01,3.70e+01,
570,-1.20e-02,2.32e+01,3.74e+01,
571,4.00e-03,2.24e+01,3.70e+01,
572,4.00e-03,2.24e+01,3.74e+01,
573,-1.20e-02,2.20e+01,3.74e+01,
574,4.00e-03,2.20e+01,3.74e+01,
575,4.00e-03,2.20e+01,3.74e+01,
576,4.00e-03,2.12e+01,3.74e+01,
577,4.00e-03,2.12e+01,3.70e+01,
578,4.00e-03,2.12e+01,3.74e+01,
579,4.00e-03,2.08e+01,3.70e+01,
580,4.00e-03,2.08e+01,3.74e+01,
581,4.00e-03,2.00e+01,3.70e+01,
582,4.00e-03,2.00e+01,3.70e+01,
583,4.00e-03,2.00e+01,3.70e+01,
584,4.00e-03,1.92e+01,3.70e+01,
585,4.00e-03,1.92e+01,3.74e+01,
586,4.00e-03,1.88e+01,3.74e+01,
587,-1.20e-02,1.88e+01,3.74e+01,
588,4.00e-03,1.88e+01,3.70e+01,
589,4.00e-03,1.80e+01,3.70e+01,
590,4.00e-03,1.80e+01,3.70e+01,
591,4.00e-03,1.76e+01,3.74e+01,
592,4.00e-03,1.76e+01,3.74e+01,
593,4.00e-03,1.76e+01,3.70e+01,
594,-1.20e-02,1.68e+01,3.70e+01,
595,4.00e-03,1.68e+01,3.70e+01,
596,4.00e-03,1.68e+01,3.74e+01,
597,4.00e-03,1.64e+01,3.70e+01,
598,4.00e-03,1.64e+01,3.70e+01,
599,4.00e-03,1.64e+01,3.70e+01,
600,4.00e-03,1.56e+01,3.74e+01,
601,4.00e-03,1.56e+01,3.70e+01,
602,4.00e-03,1.52e+01,3.70e+01,
603,4.00e-03,1.52e+01,3.70e+01,
604,4.00e-03,1.52e+01,3.74e+01,
605,4.00e-03,1.44e+01,3.70e+01,
606,4.00e-03,1.44e+01,3.70e+01,
607,4.00e-03,1.44e+01,3.70e+01,
608,4.00e-03,1.40e+01,3.74e+01,
609,4.00e-03,1.40e+01,3.70e+01,
610,4.00e-03,1.40e+01,3.70e+01,
611,4.00e-03,1.40e+01,3.70e+01,
612,4.00e-03,1.32e+01,3.70e+01,
613,4.00e-03,1.32e+01,3.70e+01,
614,4.00e-03,1.32e+01,3.70e+01,
615,4.00e-03,1.32e+01,3.70e+01,
616,4.00e-03,1.28e+01,3.70e+01,
617,4.00e-03,1.28e+01,3.70e+01,
618,4.00e-03,1.28e+01,3.70e+01,
619,4.00e-03,1.28e+01,3.70e+01,
620,4.00e-03,1.28e+01,3.70e+01,
621,4.00e-03,1.20e+01,3.70e+01,
