final/data/NewFile6.csv

X,CH2,CH3,Start,Increment,
Sequence,Volt,Volt,-6.000000e-05,4.000000e-09
0,-4.00e-01,3.00e-01,
1,-4.00e-01,3.00e-01,
2,-4.00e-01,2.60e-01,
3,-4.00e-01,2.80e-01,
4,-4.00e-01,2.80e-01,
5,-4.00e-01,2.60e-01,
6,-4.00e-01,2.80e-01,
7,-4.00e-01,2.80e-01,
8,-4.00e-01,2.80e-01,
9,-4.00e-01,2.80e-01,
10,-4.00e-01,2.80e-01,
11,-4.00e-01,3.00e-01,
12,-4.00e-01,2.80e-01,
13,-4.00e-01,2.80e-01,
14,-4.00e-01,3.00e-01,
15,-4.00e-01,2.60e-01,
16,-4.00e-01,2.80e-01,
17,-4.00e-01,2.80e-01,
18,-4.00e-01,2.80e-01,
19,-4.00e-01,2.80e-01,
20,-4.00e-01,2.80e-01,
21,-4.00e-01,2.80e-01,
22,-4.00e-01,2.80e-01,
23,-4.00e-01,3.00e-01,
24,-4.00e-01,2.80e-01,
25,-4.00e-01,2.80e-01,
26,-4.00e-01,3.00e-01,
27,-4.00e-01,2.60e-01,
28,-4.00e-01,2.80e-01,
29,-4.00e-01,2.80e-01,
30,-4.00e-01,2.80e-01,
31,-4.00e-01,3.00e-01,
32,-4.00e-01,2.60e-01,
33,-4.00e-01,3.00e-01,
34,-4.00e-01,2.80e-01,
35,-4.00e-01,2.80e-01,
36,-4.00e-01,3.00e-01,
37,-4.00e-01,2.60e-01,
38,-4.00e-01,2.80e-01,
39,-4.00e-01,2.80e-01,
40,-4.00e-01,2.60e-01,
41,-4.00e-01,2.80e-01,
42,-4.00e-01,2.80e-01,
43,-4.00e-01,2.80e-01,
44,-4.00e-01,2.80e-01,
45,-4.00e-01,2.80e-01,
46,-4.00e-01,2.80e-01,
47,-4.00e-01,2.80e-01,
48,-4.00e-01,2.80e-01,
49,-4.00e-01,2.60e-01,
50,-4.00e-01,2.60e-01,
51,-4.00e-01,2.80e-01,
52,-4.00e-01,2.60e-01,
53,-4.00e-01,2.60e-01,
54,-4.00e-01,2.60e-01,
55,-4.00e-01,2.60e-01,
56,1.60e+00,2.60e-01,
57,1.60e+00,2.60e-01,
58,1.60e+00,2.60e-01,
59,1.60e+00,2.40e-01,
60,1.60e+00,2.40e-01,
61,1.60e+00,2.40e-01,
62,1.60e+00,2.20e-01,
63,1.60e+00,2.20e-01,
64,1.60e+00,2.20e-01,
65,1.60e+00,2.20e-01,
66,3.60e+00,1.80e-01,
67,3.60e+00,2.20e-01,
68,3.60e+00,1.80e-01,
69,3.60e+00,1.80e-01,
70,3.60e+00,1.80e-01,
71,3.60e+00,1.60e-01,
72,7.60e+00,1.60e-01,
73,7.60e+00,1.40e-01,
74,7.60e+00,1.40e-01,
75,9.60e+00,1.40e-01,
76,1.16e+01,1.00e-01,
77,1.36e+01,6.00e-02,
78,1.96e+01,2.00e-02,
79,2.36e+01,-6.00e-02,
80,2.96e+01,-1.20e-01,
81,3.76e+01,-2.20e-01,
82,4.16e+01,-3.20e-01,
83,4.16e+01,-3.20e-01,
84,4.16e+01,-2.80e-01,
85,4.16e+01,-2.00e-01,
86,4.16e+01,-6.00e-02,
87,4.16e+01,-6.00e-02,
88,4.16e+01,-2.00e-01,
89,4.16e+01,-2.80e-01,
90,4.16e+01,-3.40e-01,
91,4.36e+01,-4.20e-01,
92,4.36e+01,-4.40e-01,
93,4.76e+01,-5.20e-01,
94,4.76e+01,-4.60e-01,
95,4.76e+01,-4.00e-01,
96,4.76e+01,-2.80e-01,
97,4.96e+01,-1.80e-01,
98,4.96e+01,-2.00e-01,
99,4.96e+01,-2.20e-01,
100,5.16e+01,-3.20e-01,
101,5.16e+01,-3.60e-01,
102,5.16e+01,-4.40e-01,
103,5.16e+01,-5.20e-01,
104,5.36e+01,-5.60e-01,
105,5.36e+01,-5.60e-01,
106,5.36e+01,-4.80e-01,
107,5.36e+01,-4.00e-01,
108,5.36e+01,-3.20e-01,
109,5.36e+01,-2.80e-01,
110,5.36e+01,-3.20e-01,
111,5.36e+01,-3.40e-01,
112,5.36e+01,-4.00e-01,
113,5.36e+01,-4.80e-01,
114,5.36e+01,-5.60e-01,
115,5.36e+01,-5.80e-01,
116,5.36e+01,-6.00e-01,
117,5.36e+01,-5.60e-01,
118,5.36e+01,-4.80e-01,
119,5.36e+01,-4.40e-01,
120,5.16e+01,-3.60e-01,
121,5.16e+01,-3.40e-01,
122,5.16e+01,-3.60e-01,
123,5.16e+01,-4.40e-01,
124,4.76e+01,-5.20e-01,
125,3.96e+01,-5.20e-01,
126,3.16e+01,-6.00e-01,
127,2.76e+01,-4.60e-01,
128,2.16e+01,-3.60e-01,
129,1.96e+01,-4.40e-01,
130,1.76e+01,-4.20e-01,
131,1.36e+01,-4.60e-01,
132,1.36e+01,-3.60e-01,
133,1.36e+01,-3.00e-01,
134,1.36e+01,-3.20e-01,
135,1.36e+01,-3.60e-01,
136,1.76e+01,-4.20e-01,
137,1.76e+01,-4.40e-01,
138,1.96e+01,-4.20e-01,
139,2.16e+01,-4.00e-01,
140,2.36e+01,-3.40e-01,
141,2.36e+01,-4.40e-01,
142,2.76e+01,-4.20e-01,
143,2.96e+01,-3.40e-01,
144,2.96e+01,-3.60e-01,
145,3.16e+01,-3.20e-01,
146,3.16e+01,-3.60e-01,
147,3.16e+01,-4.20e-01,
148,3.36e+01,-4.40e-01,
149,3.36e+01,-4.20e-01,
150,3.36e+01,-4.20e-01,
151,3.36e+01,-4.40e-01,
152,3.36e+01,-4.20e-01,
153,3.36e+01,-4.40e-01,
154,3.16e+01,-4.00e-01,
155,3.16e+01,-3.40e-01,
156,3.16e+01,-3.60e-01,
157,3.16e+01,-3.60e-01,
158,3.16e+01,-4.00e-01,
159,3.16e+01,-4.20e-01,
160,3.16e+01,-4.20e-01,
161,3.16e+01,-4.40e-01,
162,3.16e+01,-4.20e-01,
163,2.96e+01,-4.20e-01,
164,3.16e+01,-4.20e-01,
165,2.96e+01,-3.60e-01,
166,3.16e+01,-4.00e-01,
167,2.96e+01,-3.60e-01,
168,2.96e+01,-3.40e-01,
169,2.96e+01,-4.00e-01,
170,2.96e+01,-3.60e-01,
171,2.96e+01,-4.20e-01,
172,2.96e+01,-4.40e-01,
173,3.16e+01,-4.20e-01,
174,2.96e+01,-4.20e-01,
175,2.96e+01,-4.20e-01,
176,2.96e+01,-4.00e-01,
177,2.96e+01,-4.00e-01,
178,2.96e+01,-3.60e-01,
179,2.96e+01,-3.60e-01,
180,2.96e+01,-3.60e-01,
181,3.16e+01,-3.60e-01,
182,2.96e+01,-4.20e-01,
183,2.96e+01,-4.20e-01,
184,2.96e+01,-4.20e-01,
185,2.96e+01,-4.20e-01,
186,2.96e+01,-4.00e-01,
187,3.16e+01,-4.20e-01,
188,2.96e+01,-4.00e-01,
189,2.96e+01,-4.00e-01,
190,2.96e+01,-3.60e-01,
191,2.96e+01,-3.60e-01,
192,2.96e+01,-4.00e-01,
193,2.96e+01,-4.00e-01,
194,2.96e+01,-4.20e-01,
195,2.96e+01,-4.20e-01,
196,2.96e+01,-4.20e-01,
197,2.96e+01,-4.20e-01,
198,2.96e+01,-4.00e-01,
199,2.96e+01,-4.20e-01,
200,2.96e+01,-4.00e-01,
201,3.16e+01,-3.40e-01,
202,2.96e+01,-3.60e-01,
203,2.96e+01,-3.60e-01,
204,2.96e+01,-3.60e-01,
205,3.16e+01,-4.20e-01,
206,2.96e+01,-4.20e-01,
207,2.96e+01,-4.00e-01,
208,2.96e+01,-4.20e-01,
209,2.96e+01,-4.20e-01,
210,2.96e+01,-4.00e-01,
211,2.96e+01,-4.00e-01,
212,2.96e+01,-4.00e-01,
213,2.96e+01,-3.60e-01,
214,2.96e+01,-3.60e-01,
215,2.96e+01,-4.00e-01,
216,2.96e+01,-4.00e-01,
217,2.96e+01,-4.00e-01,
218,2.96e+01,-4.20e-01,
219,2.96e+01,-4.00e-01,
220,2.96e+01,-4.00e-01,
221,2.96e+01,-4.00e-01,
222,2.96e+01,-4.00e-01,
223,2.96e+01,-3.60e-01,
224,2.96e+01,-3.60e-01,
225,2.96e+01,-4.00e-01,
226,2.96e+01,-3.60e-01,
227,2.96e+01,-4.00e-01,
228,2.96e+01,-4.20e-01,
229,2.96e+01,-3.60e-01,
230,2.96e+01,-4.20e-01,
231,2.96e+01,-4.20e-01,
232,2.96e+01,-4.00e-01,
233,2.96e+01,-4.20e-01,
234,2.96e+01,-3.60e-01,
235,2.96e+01,-3.60e-01,
236,2.96e+01,-3.60e-01,
237,2.96e+01,-4.00e-01,
238,2.96e+01,-4.00e-01,
239,2.96e+01,-3.60e-01,
240,2.96e+01,-4.20e-01,
241,2.96e+01,-4.00e-01,
242,2.96e+01,-4.00e-01,
243,2.96e+01,-4.20e-01,
244,2.96e+01,-4.00e-01,
245,2.96e+01,-3.60e-01,
246,2.96e+01,-3.60e-01,
247,2.96e+01,-3.60e-01,
248,2.96e+01,-3.60e-01,
249,2.96e+01,-4.00e-01,
250,2.96e+01,-4.00e-01,
251,2.96e+01,-3.60e-01,
252,2.96e+01,-4.20e-01,
253,2.96e+01,-4.20e-01,
254,2.96e+01,-3.60e-01,
255,2.96e+01,-4.20e-01,
256,2.96e+01,-4.00e-01,
257,2.96e+01,-3.60e-01,
258,2.96e+01,-4.00e-01,
259,2.96e+01,-3.60e-01,
260,2.96e+01,-3.60e-01,
261,2.96e+01,-4.00e-01,
262,2.96e+01,-4.00e-01,
263,2.96e+01,-4.00e-01,
264,2.96e+01,-4.00e-01,
265,2.96e+01,-4.00e-01,
266,2.96e+01,-4.00e-01,
267,2.96e+01,-3.60e-01,
268,2.96e+01,-4.00e-01,
269,2.96e+01,-4.00e-01,
270,2.96e+01,-3.60e-01,
271,2.96e+01,-3.60e-01,
272,2.96e+01,-4.00e-01,
273,2.96e+01,-3.60e-01,
274,2.96e+01,-4.00e-01,
275,2.96e+01,-4.00e-01,
276,2.96e+01,-4.00e-01,
277,2.96e+01,-4.00e-01,
278,2.96e+01,-4.00e-01,
279,2.96e+01,-3.60e-01,
280,2.96e+01,-3.60e-01,
281,2.96e+01,-4.00e-01,
282,2.96e+01,-3.60e-01,
283,2.96e+01,-3.60e-01,
284,2.96e+01,-3.60e-01,
285,2.96e+01,-4.00e-01,
286,2.96e+01,-4.00e-01,
287,2.96e+01,-3.60e-01,
288,2.96e+01,-4.00e-01,
289,2.96e+01,-4.00e-01,
290,2.96e+01,-3.60e-01,
291,2.96e+01,-4.00e-01,
292,2.96e+01,-3.60e-01,
293,2.96e+01,-3.60e-01,
294,2.96e+01,-4.00e-01,
295,2.96e+01,-3.60e-01,
296,2.96e+01,-4.00e-01,
297,2.96e+01,-3.60e-01,
298,2.96e+01,-4.00e-01,
299,2.96e+01,-4.00e-01,
300,2.96e+01,-4.00e-01,
301,2.96e+01,-4.00e-01,
302,2.96e+01,-3.60e-01,
303,2.96e+01,-4.00e-01,
304,2.96e+01,-3.60e-01,
305,2.96e+01,-3.60e-01,
306,2.96e+01,-4.00e-01,
307,2.96e+01,-3.60e-01,
308,2.96e+01,-4.00e-01,
309,2.96e+01,-3.60e-01,
310,2.96e+01,-4.00e-01,
311,2.96e+01,-4.00e-01,
312,2.96e+01,-3.60e-01,
313,2.96e+01,-4.00e-01,
314,2.96e+01,-3.60e-01,
315,2.96e+01,-3.60e-01,
316,2.96e+01,-3.60e-01,
317,2.96e+01,-4.00e-01,
318,2.96e+01,-3.60e-01,
319,2.96e+01,-3.60e-01,
320,2.96e+01,-4.00e-01,
321,2.96e+01,-3.60e-01,
322,2.96e+01,-4.00e-01,
323,2.96e+01,-4.00e-01,
324,2.96e+01,-3.60e-01,
325,2.96e+01,-4.00e-01,
326,2.96e+01,-3.60e-01,
327,2.96e+01,-3.60e-01,
328,2.96e+01,-3.60e-01,
329,2.96e+01,-3.60e-01,
330,2.96e+01,-3.60e-01,
331,2.96e+01,-3.60e-01,
332,2.96e+01,-4.00e-01,
333,2.96e+01,-3.60e-01,
334,2.96e+01,-4.00e-01,
335,2.96e+01,-3.60e-01,
336,2.96e+01,-3.60e-01,
337,2.96e+01,-4.00e-01,
338,2.96e+01,-3.60e-01,
339,2.96e+01,-4.00e-01,
340,2.96e+01,-3.60e-01,
341,2.96e+01,-3.60e-01,
342,2.96e+01,-4.00e-01,
343,2.96e+01,-3.60e-01,
344,2.96e+01,-4.00e-01,
345,2.96e+01,-3.60e-01,
346,2.96e+01,-3.60e-01,
347,2.96e+01,-4.00e-01,
348,2.96e+01,-3.40e-01,
349,2.96e+01,-4.00e-01,
350,2.96e+01,-3.60e-01,
351,2.96e+01,-3.40e-01,
352,2.96e+01,-4.00e-01,
353,2.96e+01,-3.60e-01,
354,2.96e+01,-4.00e-01,
355,2.96e+01,-3.60e-01,
356,2.96e+01,-3.60e-01,
357,2.96e+01,-4.00e-01,
358,2.96e+01,-3.60e-01,
359,2.96e+01,-4.00e-01,
360,2.96e+01,-3.60e-01,
361,2.96e+01,-3.60e-01,
362,2.96e+01,-4.00e-01,
363,2.96e+01,-3.40e-01,
364,2.96e+01,-4.00e-01,
365,2.96e+01,-4.00e-01,
366,2.96e+01,-3.60e-01,
367,2.96e+01,-4.00e-01,
368,2.96e+01,-4.00e-01,
369,2.96e+01,-3.60e-01,
370,2.96e+01,-3.60e-01,
371,2.96e+01,-3.60e-01,
372,2.96e+01,-3.60e-01,
373,2.96e+01,-3.60e-01,
374,2.96e+01,-3.60e-01,
375,2.96e+01,-3.60e-01,
376,2.96e+01,-3.60e-01,
377,2.96e+01,-3.60e-01,
378,2.96e+01,-4.00e-01,
379,2.96e+01,-3.60e-01,
380,2.96e+01,-3.60e-01,
381,2.96e+01,-4.00e-01,
382,2.96e+01,-3.60e-01,
383,2.96e+01,-3.60e-01,
384,2.96e+01,-4.00e-01,
385,2.96e+01,-3.60e-01,
386,2.96e+01,-3.60e-01,
387,2.96e+01,-4.00e-01,
388,2.96e+01,-3.60e-01,
389,2.96e+01,-3.60e-01,
390,2.96e+01,-4.00e-01,
391,2.96e+01,-3.60e-01,
392,2.96e+01,-3.60e-01,
393,2.96e+01,-3.60e-01,
394,2.96e+01,-3.60e-01,
395,2.96e+01,-3.60e-01,
396,2.96e+01,-3.60e-01,
397,2.96e+01,-3.60e-01,
398,2.96e+01,-3.60e-01,
399,2.96e+01,-3.60e-01,
400,2.96e+01,-4.00e-01,
401,2.96e+01,-3.40e-01,
402,2.96e+01,-3.60e-01,
403,2.96e+01,-4.00e-01,
404,2.96e+01,-3.40e-01,
405,2.96e+01,-3.60e-01,
406,2.96e+01,-3.60e-01,
407,2.96e+01,-3.40e-01,
408,2.96e+01,-3.60e-01,
409,2.96e+01,-3.60e-01,
410,2.96e+01,-3.60e-01,
411,2.96e+01,-3.60e-01,
412,2.96e+01,-4.00e-01,
413,2.96e+01,-3.60e-01,
414,2.96e+01,-3.60e-01,
415,2.96e+01,-4.00e-01,
416,2.96e+01,-3.40e-01,
417,2.96e+01,-3.60e-01,
418,2.96e+01,-3.60e-01,
419,2.96e+01,-3.40e-01,
420,2.96e+01,-3.60e-01,
421,2.96e+01,-3.60e-01,
422,2.96e+01,-3.60e-01,
423,2.96e+01,-3.60e-01,
424,2.96e+01,-3.60e-01,
425,2.96e+01,-4.00e-01,
426,2.96e+01,-3.60e-01,
427,2.96e+01,-3.60e-01,
428,2.96e+01,-3.60e-01,
429,2.96e+01,-3.40e-01,
430,2.96e+01,-3.60e-01,
431,2.96e+01,-3.60e-01,
432,2.96e+01,-3.40e-01,
433,2.96e+01,-3.60e-01,
434,2.96e+01,-3.60e-01,
435,2.96e+01,-3.40e-01,
436,2.96e+01,-3.60e-01,
437,2.96e+01,-3.60e-01,
438,2.96e+01,-3.40e-01,
439,2.96e+01,-3.60e-01,
440,2.96e+01,-3.60e-01,
441,2.96e+01,-3.60e-01,
442,2.96e+01,-3.60e-01,
443,2.96e+01,-3.60e-01,
444,2.96e+01,-3.60e-01,
445,2.96e+01,-3.60e-01,
446,2.96e+01,-3.60e-01,
447,2.96e+01,-3.60e-01,
448,2.96e+01,-3.60e-01,
449,2.96e+01,-3.60e-01,
450,2.96e+01,-3.60e-01,
451,2.96e+01,-3.60e-01,
452,2.96e+01,-3.60e-01,
453,2.96e+01,-3.60e-01,
454,2.96e+01,-3.40e-01,
455,2.96e+01,-3.60e-01,
456,2.96e+01,-3.60e-01,
457,2.96e+01,-3.40e-01,
458,2.96e+01,-3.60e-01,
459,2.96e+01,-3.60e-01,
460,2.96e+01,-3.40e-01,
461,2.96e+01,-3.60e-01,
462,2.96e+01,-3.60e-01,
463,2.96e+01,-3.60e-01,
464,2.96e+01,-3.60e-01,
465,2.96e+01,-3.60e-01,
466,2.96e+01,-3.60e-01,
467,2.96e+01,-3.40e-01,
468,2.96e+01,-3.60e-01,
469,2.96e+01,-3.60e-01,
470,2.96e+01,-3.40e-01,
471,2.96e+01,-3.60e-01,
472,2.96e+01,-3.60e-01,
473,2.96e+01,-3.60e-01,
474,2.96e+01,-3.60e-01,
475,2.96e+01,-3.60e-01,
476,2.96e+01,-3.60e-01,
477,2.96e+01,-3.40e-01,
478,2.96e+01,-3.60e-01,
479,2.96e+01,-3.60e-01,
480,2.96e+01,-3.40e-01,
481,2.96e+01,-4.00e-01,
482,2.96e+01,-3.40e-01,
483,2.96e+01,-3.40e-01,
484,2.96e+01,-4.00e-01,
485,2.96e+01,-3.40e-01,
486,2.96e+01,-3.60e-01,
487,2.96e+01,-3.60e-01,
488,2.96e+01,-3.40e-01,
489,2.96e+01,-3.40e-01,
490,2.96e+01,-3.60e-01,
491,2.96e+01,-3.60e-01,
492,2.96e+01,-3.40e-01,
493,2.96e+01,-3.60e-01,
494,2.96e+01,-3.60e-01,
495,2.96e+01,-3.40e-01,
496,2.96e+01,-3.60e-01,
497,2.96e+01,-3.60e-01,
498,2.96e+01,-3.40e-01,
499,2.96e+01,-3.60e-01,
500,2.96e+01,-3.60e-01,
501,2.96e+01,-3.40e-01,
502,2.96e+01,-3.40e-01,
503,2.96e+01,-3.60e-01,
504,2.96e+01,-3.40e-01,
505,2.96e+01,-3.40e-01,
506,2.96e+01,-3.60e-01,
507,2.96e+01,-3.40e-01,
508,2.96e+01,-3.40e-01,
509,2.96e+01,-4.00e-01,
510,2.96e+01,-3.40e-01,
511,2.96e+01,-3.40e-01,
512,2.96e+01,-3.60e-01,
513,2.96e+01,-3.40e-01,
514,2.96e+01,-3.40e-01,
515,2.96e+01,-3.60e-01,
516,2.96e+01,-3.60e-01,
517,2.96e+01,-3.40e-01,
518,2.96e+01,-3.40e-01,
519,2.96e+01,-3.60e-01,
520,2.96e+01,-3.40e-01,
521,2.96e+01,-3.60e-01,
522,2.96e+01,-3.60e-01,
523,2.96e+01,-3.40e-01,
524,2.96e+01,-3.40e-01,
525,2.96e+01,-3.60e-01,
526,2.96e+01,-3.40e-01,
527,2.96e+01,-3.40e-01,
528,2.96e+01,-3.60e-01,
529,2.96e+01,-3.40e-01,
530,2.96e+01,-3.40e-01,
531,2.96e+01,-3.60e-01,
532,2.96e+01,-3.40e-01,
533,2.96e+01,-3.40e-01,
534,2.96e+01,-3.60e-01,
535,2.96e+01,-3.60e-01,
536,2.96e+01,-3.40e-01,
537,2.96e+01,-3.60e-01,
538,2.96e+01,-3.40e-01,
539,2.96e+01,-3.40e-01,
540,2.96e+01,-3.60e-01,
541,2.96e+01,-3.40e-01,
542,2.96e+01,-3.40e-01,
543,2.96e+01,-3.60e-01,
544,2.96e+01,-3.40e-01,
545,2.96e+01,-3.40e-01,
546,2.96e+01,-3.40e-01,
547,2.96e+01,-3.60e-01,
548,2.96e+01,-3.40e-01,
549,2.96e+01,-3.40e-01,
550,2.96e+01,-3.60e-01,
551,2.96e+01,-3.40e-01,
552,2.96e+01,-3.40e-01,
553,2.96e+01,-3.60e-01,
554,2.96e+01,-3.40e-01,
555,2.96e+01,-3.40e-01,
556,2.96e+01,-3.60e-01,
557,2.96e+01,-3.40e-01,
558,2.96e+01,-3.40e-01,
559,2.96e+01,-3.60e-01,
560,2.96e+01,-3.40e-01,
561,2.96e+01,-3.40e-01,
562,2.96e+01,-3.60e-01,
563,2.96e+01,-3.40e-01,
564,2.96e+01,-3.40e-01,
565,2.96e+01,-3.60e-01,
566,2.96e+01,-3.40e-01,
567,2.96e+01,-3.40e-01,
568,2.96e+01,-3.60e-01,
569,2.96e+01,-3.40e-01,
570,2.96e+01,-3.40e-01,
571,2.96e+01,-3.40e-01,
572,2.96e+01,-3.60e-01,
573,2.96e+01,-3.40e-01,
574,2.96e+01,-3.40e-01,
575,2.96e+01,-3.40e-01,
576,2.96e+01,-3.40e-01,
577,2.96e+01,-3.40e-01,
578,2.96e+01,-3.40e-01,
579,2.96e+01,-3.40e-01,
580,2.96e+01,-3.40e-01,
581,2.96e+01,-3.40e-01,
582,2.96e+01,-3.40e-01,
583,2.96e+01,-3.40e-01,
584,2.96e+01,-3.60e-01,
585,2.96e+01,-3.40e-01,
586,2.96e+01,-3.40e-01,
587,2.96e+01,-3.60e-01,
588,2.96e+01,-3.40e-01,
589,2.96e+01,-3.40e-01,
590,2.96e+01,-3.60e-01,
591,2.96e+01,-3.40e-01,
592,2.96e+01,-3.40e-01,
593,2.96e+01,-3.60e-01,
594,2.96e+01,-3.40e-01,
595,2.96e+01,-3.40e-01,
596,2.96e+01,-3.60e-01,
597,2.96e+01,-3.20e-01,
598,2.96e+01,-3.60e-01,
599,2.96e+01,-3.40e-01,
600,2.96e+01,-3.40e-01,
601,2.96e+01,-3.40e-01,
602,2.96e+01,-3.40e-01,
603,2.96e+01,-3.60e-01,
604,2.96e+01,-3.40e-01,
605,2.96e+01,-3.40e-01,
606,2.96e+01,-3.40e-01,
607,2.96e+01,-3.20e-01,
608,2.96e+01,-3.60e-01,
609,2.96e+01,-3.40e-01,
610,2.96e+01,-3.40e-01,
611,2.96e+01,-3.40e-01,
612,2.96e+01,-3.40e-01,
613,2.96e+01,-3.40e-01,
614,2.96e+01,-3.40e-01,
615,2.96e+01,-3.60e-01,
616,2.96e+01,-3.40e-01,
617,2.96e+01,-3.40e-01,
618,2.96e+01,-3.60e-01,
619,2.96e+01,-3.20e-01,
620,2.96e+01,-3.40e-01,
621,2.96e+01,-3.60e-01,
622,2.96e+01,-3.20e-01,
623,2.96e+01,-3.60e-01,
624,2.96e+01,-3.40e-01,
625,2.96e+01,-3.20e-01,
626,2.96e+01,-3.40e-01,
627,2.96e+01,-3.40e-01,
628,2.96e+01,-3.40e-01,
629,2.96e+01,-3.40e-01,
630,2.96e+01,-3.60e-01,
631,2.96e+01,-3.20e-01,
632,2.96e+01,-3.40e-01,
633,2.96e+01,-3.40e-01,
634,2.96e+01,-3.40e-01,
635,2.96e+01,-3.40e-01,
636,2.96e+01,-3.40e-01,
637,2.96e+01,-3.40e-01,
638,2.96e+01,-3.40e-01,
639,2.96e+01,-3.40e-01,
640,2.96e+01,-3.60e-01,
641,2.96e+01,-3.20e-01,
642,2.96e+01,-3.40e-01,
643,2.96e+01,-3.40e-01,
644,2.96e+01,-3.20e-01,
645,2.96e+01,-3.40e-01,
646,2.96e+01,-3.40e-01,
647,2.96e+01,-3.20e-01,
648,2.96e+01,-3.40e-01,
649,2.96e+01,-3.40e-01,
650,2.96e+01,-3.20e-01,
651,2.96e+01,-3.40e-01,
652,2.96e+01,-3.40e-01,
653,2.96e+01,-3.20e-01,
654,2.96e+01,-3.40e-01,
655,2.96e+01,-3.20e-01,
656,2.96e+01,-3.40e-01,
657,2.96e+01,-3.40e-01,
658,2.96e+01,-3.20e-01,
659,2.96e+01,-3.60e-01,
660,2.96e+01,-3.20e-01,
661,2.96e+01,-3.40e-01,
662,2.96e+01,-3.40e-01,
663,2.96e+01,-3.20e-01,
664,2.96e+01,-3.60e-01,
665,2.96e+01,-3.40e-01,
666,2.96e+01,-3.40e-01,
667,2.96e+01,-3.40e-01,
668,2.96e+01,-3.40e-01,
669,2.96e+01,-3.40e-01,
670,2.96e+01,-3.20e-01,
671,2.96e+01,-3.40e-01,
672,2.96e+01,-3.40e-01,
673,2.96e+01,-3.40e-01,
674,2.96e+01,-3.40e-01,
675,2.96e+01,-3.20e-01,
676,2.96e+01,-3.40e-01,
677,2.96e+01,-3.40e-01,
678,2.96e+01,-3.40e-01,
679,2.96e+01,-3.40e-01,
680,2.96e+01,-3.20e-01,
681,2.96e+01,-3.40e-01,
682,2.96e+01,-3.40e-01,
683,2.96e+01,-3.20e-01,
684,2.96e+01,-3.40e-01,
685,2.96e+01,-3.40e-01,
686,2.96e+01,-3.40e-01,
687,2.96e+01,-3.40e-01,
688,2.96e+01,-3.40e-01,
689,2.96e+01,-3.20e-01,
690,2.96e+01,-3.40e-01,
691,2.96e+01,-3.40e-01,
692,2.96e+01,-3.20e-01,
693,2.96e+01,-3.40e-01,
694,2.96e+01,-3.40e-01,
695,2.96e+01,-3.40e-01,
696,2.96e+01,-3.40e-01,
697,2.96e+01,-3.40e-01,
698,2.96e+01,-3.40e-01,
699,2.96e+01,-3.20e-01,
700,2.96e+01,-3.40e-01,
701,2.96e+01,-3.40e-01,
702,2.96e+01,-3.20e-01,
703,2.96e+01,-3.40e-01,
704,2.96e+01,-3.40e-01,
705,2.96e+01,-3.20e-01,
706,2.96e+01,-3.40e-01,
707,2.96e+01,-3.40e-01,
708,2.96e+01,-3.20e-01,
709,2.96e+01,-3.40e-01,
710,2.96e+01,-3.40e-01,
711,2.96e+01,-3.20e-01,
712,2.96e+01,-3.40e-01,
713,2.96e+01,-3.40e-01,
714,2.96e+01,-3.20e-01,
715,2.96e+01,-3.40e-01,
716,2.96e+01,-3.40e-01,
717,2.96e+01,-3.20e-01,
718,2.96e+01,-3.20e-01,
719,2.96e+01,-3.40e-01,
720,2.96e+01,-3.40e-01,
721,2.96e+01,-3.00e-01,
722,2.96e+01,-3.60e-01,
723,2.96e+01,-3.40e-01,
724,2.96e+01,-3.00e-01,
725,2.96e+01,-3.60e-01,
726,2.96e+01,-3.20e-01,
727,2.96e+01,-3.20e-01,
728,2.96e+01,-3.40e-01,
729,2.96e+01,-3.40e-01,
730,2.96e+01,-3.20e-01,
731,2.96e+01,-3.20e-01,
732,2.96e+01,-3.60e-01,
733,2.96e+01,-3.00e-01,
734,2.96e+01,-3.20e-01,
735,2.96e+01,-3.40e-01,
736,2.96e+01,-3.20e-01,
737,2.96e+01,-3.20e-01,
738,2.96e+01,-3.40e-01,
739,2.96e+01,-3.20e-01,
740,2.96e+01,-3.20e-01,
741,2.96e+01,-3.40e-01,
742,2.96e+01,-3.20e-01,
743,2.96e+01,-3.20e-01,
744,2.96e+01,-3.40e-01,
745,2.96e+01,-3.20e-01,
746,2.96e+01,-3.20e-01,
747,2.96e+01,-3.20e-01,
748,2.96e+01,-3.40e-01,
749,2.96e+01,-3.20e-01,
750,2.96e+01,-3.20e-01,
751,2.96e+01,-3.40e-01,
752,2.96e+01,-3.20e-01,
753,2.96e+01,-3.20e-01,
754,2.96e+01,-3.40e-01,
755,2.96e+01,-3.20e-01,
756,2.96e+01,-3.20e-01,
757,2.96e+01,-3.40e-01,
758,2.96e+01,-3.40e-01,
759,2.96e+01,-3.20e-01,
760,2.96e+01,-3.40e-01,
761,2.96e+01,-3.40e-01,
762,2.96e+01,-3.20e-01,
763,2.96e+01,-3.40e-01,
764,2.96e+01,-3.40e-01,
765,2.96e+01,-3.20e-01,
766,2.96e+01,-3.40e-01,
767,2.96e+01,-3.40e-01,
768,2.96e+01,-3.20e-01,
769,2.96e+01,-3.20e-01,
770,2.96e+01,-3.40e-01,
771,2.96e+01,-3.20e-01,
772,2.96e+01,-3.20e-01,
773,2.96e+01,-3.40e-01,
774,2.96e+01,-3.20e-01,
775,2.96e+01,-3.20e-01,
776,2.96e+01,-3.40e-01,
777,2.96e+01,-3.20e-01,
778,2.96e+01,-3.20e-01,
779,2.96e+01,-3.20e-01,
780,2.96e+01,-3.40e-01,
781,2.96e+01,-3.20e-01,
782,2.96e+01,-3.20e-01,
783,2.96e+01,-3.40e-01,
784,2.96e+01,-3.00e-01,
785,2.96e+01,-3.40e-01,
786,2.96e+01,-3.40e-01,
787,2.96e+01,-3.00e-01,
788,2.96e+01,-3.40e-01,
789,2.96e+01,-3.20e-01,
790,2.96e+01,-3.20e-01,
791,2.96e+01,-3.40e-01,
792,2.96e+01,-3.20e-01,
793,2.96e+01,-3.20e-01,
794,2.96e+01,-3.20e-01,
795,2.96e+01,-3.20e-01,
796,2.96e+01,-3.40e-01,
797,2.96e+01,-3.20e-01,
798,2.96e+01,-3.20e-01,
799,2.96e+01,-3.40e-01,
800,2.96e+01,-3.20e-01,
801,2.96e+01,-3.20e-01,
802,2.96e+01,-3.40e-01,
803,2.96e+01,-3.00e-01,
804,2.96e+01,-3.20e-01,
805,2.96e+01,-3.20e-01,
806,2.96e+01,-3.20e-01,
807,2.96e+01,-3.20e-01,
808,2.96e+01,-3.20e-01,
809,2.96e+01,-3.20e-01,
810,2.96e+01,-3.20e-01,
811,2.96e+01,-3.20e-01,
812,2.96e+01,-3.20e-01,
813,2.96e+01,-3.20e-01,
814,2.96e+01,-3.20e-01,
815,2.96e+01,-3.20e-01,
816,2.96e+01,-3.20e-01,
817,2.96e+01,-3.20e-01,
818,2.96e+01,-3.20e-01,
819,2.96e+01,-3.20e-01,
820,2.96e+01,-3.20e-01,
821,2.96e+01,-3.40e-01,
822,2.96e+01,-3.20e-01,
823,2.96e+01,-3.20e-01,
824,2.96e+01,-3.40e-01,
825,2.96e+01,-3.20e-01,
826,2.96e+01,-3.20e-01,
827,2.96e+01,-3.20e-01,
828,2.96e+01,-3.20e-01,
829,2.96e+01,-3.20e-01,
830,2.96e+01,-3.20e-01,
831,2.96e+01,-3.20e-01,
832,2.96e+01,-3.20e-01,
833,2.96e+01,-3.20e-01,
834,2.96e+01,-3.20e-01,
