lab5/data/task1_4.csv

X,CH1,CH2,Start,Increment,
Sequence,Volt,Volt,-3.000000e-05,2.000000e-09
0,0.00e+00,1.84e+01,
1,-2.00e-03,1.88e+01,
2,2.00e-03,1.88e+01,
3,4.00e-03,1.88e+01,
4,0.00e+00,1.88e+01,
5,2.00e-03,1.92e+01,
6,0.00e+00,1.92e+01,
7,0.00e+00,1.92e+01,
8,0.00e+00,1.92e+01,
9,0.00e+00,1.92e+01,
10,0.00e+00,1.92e+01,
11,4.00e-03,1.92e+01,
12,0.00e+00,1.96e+01,
13,0.00e+00,1.96e+01,
14,2.00e-03,1.96e+01,
15,2.00e-03,1.96e+01,
16,0.00e+00,1.96e+01,
17,0.00e+00,1.96e+01,
18,2.00e-03,2.00e+01,
19,2.00e-03,1.96e+01,
20,-2.00e-03,2.00e+01,
21,2.00e-03,2.00e+01,
22,2.00e-03,2.00e+01,
23,2.00e-03,2.00e+01,
24,-2.00e-03,2.00e+01,
25,-2.00e-03,2.04e+01,
26,0.00e+00,2.04e+01,
27,2.00e-03,2.04e+01,
28,0.00e+00,2.00e+01,
29,0.00e+00,2.04e+01,
30,2.00e-03,2.04e+01,
31,2.00e-03,2.04e+01,
32,-2.00e-03,2.04e+01,
33,0.00e+00,2.08e+01,
34,0.00e+00,2.08e+01,
35,2.00e-03,2.08e+01,
36,0.00e+00,2.08e+01,
37,0.00e+00,2.08e+01,
38,0.00e+00,2.08e+01,
39,2.00e-03,2.08e+01,
40,0.00e+00,2.08e+01,
41,-2.00e-03,2.08e+01,
42,2.00e-03,2.12e+01,
43,-2.00e-03,2.12e+01,
44,-2.00e-03,2.12e+01,
45,2.00e-03,2.12e+01,
46,0.00e+00,2.12e+01,
47,2.00e-03,2.12e+01,
48,0.00e+00,2.12e+01,
49,-2.00e-03,2.16e+01,
50,0.00e+00,2.16e+01,
51,0.00e+00,2.16e+01,
52,-2.00e-03,2.16e+01,
53,0.00e+00,2.16e+01,
54,4.00e-03,2.16e+01,
55,2.00e-03,2.16e+01,
56,0.00e+00,2.16e+01,
57,-2.00e-03,2.16e+01,
58,0.00e+00,2.24e+01,
59,2.00e-03,2.24e+01,
60,-2.00e-03,2.24e+01,
61,0.00e+00,2.24e+01,
62,0.00e+00,2.24e+01,
63,2.00e-03,2.24e+01,
64,-2.00e-03,2.24e+01,
65,-2.00e-03,2.24e+01,
66,0.00e+00,2.24e+01,
67,0.00e+00,2.24e+01,
68,-2.00e-03,2.24e+01,
69,0.00e+00,2.28e+01,
70,-2.00e-03,2.28e+01,
71,2.00e-03,2.28e+01,
72,0.00e+00,2.28e+01,
73,0.00e+00,2.28e+01,
74,0.00e+00,2.28e+01,
75,0.00e+00,2.28e+01,
76,-2.00e-03,2.28e+01,
77,-2.00e-03,2.28e+01,
78,0.00e+00,2.28e+01,
79,0.00e+00,2.28e+01,
80,-2.00e-03,2.28e+01,
81,-2.00e-03,2.28e+01,
82,0.00e+00,2.28e+01,
83,0.00e+00,2.28e+01,
84,0.00e+00,2.28e+01,
85,-2.00e-03,2.28e+01,
86,0.00e+00,2.28e+01,
87,0.00e+00,2.28e+01,
88,-2.00e-03,2.28e+01,
89,-2.00e-03,2.28e+01,
90,-2.00e-03,2.28e+01,
91,0.00e+00,2.28e+01,
92,0.00e+00,2.28e+01,
93,-2.00e-03,2.28e+01,
94,-2.00e-03,2.28e+01,
95,2.00e-03,2.28e+01,
96,-2.00e-03,2.28e+01,
97,-2.00e-03,2.28e+01,
98,0.00e+00,2.28e+01,
99,0.00e+00,2.28e+01,
100,-2.00e-03,2.28e+01,
101,0.00e+00,2.28e+01,
102,-2.00e-03,2.28e+01,
103,0.00e+00,2.28e+01,
104,-2.00e-03,2.28e+01,
105,0.00e+00,2.32e+01,
106,0.00e+00,2.28e+01,
107,0.00e+00,2.28e+01,
108,-2.00e-03,2.28e+01,
109,0.00e+00,2.28e+01,
110,-2.00e-03,2.28e+01,
111,0.00e+00,2.28e+01,
112,-2.00e-03,2.28e+01,
113,-4.00e-03,2.28e+01,
114,0.00e+00,2.28e+01,
115,0.00e+00,2.28e+01,
116,-2.00e-03,2.24e+01,
117,0.00e+00,2.28e+01,
118,0.00e+00,2.28e+01,
119,0.00e+00,2.28e+01,
120,-2.00e-03,2.24e+01,
121,-2.00e-03,2.28e+01,
122,-2.00e-03,2.28e+01,
123,-2.00e-03,2.24e+01,
124,-2.00e-03,2.24e+01,
125,-2.00e-03,2.28e+01,
126,-2.00e-03,2.24e+01,
127,0.00e+00,2.24e+01,
128,-2.00e-03,2.24e+01,
129,-4.00e-03,2.24e+01,
130,-2.00e-03,2.24e+01,
131,-2.00e-03,2.24e+01,
132,-2.00e-03,2.16e+01,
133,0.00e+00,2.24e+01,
134,-2.00e-03,2.16e+01,
135,0.00e+00,2.24e+01,
136,-2.00e-03,2.16e+01,
137,-2.00e-03,2.16e+01,
138,0.00e+00,2.16e+01,
139,-2.00e-03,2.16e+01,
140,-4.00e-03,2.16e+01,
141,-2.00e-03,2.16e+01,
142,-4.00e-03,2.16e+01,
143,0.00e+00,2.16e+01,
144,-2.00e-03,2.12e+01,
145,-2.00e-03,2.16e+01,
146,0.00e+00,2.12e+01,
147,-2.00e-03,2.12e+01,
148,-4.00e-03,2.12e+01,
149,-2.00e-03,2.16e+01,
150,-2.00e-03,2.12e+01,
151,0.00e+00,2.12e+01,
152,-2.00e-03,2.08e+01,
153,-4.00e-03,2.12e+01,
154,-2.00e-03,2.08e+01,
155,0.00e+00,2.08e+01,
156,-2.00e-03,2.08e+01,
157,-2.00e-03,2.12e+01,
158,0.00e+00,2.08e+01,
159,0.00e+00,2.08e+01,
160,-2.00e-03,2.08e+01,
161,-4.00e-03,2.04e+01,
162,-2.00e-03,2.04e+01,
163,-2.00e-03,2.04e+01,
164,-4.00e-03,2.04e+01,
165,-4.00e-03,2.04e+01,
166,-2.00e-03,2.04e+01,
167,0.00e+00,2.04e+01,
168,-2.00e-03,2.00e+01,
169,-4.00e-03,2.04e+01,
170,-2.00e-03,2.04e+01,
171,-2.00e-03,2.00e+01,
172,-4.00e-03,2.00e+01,
173,0.00e+00,2.00e+01,
174,-2.00e-03,2.00e+01,
175,-2.00e-03,2.00e+01,
176,-2.00e-03,1.96e+01,
177,-4.00e-03,2.00e+01,
178,-2.00e-03,1.96e+01,
179,0.00e+00,1.96e+01,
180,-4.00e-03,1.92e+01,
181,0.00e+00,1.96e+01,
182,0.00e+00,1.96e+01,
183,0.00e+00,1.92e+01,
184,-2.00e-03,1.92e+01,
185,-4.00e-03,1.92e+01,
186,-4.00e-03,1.92e+01,
187,-2.00e-03,1.92e+01,
188,-2.00e-03,1.88e+01,
189,0.00e+00,1.92e+01,
190,-4.00e-03,1.92e+01,
191,0.00e+00,1.88e+01,
192,-2.00e-03,1.88e+01,
193,-2.00e-03,1.88e+01,
194,0.00e+00,1.84e+01,
195,-2.00e-03,1.84e+01,
196,-2.00e-03,1.84e+01,
197,-2.00e-03,1.84e+01,
198,-2.00e-03,1.84e+01,
199,0.00e+00,1.84e+01,
200,-2.00e-03,1.80e+01,
201,-4.00e-03,1.84e+01,
202,0.00e+00,1.84e+01,
203,-2.00e-03,1.80e+01,
204,-4.00e-03,1.80e+01,
205,-2.00e-03,1.80e+01,
206,-2.00e-03,1.80e+01,
207,-2.00e-03,1.80e+01,
208,-2.00e-03,1.76e+01,
209,-4.00e-03,1.80e+01,
210,-2.00e-03,1.80e+01,
211,-2.00e-03,1.76e+01,
212,-2.00e-03,1.76e+01,
213,0.00e+00,1.76e+01,
214,-2.00e-03,1.76e+01,
215,0.00e+00,1.76e+01,
216,0.00e+00,1.72e+01,
217,-4.00e-03,1.72e+01,
218,-2.00e-03,1.72e+01,
219,-2.00e-03,1.72e+01,
220,-2.00e-03,1.72e+01,
221,-2.00e-03,1.72e+01,
222,0.00e+00,1.68e+01,
223,-2.00e-03,1.68e+01,
224,-4.00e-03,1.68e+01,
225,-4.00e-03,1.68e+01,
226,0.00e+00,1.68e+01,
227,2.00e-03,1.68e+01,
228,-2.00e-03,1.64e+01,
229,0.00e+00,1.68e+01,
230,-2.00e-03,1.64e+01,
231,0.00e+00,1.64e+01,
232,-2.00e-03,1.64e+01,
233,-2.00e-03,1.64e+01,
234,0.00e+00,1.64e+01,
235,0.00e+00,1.64e+01,
236,-2.00e-03,1.60e+01,
237,-2.00e-03,1.64e+01,
238,0.00e+00,1.60e+01,
239,2.00e-03,1.60e+01,
240,0.00e+00,1.60e+01,
241,-2.00e-03,1.60e+01,
242,-2.00e-03,1.60e+01,
243,0.00e+00,1.60e+01,
244,-2.00e-03,1.56e+01,
245,0.00e+00,1.60e+01,
246,0.00e+00,1.60e+01,
247,0.00e+00,1.56e+01,
248,-2.00e-03,1.56e+01,
249,-2.00e-03,1.56e+01,
250,0.00e+00,1.56e+01,
251,-2.00e-03,1.56e+01,
252,-2.00e-03,1.52e+01,
253,0.00e+00,1.56e+01,
254,-2.00e-03,1.52e+01,
255,0.00e+00,1.52e+01,
256,-2.00e-03,1.52e+01,
257,-2.00e-03,1.52e+01,
258,-2.00e-03,1.52e+01,
259,0.00e+00,1.52e+01,
260,-2.00e-03,1.52e+01,
261,-2.00e-03,1.52e+01,
262,-2.00e-03,1.52e+01,
263,0.00e+00,1.52e+01,
264,-2.00e-03,1.48e+01,
265,-2.00e-03,1.48e+01,
266,0.00e+00,1.48e+01,
267,0.00e+00,1.48e+01,
268,0.00e+00,1.48e+01,
269,-2.00e-03,1.48e+01,
270,0.00e+00,1.48e+01,
271,0.00e+00,1.48e+01,
272,0.00e+00,1.48e+01,
273,-2.00e-03,1.48e+01,
274,0.00e+00,1.48e+01,
275,0.00e+00,1.48e+01,
276,-2.00e-03,1.44e+01,
277,-2.00e-03,1.48e+01,
278,0.00e+00,1.48e+01,
279,0.00e+00,1.44e+01,
280,-2.00e-03,1.44e+01,
281,0.00e+00,1.44e+01,
282,0.00e+00,1.44e+01,
283,2.00e-03,1.44e+01,
284,-2.00e-03,1.44e+01,
285,0.00e+00,1.44e+01,
286,-2.00e-03,1.44e+01,
287,0.00e+00,1.44e+01,
288,-2.00e-03,1.44e+01,
289,-2.00e-03,1.44e+01,
290,2.00e-03,1.44e+01,
291,0.00e+00,1.44e+01,
292,-2.00e-03,1.36e+01,
293,0.00e+00,1.44e+01,
294,-2.00e-03,1.44e+01,
295,0.00e+00,1.44e+01,
296,-2.00e-03,1.36e+01,
297,0.00e+00,1.44e+01,
298,-2.00e-03,1.44e+01,
299,0.00e+00,1.36e+01,
300,0.00e+00,1.36e+01,
301,0.00e+00,1.44e+01,
302,0.00e+00,1.44e+01,
303,2.00e-03,1.36e+01,
304,-2.00e-03,1.36e+01,
305,-2.00e-03,1.36e+01,
306,0.00e+00,1.36e+01,
307,2.00e-03,1.36e+01,
308,-2.00e-03,1.36e+01,
309,2.00e-03,1.44e+01,
310,0.00e+00,1.36e+01,
311,2.00e-03,1.36e+01,
312,-2.00e-03,1.36e+01,
313,-2.00e-03,1.36e+01,
314,2.00e-03,1.36e+01,
315,0.00e+00,1.36e+01,
316,0.00e+00,1.36e+01,
317,0.00e+00,1.36e+01,
318,2.00e-03,1.36e+01,
319,2.00e-03,1.36e+01,
320,0.00e+00,1.36e+01,
321,0.00e+00,1.36e+01,
322,0.00e+00,1.44e+01,
323,2.00e-03,1.36e+01,
324,0.00e+00,1.36e+01,
325,2.00e-03,1.44e+01,
326,2.00e-03,1.44e+01,
327,2.00e-03,1.36e+01,
328,0.00e+00,1.36e+01,
329,-2.00e-03,1.44e+01,
330,2.00e-03,1.44e+01,
331,0.00e+00,1.36e+01,
332,0.00e+00,1.36e+01,
333,0.00e+00,1.44e+01,
334,0.00e+00,1.44e+01,
335,4.00e-03,1.44e+01,
336,0.00e+00,1.36e+01,
337,-2.00e-03,1.44e+01,
338,2.00e-03,1.44e+01,
339,2.00e-03,1.44e+01,
340,2.00e-03,1.36e+01,
341,2.00e-03,1.44e+01,
342,0.00e+00,1.44e+01,
343,2.00e-03,1.44e+01,
344,0.00e+00,1.44e+01,
345,0.00e+00,1.44e+01,
346,2.00e-03,1.44e+01,
347,2.00e-03,1.44e+01,
348,0.00e+00,1.44e+01,
349,2.00e-03,1.48e+01,
350,0.00e+00,1.44e+01,
351,2.00e-03,1.44e+01,
352,0.00e+00,1.44e+01,
353,0.00e+00,1.44e+01,
354,2.00e-03,1.48e+01,
355,2.00e-03,1.48e+01,
356,0.00e+00,1.44e+01,
357,2.00e-03,1.48e+01,
358,2.00e-03,1.48e+01,
359,0.00e+00,1.48e+01,
360,2.00e-03,1.48e+01,
361,0.00e+00,1.48e+01,
362,0.00e+00,1.48e+01,
363,2.00e-03,1.48e+01,
364,0.00e+00,1.48e+01,
365,2.00e-03,1.52e+01,
366,2.00e-03,1.48e+01,
367,2.00e-03,1.48e+01,
368,2.00e-03,1.48e+01,
369,0.00e+00,1.52e+01,
370,0.00e+00,1.52e+01,
371,2.00e-03,1.52e+01,
372,0.00e+00,1.52e+01,
373,2.00e-03,1.52e+01,
374,2.00e-03,1.52e+01,
375,2.00e-03,1.52e+01,
376,2.00e-03,1.52e+01,
377,0.00e+00,1.56e+01,
378,2.00e-03,1.56e+01,
379,2.00e-03,1.56e+01,
380,2.00e-03,1.56e+01,
381,0.00e+00,1.56e+01,
382,0.00e+00,1.56e+01,
383,2.00e-03,1.56e+01,
384,0.00e+00,1.56e+01,
385,0.00e+00,1.60e+01,
386,2.00e-03,1.60e+01,
387,4.00e-03,1.60e+01,
388,0.00e+00,1.56e+01,
389,2.00e-03,1.60e+01,
390,2.00e-03,1.60e+01,
391,2.00e-03,1.60e+01,
392,2.00e-03,1.56e+01,
393,0.00e+00,1.64e+01,
394,2.00e-03,1.60e+01,
395,4.00e-03,1.64e+01,
396,0.00e+00,1.60e+01,
397,2.00e-03,1.64e+01,
398,2.00e-03,1.64e+01,
399,0.00e+00,1.64e+01,
400,2.00e-03,1.64e+01,
401,0.00e+00,1.64e+01,
402,2.00e-03,1.68e+01,
403,4.00e-03,1.68e+01,
404,0.00e+00,1.64e+01,
405,2.00e-03,1.68e+01,
406,2.00e-03,1.68e+01,
407,4.00e-03,1.68e+01,
408,0.00e+00,1.68e+01,
409,0.00e+00,1.72e+01,
410,0.00e+00,1.72e+01,
411,0.00e+00,1.72e+01,
412,0.00e+00,1.68e+01,
413,2.00e-03,1.72e+01,
414,2.00e-03,1.72e+01,
415,2.00e-03,1.72e+01,
416,2.00e-03,1.72e+01,
417,-2.00e-03,1.76e+01,
418,2.00e-03,1.76e+01,
419,2.00e-03,1.76e+01,
420,2.00e-03,1.76e+01,
421,2.00e-03,1.76e+01,
422,0.00e+00,1.76e+01,
423,4.00e-03,1.76e+01,
424,0.00e+00,1.76e+01,
425,0.00e+00,1.80e+01,
426,2.00e-03,1.80e+01,
427,2.00e-03,1.80e+01,
428,0.00e+00,1.80e+01,
429,2.00e-03,1.84e+01,
430,0.00e+00,1.80e+01,
431,0.00e+00,1.80e+01,
432,0.00e+00,1.80e+01,
433,0.00e+00,1.84e+01,
434,2.00e-03,1.84e+01,
435,0.00e+00,1.84e+01,
436,0.00e+00,1.84e+01,
437,0.00e+00,1.88e+01,
438,0.00e+00,1.88e+01,
439,0.00e+00,1.88e+01,
440,2.00e-03,1.84e+01,
441,0.00e+00,1.88e+01,
442,2.00e-03,1.88e+01,
443,2.00e-03,1.88e+01,
444,0.00e+00,1.88e+01,
445,0.00e+00,1.92e+01,
446,2.00e-03,1.92e+01,
447,2.00e-03,1.92e+01,
448,0.00e+00,1.92e+01,
449,-2.00e-03,1.92e+01,
450,0.00e+00,1.92e+01,
451,0.00e+00,1.92e+01,
452,-2.00e-03,1.92e+01,
453,2.00e-03,1.96e+01,
454,0.00e+00,1.96e+01,
455,0.00e+00,1.96e+01,
456,0.00e+00,1.96e+01,
457,0.00e+00,1.96e+01,
458,2.00e-03,1.96e+01,
459,2.00e-03,1.96e+01,
460,0.00e+00,1.96e+01,
461,0.00e+00,2.00e+01,
462,0.00e+00,2.00e+01,
463,0.00e+00,2.00e+01,
464,0.00e+00,2.00e+01,
465,0.00e+00,2.00e+01,
466,0.00e+00,2.00e+01,
467,0.00e+00,2.00e+01,
468,0.00e+00,2.00e+01,
469,0.00e+00,2.04e+01,
470,0.00e+00,2.04e+01,
471,2.00e-03,2.04e+01,
472,-2.00e-03,2.04e+01,
473,-2.00e-03,2.04e+01,
474,-2.00e-03,2.04e+01,
475,2.00e-03,2.04e+01,
476,2.00e-03,2.04e+01,
477,2.00e-03,2.08e+01,
478,0.00e+00,2.08e+01,
479,0.00e+00,2.08e+01,
480,-2.00e-03,2.08e+01,
481,-2.00e-03,2.08e+01,
482,0.00e+00,2.08e+01,
483,2.00e-03,2.08e+01,
484,0.00e+00,2.08e+01,
485,0.00e+00,2.12e+01,
486,0.00e+00,2.12e+01,
487,2.00e-03,2.12e+01,
488,-2.00e-03,2.08e+01,
489,-4.00e-03,2.12e+01,
490,0.00e+00,2.12e+01,
491,0.00e+00,2.12e+01,
492,0.00e+00,2.12e+01,
493,-2.00e-03,2.12e+01,
494,0.00e+00,2.12e+01,
495,2.00e-03,2.12e+01,
496,0.00e+00,2.12e+01,
497,0.00e+00,2.16e+01,
498,0.00e+00,2.16e+01,
499,0.00e+00,2.16e+01,
500,0.00e+00,2.16e+01,
501,0.00e+00,2.16e+01,
502,-2.00e-03,2.16e+01,
503,0.00e+00,2.16e+01,
504,0.00e+00,2.16e+01,
505,-2.00e-03,2.16e+01,
506,0.00e+00,2.16e+01,
507,0.00e+00,2.16e+01,
508,-2.00e-03,2.16e+01,
509,0.00e+00,2.16e+01,
510,0.00e+00,2.16e+01,
511,0.00e+00,2.16e+01,
512,-2.00e-03,2.16e+01,
513,0.00e+00,2.16e+01,
514,2.00e-03,2.24e+01,
515,0.00e+00,2.16e+01,
516,0.00e+00,2.16e+01,
517,0.00e+00,2.24e+01,
518,0.00e+00,2.24e+01,
519,2.00e-03,2.24e+01,
520,0.00e+00,2.24e+01,
521,-4.00e-03,2.24e+01,
522,-2.00e-03,2.24e+01,
523,0.00e+00,2.24e+01,
524,-2.00e-03,2.24e+01,
525,0.00e+00,2.24e+01,
526,-2.00e-03,2.24e+01,
527,0.00e+00,2.24e+01,
528,0.00e+00,2.24e+01,
529,-2.00e-03,2.24e+01,
530,0.00e+00,2.24e+01,
531,0.00e+00,2.24e+01,
532,-2.00e-03,2.24e+01,
533,0.00e+00,2.24e+01,
534,0.00e+00,2.24e+01,
535,0.00e+00,2.24e+01,
536,-2.00e-03,2.24e+01,
537,-2.00e-03,2.24e+01,
538,0.00e+00,2.24e+01,
539,0.00e+00,2.24e+01,
540,-2.00e-03,2.24e+01,
541,0.00e+00,2.24e+01,
542,0.00e+00,2.24e+01,
543,0.00e+00,2.24e+01,
544,-2.00e-03,2.24e+01,
545,-2.00e-03,2.24e+01,
546,0.00e+00,2.24e+01,
547,0.00e+00,2.24e+01,
548,0.00e+00,2.16e+01,
549,0.00e+00,2.24e+01,
550,-2.00e-03,2.24e+01,
551,0.00e+00,2.24e+01,
552,0.00e+00,2.16e+01,
553,-2.00e-03,2.24e+01,
554,-2.00e-03,2.24e+01,
555,0.00e+00,2.16e+01,
556,-2.00e-03,2.16e+01,
557,-2.00e-03,2.24e+01,
558,0.00e+00,2.16e+01,
559,0.00e+00,2.16e+01,
560,0.00e+00,2.16e+01,
561,-2.00e-03,2.16e+01,
562,-2.00e-03,2.16e+01,
563,0.00e+00,2.16e+01,
564,-2.00e-03,2.16e+01,
565,0.00e+00,2.16e+01,
566,2.00e-03,2.16e+01,
567,0.00e+00,2.16e+01,
568,-2.00e-03,2.12e+01,
569,-2.00e-03,2.16e+01,
570,0.00e+00,2.16e+01,
571,-2.00e-03,2.16e+01,
572,-2.00e-03,2.12e+01,
573,0.00e+00,2.16e+01,
574,-2.00e-03,2.12e+01,
575,2.00e-03,2.12e+01,
576,-2.00e-03,2.12e+01,
577,-4.00e-03,2.12e+01,
578,-2.00e-03,2.12e+01,
579,0.00e+00,2.12e+01,
580,-2.00e-03,2.08e+01,
581,-2.00e-03,2.12e+01,
582,-2.00e-03,2.12e+01,
583,2.00e-03,2.08e+01,
584,-2.00e-03,2.08e+01,
585,-2.00e-03,2.12e+01,
586,-2.00e-03,2.08e+01,
587,-2.00e-03,2.08e+01,
588,0.00e+00,2.08e+01,
589,0.00e+00,2.08e+01,
590,-2.00e-03,2.08e+01,
591,-2.00e-03,2.08e+01,
592,-2.00e-03,2.04e+01,
593,-4.00e-03,2.08e+01,
594,-2.00e-03,2.04e+01,
595,-4.00e-03,2.04e+01,
596,-4.00e-03,2.04e+01,
597,0.00e+00,2.04e+01,
598,-2.00e-03,2.04e+01,
599,0.00e+00,2.04e+01,
600,-2.00e-03,2.04e+01,
601,-2.00e-03,2.00e+01,
602,-2.00e-03,2.00e+01,
603,0.00e+00,2.00e+01,
604,-2.00e-03,2.00e+01,
605,-2.00e-03,2.00e+01,
606,-2.00e-03,2.00e+01,
607,0.00e+00,2.00e+01,
608,-4.00e-03,1.96e+01,
609,-2.00e-03,1.96e+01,
610,-2.00e-03,2.00e+01,
611,0.00e+00,1.96e+01,
612,-2.00e-03,1.96e+01,
613,0.00e+00,1.96e+01,
614,-2.00e-03,1.96e+01,
615,0.00e+00,1.96e+01,
616,-2.00e-03,1.92e+01,
617,-2.00e-03,1.96e+01,
618,0.00e+00,1.92e+01,
619,-2.00e-03,1.92e+01,
620,-2.00e-03,1.92e+01,
621,0.00e+00,1.92e+01,
622,-2.00e-03,1.92e+01,
623,0.00e+00,1.92e+01,
624,-2.00e-03,1.88e+01,
625,-2.00e-03,1.92e+01,
626,0.00e+00,1.88e+01,
627,0.00e+00,1.88e+01,
628,-2.00e-03,1.88e+01,
629,-2.00e-03,1.88e+01,
630,0.00e+00,1.88e+01,
631,-2.00e-03,1.84e+01,
632,-2.00e-03,1.84e+01,
633,-4.00e-03,1.84e+01,
634,-2.00e-03,1.84e+01,
635,-2.00e-03,1.84e+01,
636,-2.00e-03,1.80e+01,
637,-2.00e-03,1.84e+01,
638,-2.00e-03,1.84e+01,
639,0.00e+00,1.80e+01,
640,-2.00e-03,1.80e+01,
641,-4.00e-03,1.80e+01,
642,0.00e+00,1.80e+01,
643,-2.00e-03,1.80e+01,
644,-2.00e-03,1.76e+01,
645,-2.00e-03,1.80e+01,
646,-2.00e-03,1.80e+01,
647,-2.00e-03,1.76e+01,
648,-2.00e-03,1.76e+01,
649,-2.00e-03,1.76e+01,
650,0.00e+00,1.76e+01,
651,-2.00e-03,1.76e+01,
652,-2.00e-03,1.72e+01,
653,0.00e+00,1.76e+01,
654,-2.00e-03,1.76e+01,
655,0.00e+00,1.72e+01,
656,-2.00e-03,1.72e+01,
657,-4.00e-03,1.72e+01,
658,-2.00e-03,1.72e+01,
659,0.00e+00,1.72e+01,
660,-2.00e-03,1.68e+01,
661,-2.00e-03,1.72e+01,
662,-2.00e-03,1.72e+01,
663,-2.00e-03,1.68e+01,
664,-2.00e-03,1.68e+01,
665,-2.00e-03,1.68e+01,
666,-2.00e-03,1.68e+01,
667,0.00e+00,1.68e+01,
668,-2.00e-03,1.64e+01,
669,0.00e+00,1.68e+01,
670,0.00e+00,1.68e+01,
671,2.00e-03,1.64e+01,
672,0.00e+00,1.64e+01,
673,-2.00e-03,1.64e+01,
674,0.00e+00,1.64e+01,
675,0.00e+00,1.64e+01,
676,-2.00e-03,1.60e+01,
677,-2.00e-03,1.64e+01,
678,-2.00e-03,1.64e+01,
679,0.00e+00,1.64e+01,
680,-2.00e-03,1.60e+01,
681,-2.00e-03,1.60e+01,
682,-2.00e-03,1.60e+01,
683,-2.00e-03,1.60e+01,
684,-2.00e-03,1.60e+01,
685,0.00e+00,1.60e+01,
686,0.00e+00,1.60e+01,
687,0.00e+00,1.60e+01,
688,-2.00e-03,1.56e+01,
689,-2.00e-03,1.56e+01,
690,0.00e+00,1.60e+01,
691,0.00e+00,1.56e+01,
692,0.00e+00,1.56e+01,
693,0.00e+00,1.56e+01,
694,0.00e+00,1.56e+01,
695,0.00e+00,1.56e+01,
696,0.00e+00,1.52e+01,
697,0.00e+00,1.56e+01,
698,0.00e+00,1.56e+01,
699,0.00e+00,1.52e+01,
700,0.00e+00,1.52e+01,
701,0.00e+00,1.56e+01,
702,-2.00e-03,1.52e+01,
703,2.00e-03,1.52e+01,
704,0.00e+00,1.52e+01,
705,-2.00e-03,1.52e+01,
706,0.00e+00,1.52e+01,
707,-2.00e-03,1.52e+01,
708,0.00e+00,1.52e+01,
709,0.00e+00,1.52e+01,
710,0.00e+00,1.52e+01,
711,2.00e-03,1.52e+01,
712,-2.00e-03,1.48e+01,
713,-2.00e-03,1.52e+01,
714,0.00e+00,1.52e+01,
715,2.00e-03,1.48e+01,
716,-2.00e-03,1.48e+01,
717,0.00e+00,1.52e+01,
718,0.00e+00,1.48e+01,
719,2.00e-03,1.48e+01,
720,0.00e+00,1.48e+01,
721,-2.00e-03,1.48e+01,
722,0.00e+00,1.48e+01,
723,0.00e+00,1.48e+01,
724,0.00e+00,1.48e+01,
725,0.00e+00,1.48e+01,
726,0.00e+00,1.48e+01,
727,0.00e+00,1.48e+01,
728,-2.00e-03,1.44e+01,
729,-2.00e-03,1.48e+01,
730,2.00e-03,1.48e+01,
731,2.00e-03,1.48e+01,
732,0.00e+00,1.44e+01,
733,0.00e+00,1.48e+01,
734,0.00e+00,1.48e+01,
735,0.00e+00,1.48e+01,
736,0.00e+00,1.44e+01,
737,0.00e+00,1.48e+01,
738,0.00e+00,1.44e+01,
739,0.00e+00,1.44e+01,
740,0.00e+00,1.44e+01,
741,0.00e+00,1.48e+01,
742,2.00e-03,1.44e+01,
743,2.00e-03,1.44e+01,
744,0.00e+00,1.44e+01,
745,0.00e+00,1.44e+01,
746,0.00e+00,1.44e+01,
747,0.00e+00,1.44e+01,
748,0.00e+00,1.44e+01,
749,0.00e+00,1.48e+01,
750,0.00e+00,1.44e+01,
751,0.00e+00,1.44e+01,
752,0.00e+00,1.44e+01,
753,0.00e+00,1.44e+01,
754,0.00e+00,1.44e+01,
755,0.00e+00,1.44e+01,
756,-2.00e-03,1.44e+01,
757,0.00e+00,1.44e+01,
758,0.00e+00,1.44e+01,
759,2.00e-03,1.44e+01,
760,2.00e-03,1.44e+01,
761,0.00e+00,1.44e+01,
762,0.00e+00,1.44e+01,
763,2.00e-03,1.44e+01,
764,0.00e+00,1.44e+01,
765,0.00e+00,1.48e+01,
766,0.00e+00,1.44e+01,
767,2.00e-03,1.44e+01,
768,0.00e+00,1.44e+01,
769,0.00e+00,1.48e+01,
770,2.00e-03,1.48e+01,
771,2.00e-03,1.44e+01,
772,2.00e-03,1.48e+01,
773,2.00e-03,1.48e+01,
774,0.00e+00,1.48e+01,
775,2.00e-03,1.48e+01,
776,0.00e+00,1.44e+01,
777,0.00e+00,1.48e+01,
778,0.00e+00,1.48e+01,
779,2.00e-03,1.48e+01,
780,0.00e+00,1.48e+01,
781,2.00e-03,1.48e+01,
782,2.00e-03,1.48e+01,
783,2.00e-03,1.48e+01,
784,2.00e-03,1.48e+01,
785,0.00e+00,1.48e+01,
786,0.00e+00,1.48e+01,
787,0.00e+00,1.48e+01,
788,0.00e+00,1.48e+01,
789,0.00e+00,1.48e+01,
790,0.00e+00,1.52e+01,
791,2.00e-03,1.52e+01,
792,2.00e-03,1.48e+01,
793,0.00e+00,1.52e+01,
794,4.00e-03,1.48e+01,
795,0.00e+00,1.52e+01,
796,2.00e-03,1.48e+01,
797,2.00e-03,1.52e+01,
798,0.00e+00,1.52e+01,
799,2.00e-03,1.52e+01,
800,0.00e+00,1.52e+01,
801,0.00e+00,1.52e+01,
802,0.00e+00,1.52e+01,
803,2.00e-03,1.52e+01,
804,2.00e-03,1.52e+01,
805,2.00e-03,1.56e+01,
806,2.00e-03,1.56e+01,
807,2.00e-03,1.52e+01,
808,2.00e-03,1.52e+01,
809,2.00e-03,1.56e+01,
810,2.00e-03,1.56e+01,
811,0.00e+00,1.56e+01,
812,0.00e+00,1.56e+01,
813,2.00e-03,1.56e+01,
814,2.00e-03,1.56e+01,
815,0.00e+00,1.56e+01,
816,-2.00e-03,1.56e+01,
817,0.00e+00,1.60e+01,
818,0.00e+00,1.56e+01,
819,2.00e-03,1.60e+01,
820,-2.00e-03,1.56e+01,
821,2.00e-03,1.60e+01,
822,2.00e-03,1.60e+01,
823,2.00e-03,1.60e+01,
824,2.00e-03,1.60e+01,
825,0.00e+00,1.60e+01,
826,0.00e+00,1.60e+01,
827,0.00e+00,1.64e+01,
828,2.00e-03,1.60e+01,
829,0.00e+00,1.64e+01,
830,0.00e+00,1.64e+01,
831,2.00e-03,1.64e+01,
832,2.00e-03,1.64e+01,
833,0.00e+00,1.64e+01,
834,0.00e+00,1.64e+01,
835,2.00e-03,1.64e+01,
836,0.00e+00,1.64e+01,
837,2.00e-03,1.68e+01,
838,2.00e-03,1.68e+01,
839,2.00e-03,1.68e+01,
840,0.00e+00,1.68e+01,
841,-2.00e-03,1.68e+01,
842,0.00e+00,1.68e+01,
843,0.00e+00,1.68e+01,
844,0.00e+00,1.68e+01,
845,2.00e-03,1.72e+01,
846,2.00e-03,1.72e+01,
847,2.00e-03,1.72e+01,
848,2.00e-03,1.72e+01,
849,0.00e+00,1.72e+01,
850,0.00e+00,1.72e+01,
851,2.00e-03,1.72e+01,
852,0.00e+00,1.72e+01,
853,0.00e+00,1.76e+01,
854,2.00e-03,1.76e+01,
855,2.00e-03,1.76e+01,
856,0.00e+00,1.76e+01,
857,0.00e+00,1.76e+01,
