lab5/data/task2_9.csv

X,CH1,CH2,Start,Increment,
Sequence,Volt,Volt,-3.000000e-05,2.000000e-09
0,9.10e+00,9.60e-02,
1,9.10e+00,9.60e-02,
2,9.10e+00,9.60e-02,
3,9.10e+00,8.80e-02,
4,9.10e+00,8.80e-02,
5,9.10e+00,8.80e-02,
6,9.10e+00,8.80e-02,
7,9.10e+00,8.80e-02,
8,9.10e+00,8.80e-02,
9,9.10e+00,8.80e-02,
10,9.10e+00,8.80e-02,
11,9.10e+00,8.80e-02,
12,9.10e+00,8.80e-02,
13,9.10e+00,8.80e-02,
14,9.10e+00,8.80e-02,
15,9.10e+00,8.80e-02,
16,9.10e+00,8.80e-02,
17,9.10e+00,8.80e-02,
18,9.10e+00,8.80e-02,
19,9.10e+00,8.80e-02,
20,9.10e+00,8.80e-02,
21,9.10e+00,8.80e-02,
22,9.10e+00,8.80e-02,
23,9.10e+00,8.80e-02,
24,9.10e+00,8.80e-02,
25,9.10e+00,8.80e-02,
26,9.10e+00,8.80e-02,
27,9.10e+00,8.80e-02,
28,9.10e+00,8.80e-02,
29,9.10e+00,8.80e-02,
30,9.10e+00,8.80e-02,
31,9.10e+00,8.80e-02,
32,9.10e+00,8.80e-02,
33,9.10e+00,8.80e-02,
34,9.10e+00,8.80e-02,
35,9.10e+00,8.80e-02,
36,9.09e+00,8.80e-02,
37,9.10e+00,8.80e-02,
38,9.10e+00,8.80e-02,
39,9.10e+00,8.80e-02,
40,9.10e+00,8.80e-02,
41,9.10e+00,8.80e-02,
42,9.09e+00,8.80e-02,
43,9.10e+00,8.00e-02,
44,9.09e+00,8.80e-02,
45,9.10e+00,8.80e-02,
46,9.10e+00,8.80e-02,
47,9.10e+00,8.80e-02,
48,9.09e+00,8.80e-02,
49,9.10e+00,8.80e-02,
50,9.09e+00,8.80e-02,
51,9.09e+00,8.80e-02,
52,9.09e+00,8.80e-02,
53,9.10e+00,8.00e-02,
54,9.09e+00,8.00e-02,
55,9.10e+00,8.80e-02,
56,9.09e+00,8.00e-02,
57,9.10e+00,8.00e-02,
58,9.10e+00,8.80e-02,
59,9.09e+00,8.00e-02,
60,9.09e+00,8.80e-02,
61,9.10e+00,8.00e-02,
62,9.09e+00,8.00e-02,
63,9.09e+00,8.00e-02,
64,9.09e+00,8.00e-02,
65,9.10e+00,8.00e-02,
66,9.09e+00,8.00e-02,
67,9.09e+00,8.00e-02,
68,9.09e+00,8.80e-02,
69,9.10e+00,8.00e-02,
70,9.09e+00,8.00e-02,
71,9.09e+00,8.00e-02,
72,9.09e+00,8.00e-02,
73,9.09e+00,8.00e-02,
74,9.09e+00,8.00e-02,
75,9.09e+00,8.00e-02,
76,9.09e+00,8.00e-02,
77,9.09e+00,8.00e-02,
78,9.09e+00,8.00e-02,
79,9.09e+00,8.00e-02,
80,9.09e+00,8.00e-02,
81,9.09e+00,8.00e-02,
82,9.09e+00,8.00e-02,
83,9.09e+00,8.00e-02,
84,9.09e+00,8.00e-02,
85,9.09e+00,8.00e-02,
86,9.09e+00,8.00e-02,
87,9.09e+00,8.00e-02,
88,9.09e+00,8.00e-02,
89,9.09e+00,8.00e-02,
90,9.09e+00,8.00e-02,
91,9.09e+00,8.00e-02,
92,9.09e+00,8.00e-02,
93,9.09e+00,8.00e-02,
94,9.09e+00,8.00e-02,
95,9.09e+00,8.00e-02,
96,9.09e+00,8.00e-02,
97,9.09e+00,8.00e-02,
98,9.09e+00,8.00e-02,
99,9.09e+00,8.00e-02,
100,9.09e+00,8.00e-02,
101,9.09e+00,8.00e-02,
102,9.09e+00,8.00e-02,
103,9.09e+00,8.00e-02,
104,9.09e+00,8.00e-02,
105,9.09e+00,8.00e-02,
106,9.09e+00,8.00e-02,
107,9.09e+00,8.00e-02,
108,9.09e+00,8.00e-02,
109,9.09e+00,8.00e-02,
110,9.09e+00,8.00e-02,
111,9.09e+00,8.00e-02,
112,9.09e+00,8.00e-02,
113,9.09e+00,8.00e-02,
114,9.09e+00,8.00e-02,
115,9.09e+00,8.00e-02,
116,9.09e+00,8.00e-02,
117,9.09e+00,8.00e-02,
118,9.09e+00,8.00e-02,
119,9.09e+00,8.00e-02,
120,9.09e+00,8.00e-02,
121,9.09e+00,8.00e-02,
122,9.09e+00,8.00e-02,
123,9.09e+00,8.00e-02,
124,9.08e+00,8.00e-02,
125,9.09e+00,8.00e-02,
126,9.09e+00,8.00e-02,
127,9.09e+00,8.00e-02,
128,9.09e+00,8.00e-02,
129,9.09e+00,8.00e-02,
130,9.08e+00,8.00e-02,
131,9.09e+00,8.00e-02,
132,9.08e+00,8.00e-02,
133,9.09e+00,7.20e-02,
134,9.09e+00,8.00e-02,
135,9.09e+00,8.00e-02,
136,9.08e+00,8.00e-02,
137,9.09e+00,8.00e-02,
138,9.08e+00,8.00e-02,
139,9.08e+00,8.00e-02,
140,9.08e+00,8.00e-02,
141,9.09e+00,8.00e-02,
142,9.09e+00,8.00e-02,
143,9.09e+00,8.00e-02,
144,9.08e+00,7.20e-02,
145,9.09e+00,7.20e-02,
146,9.08e+00,8.00e-02,
147,9.09e+00,7.20e-02,
148,9.08e+00,8.00e-02,
149,9.09e+00,7.20e-02,
150,9.08e+00,7.20e-02,
151,9.09e+00,8.00e-02,
152,9.08e+00,8.00e-02,
153,9.09e+00,7.20e-02,
154,9.08e+00,7.20e-02,
155,9.08e+00,7.20e-02,
156,9.08e+00,8.00e-02,
157,9.09e+00,7.20e-02,
158,9.08e+00,7.20e-02,
159,9.09e+00,7.20e-02,
160,9.08e+00,7.20e-02,
161,9.09e+00,7.20e-02,
162,9.08e+00,8.00e-02,
163,9.08e+00,7.20e-02,
164,9.08e+00,7.20e-02,
165,9.09e+00,7.20e-02,
166,9.08e+00,7.20e-02,
167,9.09e+00,7.20e-02,
168,9.08e+00,7.20e-02,
169,9.09e+00,7.20e-02,
170,9.08e+00,8.00e-02,
171,9.08e+00,7.20e-02,
172,9.08e+00,7.20e-02,
173,9.09e+00,7.20e-02,
174,9.08e+00,7.20e-02,
175,9.08e+00,7.20e-02,
176,9.08e+00,7.20e-02,
177,9.09e+00,7.20e-02,
178,9.08e+00,7.20e-02,
179,9.08e+00,7.20e-02,
180,9.08e+00,7.20e-02,
181,9.09e+00,7.20e-02,
182,9.08e+00,7.20e-02,
183,9.08e+00,7.20e-02,
184,9.08e+00,7.20e-02,
185,9.09e+00,7.20e-02,
186,9.08e+00,7.20e-02,
187,9.08e+00,7.20e-02,
188,9.08e+00,7.20e-02,
189,9.09e+00,7.20e-02,
190,9.08e+00,7.20e-02,
191,9.08e+00,7.20e-02,
192,9.08e+00,7.20e-02,
193,9.08e+00,7.20e-02,
194,9.08e+00,7.20e-02,
195,9.08e+00,7.20e-02,
196,9.08e+00,7.20e-02,
197,9.08e+00,7.20e-02,
198,9.08e+00,7.20e-02,
199,9.08e+00,7.20e-02,
200,9.08e+00,7.20e-02,
201,9.09e+00,7.20e-02,
202,9.08e+00,7.20e-02,
203,9.08e+00,7.20e-02,
204,9.08e+00,7.20e-02,
205,9.08e+00,7.20e-02,
206,9.08e+00,7.20e-02,
207,9.08e+00,7.20e-02,
208,9.08e+00,7.20e-02,
209,9.08e+00,7.20e-02,
210,9.08e+00,7.20e-02,
211,9.08e+00,7.20e-02,
212,9.08e+00,7.20e-02,
213,9.08e+00,7.20e-02,
214,9.08e+00,7.20e-02,
215,9.08e+00,7.20e-02,
216,9.08e+00,7.20e-02,
217,9.08e+00,7.20e-02,
218,9.08e+00,7.20e-02,
219,9.08e+00,7.20e-02,
220,9.08e+00,7.20e-02,
221,9.08e+00,7.20e-02,
222,9.08e+00,7.20e-02,
223,9.08e+00,7.20e-02,
224,9.08e+00,7.20e-02,
225,9.08e+00,7.20e-02,
226,9.07e+00,7.20e-02,
227,9.08e+00,7.20e-02,
228,9.08e+00,7.20e-02,
229,9.08e+00,7.20e-02,
230,9.08e+00,7.20e-02,
231,9.08e+00,7.20e-02,
232,9.07e+00,7.20e-02,
233,9.08e+00,7.20e-02,
234,9.08e+00,7.20e-02,
235,9.08e+00,7.20e-02,
236,9.08e+00,7.20e-02,
237,9.08e+00,7.20e-02,
238,9.08e+00,7.20e-02,
239,9.08e+00,7.20e-02,
240,9.07e+00,7.20e-02,
241,9.08e+00,6.40e-02,
242,9.08e+00,7.20e-02,
243,9.08e+00,7.20e-02,
244,9.07e+00,7.20e-02,
245,9.08e+00,6.40e-02,
246,9.07e+00,7.20e-02,
247,9.08e+00,7.20e-02,
248,9.07e+00,6.40e-02,
249,9.08e+00,6.40e-02,
250,9.07e+00,6.40e-02,
251,9.07e+00,6.40e-02,
252,9.07e+00,7.20e-02,
253,9.08e+00,6.40e-02,
254,9.07e+00,6.40e-02,
255,9.08e+00,6.40e-02,
256,9.07e+00,7.20e-02,
257,9.08e+00,6.40e-02,
258,9.07e+00,6.40e-02,
259,9.07e+00,6.40e-02,
260,9.08e+00,6.40e-02,
261,9.08e+00,6.40e-02,
262,9.07e+00,6.40e-02,
263,9.07e+00,6.40e-02,
264,9.07e+00,6.40e-02,
265,9.08e+00,6.40e-02,
266,9.07e+00,6.40e-02,
267,9.07e+00,6.40e-02,
268,9.07e+00,6.40e-02,
269,9.07e+00,6.40e-02,
270,9.07e+00,6.40e-02,
271,9.07e+00,6.40e-02,
272,9.07e+00,6.40e-02,
273,9.07e+00,6.40e-02,
274,9.07e+00,6.40e-02,
275,9.07e+00,6.40e-02,
276,9.07e+00,6.40e-02,
277,9.07e+00,6.40e-02,
278,9.07e+00,6.40e-02,
279,9.07e+00,6.40e-02,
280,9.07e+00,6.40e-02,
281,9.07e+00,6.40e-02,
282,9.07e+00,6.40e-02,
283,9.07e+00,6.40e-02,
284,9.06e+00,6.40e-02,
285,9.07e+00,6.40e-02,
286,9.07e+00,6.40e-02,
287,9.07e+00,6.40e-02,
288,9.07e+00,6.40e-02,
289,9.07e+00,6.40e-02,
290,9.07e+00,6.40e-02,
291,9.07e+00,5.60e-02,
292,9.07e+00,6.40e-02,
293,9.07e+00,5.60e-02,
294,9.07e+00,6.40e-02,
295,9.07e+00,6.40e-02,
296,9.07e+00,6.40e-02,
297,9.07e+00,5.60e-02,
298,9.06e+00,6.40e-02,
299,9.07e+00,6.40e-02,
300,9.06e+00,6.40e-02,
301,9.07e+00,6.40e-02,
302,9.07e+00,5.60e-02,
303,9.07e+00,6.40e-02,
304,9.07e+00,6.40e-02,
305,9.07e+00,5.60e-02,
306,9.06e+00,5.60e-02,
307,9.07e+00,5.60e-02,
308,9.06e+00,6.40e-02,
309,9.07e+00,5.60e-02,
310,9.06e+00,5.60e-02,
311,9.07e+00,5.60e-02,
312,9.06e+00,6.40e-02,
313,9.07e+00,5.60e-02,
314,9.06e+00,5.60e-02,
315,9.06e+00,5.60e-02,
316,9.06e+00,5.60e-02,
317,9.07e+00,5.60e-02,
318,9.06e+00,5.60e-02,
319,9.06e+00,5.60e-02,
320,9.06e+00,5.60e-02,
321,9.07e+00,5.60e-02,
322,9.06e+00,5.60e-02,
323,9.06e+00,5.60e-02,
324,9.06e+00,5.60e-02,
325,9.06e+00,5.60e-02,
326,9.06e+00,5.60e-02,
327,9.06e+00,5.60e-02,
328,9.06e+00,5.60e-02,
329,9.07e+00,5.60e-02,
330,9.06e+00,5.60e-02,
331,9.06e+00,5.60e-02,
332,9.06e+00,5.60e-02,
333,9.06e+00,5.60e-02,
334,9.06e+00,5.60e-02,
335,9.06e+00,5.60e-02,
336,9.06e+00,5.60e-02,
337,9.06e+00,5.60e-02,
338,9.06e+00,5.60e-02,
339,9.06e+00,5.60e-02,
340,9.06e+00,5.60e-02,
341,9.06e+00,5.60e-02,
342,9.06e+00,5.60e-02,
343,9.06e+00,5.60e-02,
344,9.06e+00,5.60e-02,
345,9.06e+00,5.60e-02,
346,9.06e+00,5.60e-02,
347,9.06e+00,4.80e-02,
348,9.06e+00,5.60e-02,
349,9.06e+00,4.80e-02,
350,9.06e+00,5.60e-02,
351,9.06e+00,5.60e-02,
352,9.06e+00,4.80e-02,
353,9.06e+00,4.80e-02,
354,9.06e+00,4.80e-02,
355,9.06e+00,4.80e-02,
356,9.06e+00,4.80e-02,
357,9.06e+00,4.80e-02,
358,9.06e+00,4.80e-02,
359,9.06e+00,4.80e-02,
360,9.06e+00,4.80e-02,
361,9.06e+00,4.80e-02,
362,9.06e+00,4.80e-02,
363,9.06e+00,4.80e-02,
364,9.06e+00,4.80e-02,
365,9.06e+00,4.80e-02,
366,9.06e+00,4.80e-02,
367,9.06e+00,4.80e-02,
368,9.06e+00,4.80e-02,
369,9.06e+00,4.80e-02,
370,9.06e+00,4.80e-02,
371,9.06e+00,4.80e-02,
372,9.06e+00,4.80e-02,
373,9.06e+00,4.80e-02,
374,9.06e+00,4.80e-02,
375,9.06e+00,4.80e-02,
376,9.06e+00,4.80e-02,
377,9.06e+00,4.80e-02,
378,9.06e+00,4.80e-02,
379,9.06e+00,4.80e-02,
380,9.06e+00,4.80e-02,
381,9.06e+00,4.80e-02,
382,9.06e+00,4.80e-02,
383,9.06e+00,4.80e-02,
384,9.05e+00,4.80e-02,
385,9.06e+00,4.80e-02,
386,9.06e+00,4.80e-02,
387,9.05e+00,4.00e-02,
388,9.06e+00,4.80e-02,
389,9.06e+00,4.00e-02,
390,9.06e+00,4.00e-02,
391,9.06e+00,4.80e-02,
392,9.06e+00,4.80e-02,
393,9.06e+00,4.00e-02,
394,9.05e+00,4.80e-02,
395,9.05e+00,4.80e-02,
396,9.05e+00,4.80e-02,
397,9.06e+00,4.00e-02,
398,9.05e+00,4.00e-02,
399,9.05e+00,4.00e-02,
400,9.05e+00,4.80e-02,
401,9.06e+00,4.00e-02,
402,9.05e+00,4.00e-02,
403,9.05e+00,4.00e-02,
404,9.05e+00,4.00e-02,
405,9.06e+00,4.00e-02,
406,9.05e+00,4.00e-02,
407,9.05e+00,4.00e-02,
408,9.05e+00,4.00e-02,
409,9.05e+00,4.00e-02,
410,9.05e+00,4.00e-02,
411,9.05e+00,4.00e-02,
412,9.05e+00,4.00e-02,
413,9.06e+00,4.00e-02,
414,9.05e+00,4.00e-02,
415,9.05e+00,4.00e-02,
416,9.05e+00,4.00e-02,
417,9.05e+00,4.00e-02,
418,9.05e+00,4.00e-02,
419,9.05e+00,4.00e-02,
420,9.05e+00,4.00e-02,
421,9.05e+00,4.00e-02,
422,9.05e+00,4.00e-02,
423,9.05e+00,4.00e-02,
424,9.05e+00,4.00e-02,
425,9.05e+00,4.00e-02,
426,9.05e+00,4.00e-02,
427,9.05e+00,2.40e-02,
428,9.05e+00,4.00e-02,
429,9.05e+00,4.00e-02,
430,9.05e+00,4.00e-02,
431,9.05e+00,4.00e-02,
432,9.04e+00,4.00e-02,
433,9.05e+00,2.40e-02,
434,9.05e+00,2.40e-02,
435,9.05e+00,4.00e-02,
436,9.05e+00,4.00e-02,
437,9.05e+00,2.40e-02,
438,9.05e+00,2.40e-02,
439,9.05e+00,4.00e-02,
440,9.04e+00,2.40e-02,
441,9.05e+00,2.40e-02,
442,9.04e+00,2.40e-02,
443,9.04e+00,2.40e-02,
444,9.04e+00,2.40e-02,
445,9.05e+00,2.40e-02,
446,9.04e+00,2.40e-02,
447,9.04e+00,2.40e-02,
448,9.04e+00,4.00e-02,
449,9.05e+00,2.40e-02,
450,9.04e+00,2.40e-02,
451,9.04e+00,2.40e-02,
452,9.04e+00,2.40e-02,
453,9.04e+00,2.40e-02,
454,9.04e+00,2.40e-02,
455,9.05e+00,2.40e-02,
456,9.04e+00,2.40e-02,
457,9.04e+00,2.40e-02,
458,9.04e+00,2.40e-02,
459,9.04e+00,2.40e-02,
460,9.04e+00,2.40e-02,
461,9.05e+00,2.40e-02,
462,9.04e+00,2.40e-02,
463,9.04e+00,2.40e-02,
464,9.04e+00,2.40e-02,
465,9.05e+00,2.40e-02,
466,9.04e+00,2.40e-02,
467,9.04e+00,2.40e-02,
468,9.04e+00,2.40e-02,
469,9.04e+00,2.40e-02,
470,9.04e+00,2.40e-02,
471,9.04e+00,2.40e-02,
472,9.04e+00,2.40e-02,
473,9.04e+00,2.40e-02,
474,9.04e+00,2.40e-02,
475,9.04e+00,2.40e-02,
476,9.04e+00,2.40e-02,
477,9.04e+00,2.40e-02,
478,9.04e+00,2.40e-02,
479,9.04e+00,2.40e-02,
480,9.04e+00,2.40e-02,
481,9.04e+00,2.40e-02,
482,9.04e+00,2.40e-02,
483,9.04e+00,1.60e-02,
484,9.04e+00,2.40e-02,
485,9.04e+00,2.40e-02,
486,9.04e+00,2.40e-02,
487,9.04e+00,2.40e-02,
488,9.04e+00,2.40e-02,
489,9.04e+00,1.60e-02,
490,9.04e+00,2.40e-02,
491,9.03e+00,1.60e-02,
492,9.04e+00,2.40e-02,
493,9.04e+00,2.40e-02,
494,9.04e+00,1.60e-02,
495,9.03e+00,2.40e-02,
496,9.03e+00,1.60e-02,
497,9.04e+00,2.40e-02,
498,9.04e+00,2.40e-02,
499,9.04e+00,1.60e-02,
500,9.03e+00,2.40e-02,
501,9.04e+00,1.60e-02,
502,9.03e+00,1.60e-02,
503,9.04e+00,1.60e-02,
504,9.03e+00,2.40e-02,
505,9.04e+00,1.60e-02,
506,9.03e+00,1.60e-02,
507,9.04e+00,2.40e-02,
508,9.03e+00,1.60e-02,
509,9.04e+00,1.60e-02,
510,9.03e+00,2.40e-02,
511,9.04e+00,2.40e-02,
512,9.03e+00,1.60e-02,
513,9.04e+00,1.60e-02,
514,9.03e+00,1.60e-02,
515,9.03e+00,1.60e-02,
516,9.03e+00,2.40e-02,
517,9.04e+00,1.60e-02,
518,9.03e+00,1.60e-02,
519,9.04e+00,1.60e-02,
520,9.03e+00,1.60e-02,
521,9.04e+00,1.60e-02,
522,9.03e+00,2.40e-02,
523,9.03e+00,1.60e-02,
524,9.03e+00,1.60e-02,
525,9.04e+00,1.60e-02,
526,9.03e+00,1.60e-02,
527,9.03e+00,2.40e-02,
528,9.03e+00,1.60e-02,
529,9.04e+00,1.60e-02,
530,9.03e+00,1.60e-02,
531,9.03e+00,1.60e-02,
532,9.03e+00,2.40e-02,
533,9.04e+00,1.60e-02,
534,9.03e+00,1.60e-02,
535,9.03e+00,1.60e-02,
536,9.04e+00,1.60e-02,
537,9.04e+00,1.60e-02,
538,9.03e+00,1.60e-02,
539,9.03e+00,1.60e-02,
540,9.03e+00,1.60e-02,
541,9.04e+00,1.60e-02,
542,9.03e+00,1.60e-02,
543,9.03e+00,2.40e-02,
544,9.03e+00,1.60e-02,
545,9.04e+00,1.60e-02,
546,9.03e+00,1.60e-02,
547,9.03e+00,1.60e-02,
548,9.03e+00,1.60e-02,
549,9.04e+00,1.60e-02,
550,9.03e+00,1.60e-02,
551,9.03e+00,1.60e-02,
552,9.03e+00,1.60e-02,
553,9.04e+00,1.60e-02,
554,9.03e+00,1.60e-02,
555,9.03e+00,1.60e-02,
556,9.03e+00,1.60e-02,
557,9.03e+00,1.60e-02,
558,9.03e+00,1.60e-02,
559,9.03e+00,1.60e-02,
560,9.03e+00,1.60e-02,
561,9.04e+00,1.60e-02,
562,9.03e+00,1.60e-02,
563,9.03e+00,1.60e-02,
564,9.03e+00,1.60e-02,
565,9.03e+00,1.60e-02,
566,9.03e+00,1.60e-02,
567,9.03e+00,1.60e-02,
568,9.03e+00,1.60e-02,
569,9.04e+00,1.60e-02,
570,9.03e+00,1.60e-02,
571,9.03e+00,1.60e-02,
572,9.03e+00,1.60e-02,
573,9.03e+00,1.60e-02,
574,9.03e+00,1.60e-02,
575,9.03e+00,1.60e-02,
576,9.03e+00,1.60e-02,
577,9.03e+00,1.60e-02,
578,9.03e+00,1.60e-02,
579,9.03e+00,1.60e-02,
580,9.03e+00,1.60e-02,
581,9.04e+00,1.60e-02,
582,9.03e+00,1.60e-02,
583,9.03e+00,1.60e-02,
584,9.03e+00,1.60e-02,
585,9.04e+00,1.60e-02,
586,9.03e+00,1.60e-02,
587,9.03e+00,1.60e-02,
588,9.03e+00,1.60e-02,
589,9.03e+00,1.60e-02,
590,9.03e+00,1.60e-02,
591,9.03e+00,1.60e-02,
592,9.03e+00,1.60e-02,
593,9.03e+00,1.60e-02,
594,9.03e+00,1.60e-02,
595,9.03e+00,1.60e-02,
596,9.03e+00,1.60e-02,
597,9.03e+00,1.60e-02,
598,9.03e+00,1.60e-02,
599,9.03e+00,1.60e-02,
600,9.03e+00,1.60e-02,
601,9.03e+00,1.60e-02,
602,9.03e+00,1.60e-02,
603,9.03e+00,1.60e-02,
604,9.03e+00,1.60e-02,
605,9.03e+00,1.60e-02,
606,9.03e+00,1.60e-02,
607,9.03e+00,1.60e-02,
608,9.03e+00,1.60e-02,
609,9.03e+00,1.60e-02,
610,9.03e+00,1.60e-02,
611,9.03e+00,1.60e-02,
612,9.03e+00,1.60e-02,
613,9.03e+00,1.60e-02,
614,9.03e+00,1.60e-02,
615,9.03e+00,1.60e-02,
616,9.03e+00,1.60e-02,
617,9.03e+00,1.60e-02,
618,9.03e+00,1.60e-02,
619,9.03e+00,1.60e-02,
620,9.03e+00,1.60e-02,
621,9.03e+00,1.60e-02,
622,9.03e+00,1.60e-02,
623,9.03e+00,1.60e-02,
624,9.03e+00,1.60e-02,
625,9.04e+00,1.60e-02,
626,9.03e+00,1.60e-02,
627,9.03e+00,1.60e-02,
628,9.03e+00,1.60e-02,
629,9.03e+00,1.60e-02,
630,9.03e+00,1.60e-02,
631,9.03e+00,1.60e-02,
632,9.03e+00,1.60e-02,
633,9.03e+00,1.60e-02,
634,9.03e+00,1.60e-02,
635,9.03e+00,1.60e-02,
636,9.03e+00,1.60e-02,
637,9.03e+00,1.60e-02,
638,9.03e+00,1.60e-02,
639,9.03e+00,1.60e-02,
640,9.03e+00,1.60e-02,
641,9.03e+00,1.60e-02,
642,9.03e+00,1.60e-02,
643,9.03e+00,1.60e-02,
644,9.03e+00,1.60e-02,
645,9.03e+00,8.00e-03,
646,9.03e+00,8.00e-03,
647,9.03e+00,1.60e-02,
648,9.03e+00,1.60e-02,
649,9.03e+00,1.60e-02,
650,9.03e+00,1.60e-02,
651,9.03e+00,1.60e-02,
652,9.03e+00,1.60e-02,
653,9.03e+00,1.60e-02,
654,9.03e+00,1.60e-02,
655,9.03e+00,1.60e-02,
656,9.02e+00,1.60e-02,
657,9.03e+00,1.60e-02,
658,9.03e+00,1.60e-02,
659,9.02e+00,1.60e-02,
660,9.03e+00,1.60e-02,
661,9.03e+00,8.00e-03,
662,9.03e+00,1.60e-02,
663,9.03e+00,1.60e-02,
664,9.02e+00,8.00e-03,
665,9.03e+00,1.60e-02,
666,9.02e+00,8.00e-03,
667,9.03e+00,8.00e-03,
668,9.03e+00,1.60e-02,
669,9.03e+00,1.60e-02,
670,9.03e+00,8.00e-03,
671,9.03e+00,8.00e-03,
672,9.02e+00,8.00e-03,
673,9.03e+00,8.00e-03,
674,9.02e+00,8.00e-03,
675,9.02e+00,8.00e-03,
676,9.02e+00,8.00e-03,
677,9.03e+00,8.00e-03,
678,9.03e+00,8.00e-03,
679,9.03e+00,8.00e-03,
680,9.02e+00,8.00e-03,
681,9.03e+00,8.00e-03,
682,9.02e+00,8.00e-03,
683,9.03e+00,8.00e-03,
684,9.02e+00,8.00e-03,
685,9.03e+00,8.00e-03,
686,9.02e+00,8.00e-03,
687,9.02e+00,8.00e-03,
688,9.02e+00,8.00e-03,
689,9.03e+00,8.00e-03,
690,9.02e+00,8.00e-03,
691,9.02e+00,8.00e-03,
692,9.02e+00,8.00e-03,
693,9.02e+00,8.00e-03,
694,9.03e+00,8.00e-03,
695,9.02e+00,8.00e-03,
696,9.02e+00,8.00e-03,
697,9.03e+00,8.00e-03,
698,9.02e+00,8.00e-03,
699,9.02e+00,8.00e-03,
700,9.02e+00,8.00e-03,
701,9.03e+00,8.00e-03,
702,9.02e+00,8.00e-03,
703,9.02e+00,8.00e-03,
704,9.02e+00,8.00e-03,
705,9.03e+00,8.00e-03,
706,9.02e+00,8.00e-03,
707,9.02e+00,8.00e-03,
708,9.02e+00,8.00e-03,
709,9.02e+00,8.00e-03,
710,9.02e+00,8.00e-03,
711,9.02e+00,8.00e-03,
712,9.02e+00,8.00e-03,
713,9.02e+00,8.00e-03,
714,9.02e+00,8.00e-03,
715,9.02e+00,8.00e-03,
716,9.02e+00,8.00e-03,
717,9.02e+00,8.00e-03,
718,9.02e+00,8.00e-03,
719,9.02e+00,8.00e-03,
720,9.02e+00,8.00e-03,
721,9.03e+00,8.00e-03,
722,9.02e+00,8.00e-03,
723,9.02e+00,8.00e-03,
724,9.02e+00,8.00e-03,
725,9.02e+00,8.00e-03,
726,9.02e+00,8.00e-03,
727,9.02e+00,8.00e-03,
728,9.02e+00,8.00e-03,
729,9.02e+00,8.00e-03,
730,9.02e+00,8.00e-03,
731,9.02e+00,8.00e-03,
732,9.02e+00,8.00e-03,
733,9.02e+00,0.00e+00,
734,9.02e+00,8.00e-03,
735,9.02e+00,8.00e-03,
736,9.02e+00,8.00e-03,
737,9.02e+00,8.00e-03,
738,9.02e+00,0.00e+00,
739,9.02e+00,0.00e+00,
740,9.02e+00,8.00e-03,
741,9.02e+00,0.00e+00,
742,9.02e+00,8.00e-03,
743,9.02e+00,8.00e-03,
744,9.02e+00,8.00e-03,
745,9.02e+00,0.00e+00,
746,9.02e+00,8.00e-03,
747,9.02e+00,0.00e+00,
748,9.02e+00,0.00e+00,
749,9.02e+00,0.00e+00,
750,9.02e+00,0.00e+00,
751,9.02e+00,8.00e-03,
752,9.02e+00,0.00e+00,
753,9.02e+00,0.00e+00,
754,9.02e+00,0.00e+00,
755,9.02e+00,0.00e+00,
756,9.02e+00,0.00e+00,
757,9.02e+00,0.00e+00,
758,9.02e+00,0.00e+00,
759,9.02e+00,0.00e+00,
760,9.02e+00,0.00e+00,
761,9.02e+00,0.00e+00,
762,9.02e+00,0.00e+00,
763,9.02e+00,0.00e+00,
764,9.02e+00,0.00e+00,
765,9.02e+00,0.00e+00,
766,9.02e+00,0.00e+00,
767,9.02e+00,0.00e+00,
768,9.02e+00,0.00e+00,
769,9.02e+00,0.00e+00,
770,9.02e+00,0.00e+00,
771,9.02e+00,0.00e+00,
772,9.02e+00,0.00e+00,
773,9.02e+00,0.00e+00,
774,9.02e+00,0.00e+00,
775,9.02e+00,0.00e+00,
776,9.02e+00,0.00e+00,
777,9.02e+00,0.00e+00,
778,9.02e+00,0.00e+00,
779,9.02e+00,0.00e+00,
780,9.02e+00,0.00e+00,
781,9.02e+00,-8.00e-03,
782,9.02e+00,-8.00e-03,
783,9.02e+00,0.00e+00,
784,9.02e+00,0.00e+00,
785,9.02e+00,0.00e+00,
786,9.02e+00,0.00e+00,
787,9.02e+00,-8.00e-03,
788,9.02e+00,-8.00e-03,
789,9.02e+00,0.00e+00,
790,9.02e+00,0.00e+00,
791,9.02e+00,0.00e+00,
792,9.02e+00,-8.00e-03,
793,9.02e+00,-8.00e-03,
794,9.01e+00,-8.00e-03,
795,9.02e+00,-8.00e-03,
796,9.01e+00,-8.00e-03,
797,9.02e+00,-8.00e-03,
798,9.01e+00,-8.00e-03,
799,9.01e+00,-8.00e-03,
800,9.01e+00,-8.00e-03,
801,9.02e+00,-8.00e-03,
802,9.01e+00,-8.00e-03,
803,9.01e+00,-8.00e-03,
804,9.01e+00,-8.00e-03,
805,9.01e+00,-8.00e-03,
806,9.01e+00,-8.00e-03,
807,9.01e+00,-8.00e-03,
808,9.01e+00,-8.00e-03,
809,9.01e+00,-8.00e-03,
810,9.01e+00,-8.00e-03,
811,9.01e+00,-8.00e-03,
812,9.01e+00,-8.00e-03,
813,9.01e+00,-8.00e-03,
814,9.01e+00,-8.00e-03,
815,9.01e+00,-8.00e-03,
816,9.01e+00,-8.00e-03,
817,9.01e+00,-8.00e-03,
818,9.01e+00,-8.00e-03,
819,9.01e+00,-8.00e-03,
820,9.01e+00,-8.00e-03,
821,9.01e+00,-8.00e-03,
822,9.01e+00,-8.00e-03,
823,9.01e+00,-8.00e-03,
824,9.01e+00,-8.00e-03,
825,9.01e+00,-8.00e-03,
826,9.01e+00,-1.60e-02,
827,9.01e+00,-8.00e-03,
828,9.01e+00,-8.00e-03,
829,9.01e+00,-8.00e-03,
830,9.01e+00,-1.60e-02,
831,9.01e+00,-8.00e-03,
832,9.00e+00,-1.60e-02,
833,9.01e+00,-1.60e-02,
834,9.01e+00,-1.60e-02,
835,9.00e+00,-1.60e-02,
836,9.00e+00,-8.00e-03,
837,9.01e+00,-1.60e-02,
838,9.00e+00,-1.60e-02,
839,9.01e+00,-1.60e-02,
840,9.00e+00,-1.60e-02,
841,9.01e+00,-1.60e-02,
842,9.00e+00,-1.60e-02,
843,9.00e+00,-1.60e-02,
844,9.00e+00,-1.60e-02,
845,9.01e+00,-1.60e-02,
846,9.00e+00,-1.60e-02,
847,9.00e+00,-1.60e-02,
848,9.00e+00,-1.60e-02,
849,9.00e+00,-1.60e-02,
850,9.00e+00,-1.60e-02,
851,9.00e+00,-1.60e-02,
852,9.00e+00,-1.60e-02,
853,9.00e+00,-1.60e-02,
854,9.00e+00,-1.60e-02,
855,9.00e+00,-1.60e-02,
856,9.00e+00,-1.60e-02,
857,9.00e+00,-1.60e-02,
858,9.00e+00,-1.60e-02,
859,9.00e+00,-2.40e-02,
860,9.00e+00,-1.60e-02,
861,9.00e+00,-1.60e-02,
862,9.00e+00,-1.60e-02,
863,9.00e+00,-1.60e-02,
864,9.00e+00,-1.60e-02,
865,9.00e+00,-1.60e-02,
866,9.00e+00,-1.60e-02,
