lab5/data/task1_7.csv

X,CH1,CH2,Start,Increment,
Sequence,Volt,Volt,-3.000000e-05,2.000000e-09
0,3.00e-03,1.16e+01,
1,1.00e-03,1.24e+01,
2,1.00e-03,1.20e+01,
3,3.00e-03,1.20e+01,
4,1.00e-03,1.20e+01,
5,1.00e-03,1.24e+01,
6,3.00e-03,1.24e+01,
7,3.00e-03,1.24e+01,
8,1.00e-03,1.24e+01,
9,3.00e-03,1.24e+01,
10,3.00e-03,1.28e+01,
11,3.00e-03,1.24e+01,
12,3.00e-03,1.24e+01,
13,1.00e-03,1.28e+01,
14,3.00e-03,1.28e+01,
15,1.00e-03,1.28e+01,
16,3.00e-03,1.28e+01,
17,3.00e-03,1.32e+01,
18,3.00e-03,1.32e+01,
19,3.00e-03,1.32e+01,
20,1.00e-03,1.32e+01,
21,3.00e-03,1.32e+01,
22,3.00e-03,1.36e+01,
23,1.00e-03,1.36e+01,
24,3.00e-03,1.32e+01,
25,3.00e-03,1.36e+01,
26,3.00e-03,1.36e+01,
27,5.00e-03,1.36e+01,
28,3.00e-03,1.36e+01,
29,1.00e-03,1.44e+01,
30,3.00e-03,1.44e+01,
31,1.00e-03,1.44e+01,
32,1.00e-03,1.44e+01,
33,3.00e-03,1.48e+01,
34,3.00e-03,1.48e+01,
35,3.00e-03,1.48e+01,
36,3.00e-03,1.48e+01,
37,1.00e-03,1.48e+01,
38,3.00e-03,1.52e+01,
39,3.00e-03,1.52e+01,
40,3.00e-03,1.52e+01,
41,1.00e-03,1.52e+01,
42,3.00e-03,1.52e+01,
43,3.00e-03,1.56e+01,
44,3.00e-03,1.56e+01,
45,1.00e-03,1.56e+01,
46,5.00e-03,1.56e+01,
47,1.00e-03,1.60e+01,
48,3.00e-03,1.60e+01,
49,3.00e-03,1.64e+01,
50,1.00e-03,1.64e+01,
51,3.00e-03,1.64e+01,
52,1.00e-03,1.60e+01,
53,1.00e-03,1.64e+01,
54,3.00e-03,1.64e+01,
55,3.00e-03,1.64e+01,
56,1.00e-03,1.68e+01,
57,1.00e-03,1.68e+01,
58,3.00e-03,1.72e+01,
59,3.00e-03,1.68e+01,
60,1.00e-03,1.68e+01,
61,1.00e-03,1.72e+01,
62,3.00e-03,1.72e+01,
63,3.00e-03,1.76e+01,
64,3.00e-03,1.76e+01,
65,3.00e-03,1.76e+01,
66,3.00e-03,1.76e+01,
67,3.00e-03,1.76e+01,
68,1.00e-03,1.80e+01,
69,1.00e-03,1.80e+01,
70,3.00e-03,1.84e+01,
71,3.00e-03,1.84e+01,
72,1.00e-03,1.84e+01,
73,1.00e-03,1.84e+01,
74,1.00e-03,1.88e+01,
75,-1.00e-03,1.88e+01,
76,1.00e-03,1.88e+01,
77,1.00e-03,1.88e+01,
78,3.00e-03,1.92e+01,
79,1.00e-03,1.92e+01,
80,1.00e-03,1.92e+01,
81,1.00e-03,1.96e+01,
82,3.00e-03,1.96e+01,
83,1.00e-03,1.96e+01,
84,1.00e-03,1.96e+01,
85,1.00e-03,2.00e+01,
86,1.00e-03,2.00e+01,
87,1.00e-03,2.00e+01,
88,3.00e-03,2.00e+01,
89,1.00e-03,2.04e+01,
90,3.00e-03,2.04e+01,
91,3.00e-03,2.04e+01,
92,1.00e-03,2.04e+01,
93,1.00e-03,2.08e+01,
94,1.00e-03,2.08e+01,
95,1.00e-03,2.08e+01,
96,1.00e-03,2.08e+01,
97,1.00e-03,2.12e+01,
98,1.00e-03,2.12e+01,
99,1.00e-03,2.12e+01,
100,1.00e-03,2.12e+01,
101,1.00e-03,2.16e+01,
102,3.00e-03,2.16e+01,
103,1.00e-03,2.16e+01,
104,3.00e-03,2.16e+01,
105,1.00e-03,2.24e+01,
106,3.00e-03,2.24e+01,
107,1.00e-03,2.24e+01,
108,1.00e-03,2.24e+01,
109,1.00e-03,2.28e+01,
110,3.00e-03,2.28e+01,
111,-1.00e-03,2.28e+01,
112,1.00e-03,2.28e+01,
113,1.00e-03,2.32e+01,
114,1.00e-03,2.32e+01,
115,1.00e-03,2.32e+01,
116,1.00e-03,2.32e+01,
117,-1.00e-03,2.36e+01,
118,1.00e-03,2.36e+01,
119,1.00e-03,2.36e+01,
120,-1.00e-03,2.36e+01,
121,-1.00e-03,2.40e+01,
122,1.00e-03,2.40e+01,
123,1.00e-03,2.40e+01,
124,1.00e-03,2.40e+01,
125,-1.00e-03,2.40e+01,
126,1.00e-03,2.44e+01,
127,1.00e-03,2.40e+01,
128,-1.00e-03,2.44e+01,
129,1.00e-03,2.44e+01,
130,3.00e-03,2.44e+01,
131,1.00e-03,2.44e+01,
132,-1.00e-03,2.44e+01,
133,-1.00e-03,2.48e+01,
134,1.00e-03,2.48e+01,
135,-1.00e-03,2.48e+01,
136,-1.00e-03,2.48e+01,
137,-1.00e-03,2.52e+01,
138,1.00e-03,2.48e+01,
139,-1.00e-03,2.48e+01,
140,1.00e-03,2.48e+01,
141,-3.00e-03,2.52e+01,
142,3.00e-03,2.52e+01,
143,-1.00e-03,2.52e+01,
144,-1.00e-03,2.52e+01,
145,1.00e-03,2.56e+01,
146,1.00e-03,2.56e+01,
147,1.00e-03,2.52e+01,
148,-1.00e-03,2.56e+01,
149,-1.00e-03,2.56e+01,
150,-1.00e-03,2.56e+01,
151,-1.00e-03,2.56e+01,
152,-3.00e-03,2.56e+01,
153,-1.00e-03,2.56e+01,
154,1.00e-03,2.56e+01,
155,-1.00e-03,2.56e+01,
156,-1.00e-03,2.56e+01,
157,-1.00e-03,2.60e+01,
158,-1.00e-03,2.60e+01,
159,-3.00e-03,2.60e+01,
160,-1.00e-03,2.60e+01,
161,-1.00e-03,2.60e+01,
162,-1.00e-03,2.60e+01,
163,-1.00e-03,2.60e+01,
164,-1.00e-03,2.60e+01,
165,1.00e-03,2.60e+01,
166,-1.00e-03,2.60e+01,
167,-1.00e-03,2.60e+01,
168,1.00e-03,2.60e+01,
169,-1.00e-03,2.60e+01,
170,-1.00e-03,2.60e+01,
171,-1.00e-03,2.60e+01,
172,-1.00e-03,2.60e+01,
173,-3.00e-03,2.60e+01,
174,-1.00e-03,2.60e+01,
175,-1.00e-03,2.60e+01,
176,-1.00e-03,2.60e+01,
177,-1.00e-03,2.60e+01,
178,-1.00e-03,2.60e+01,
179,-1.00e-03,2.60e+01,
180,-3.00e-03,2.60e+01,
181,-3.00e-03,2.60e+01,
182,-1.00e-03,2.60e+01,
183,-1.00e-03,2.60e+01,
184,-3.00e-03,2.56e+01,
185,-1.00e-03,2.60e+01,
186,-1.00e-03,2.56e+01,
187,-1.00e-03,2.56e+01,
188,-1.00e-03,2.60e+01,
189,-1.00e-03,2.56e+01,
190,-3.00e-03,2.56e+01,
191,-5.00e-03,2.56e+01,
192,-3.00e-03,2.56e+01,
193,-3.00e-03,2.56e+01,
194,1.00e-03,2.56e+01,
195,-3.00e-03,2.56e+01,
196,-1.00e-03,2.56e+01,
197,-5.00e-03,2.52e+01,
198,-1.00e-03,2.52e+01,
199,-1.00e-03,2.52e+01,
200,-1.00e-03,2.52e+01,
201,-1.00e-03,2.52e+01,
202,1.00e-03,2.52e+01,
203,-1.00e-03,2.52e+01,
204,-1.00e-03,2.48e+01,
205,-3.00e-03,2.48e+01,
206,-1.00e-03,2.48e+01,
207,-3.00e-03,2.48e+01,
208,-3.00e-03,2.48e+01,
209,-3.00e-03,2.48e+01,
210,-1.00e-03,2.48e+01,
211,1.00e-03,2.44e+01,
212,-1.00e-03,2.44e+01,
213,-3.00e-03,2.44e+01,
214,-1.00e-03,2.44e+01,
215,-3.00e-03,2.44e+01,
216,-3.00e-03,2.40e+01,
217,-3.00e-03,2.44e+01,
218,1.00e-03,2.40e+01,
219,-1.00e-03,2.40e+01,
220,-3.00e-03,2.40e+01,
221,-3.00e-03,2.40e+01,
222,-1.00e-03,2.36e+01,
223,-3.00e-03,2.36e+01,
224,-1.00e-03,2.36e+01,
225,-1.00e-03,2.36e+01,
226,-1.00e-03,2.36e+01,
227,-1.00e-03,2.32e+01,
228,-1.00e-03,2.32e+01,
229,-5.00e-03,2.32e+01,
230,-3.00e-03,2.32e+01,
231,-3.00e-03,2.28e+01,
232,-1.00e-03,2.28e+01,
233,-1.00e-03,2.32e+01,
234,-1.00e-03,2.28e+01,
235,-3.00e-03,2.28e+01,
236,-1.00e-03,2.24e+01,
237,-3.00e-03,2.24e+01,
238,-1.00e-03,2.24e+01,
239,-1.00e-03,2.24e+01,
240,-1.00e-03,2.16e+01,
241,-1.00e-03,2.16e+01,
242,-1.00e-03,2.16e+01,
243,-3.00e-03,2.16e+01,
244,-1.00e-03,2.12e+01,
245,-3.00e-03,2.12e+01,
246,-1.00e-03,2.12e+01,
247,-3.00e-03,2.12e+01,
248,-1.00e-03,2.08e+01,
249,-1.00e-03,2.08e+01,
250,-1.00e-03,2.08e+01,
251,-1.00e-03,2.08e+01,
252,-3.00e-03,2.04e+01,
253,-3.00e-03,2.04e+01,
254,-1.00e-03,2.04e+01,
255,-3.00e-03,2.04e+01,
256,-3.00e-03,2.00e+01,
257,-1.00e-03,2.00e+01,
258,-3.00e-03,2.00e+01,
259,-3.00e-03,1.96e+01,
260,-3.00e-03,1.96e+01,
261,-3.00e-03,1.96e+01,
262,-1.00e-03,1.96e+01,
263,-1.00e-03,1.96e+01,
264,-3.00e-03,1.92e+01,
265,-3.00e-03,1.92e+01,
266,-1.00e-03,1.92e+01,
267,-1.00e-03,1.88e+01,
268,-3.00e-03,1.88e+01,
269,-3.00e-03,1.88e+01,
270,-1.00e-03,1.88e+01,
271,-3.00e-03,1.88e+01,
272,-3.00e-03,1.84e+01,
273,-3.00e-03,1.84e+01,
274,-1.00e-03,1.84e+01,
275,-1.00e-03,1.84e+01,
276,-3.00e-03,1.80e+01,
277,-3.00e-03,1.80e+01,
278,-3.00e-03,1.80e+01,
279,-1.00e-03,1.76e+01,
280,-3.00e-03,1.76e+01,
281,-1.00e-03,1.76e+01,
282,-1.00e-03,1.76e+01,
283,-1.00e-03,1.72e+01,
284,1.00e-03,1.72e+01,
285,-1.00e-03,1.72e+01,
286,-1.00e-03,1.72e+01,
287,-1.00e-03,1.68e+01,
288,-3.00e-03,1.68e+01,
289,-1.00e-03,1.72e+01,
290,-1.00e-03,1.68e+01,
291,-1.00e-03,1.68e+01,
292,-3.00e-03,1.64e+01,
293,-3.00e-03,1.64e+01,
294,-3.00e-03,1.64e+01,
295,-3.00e-03,1.64e+01,
296,-1.00e-03,1.60e+01,
297,-3.00e-03,1.64e+01,
298,-1.00e-03,1.60e+01,
299,-1.00e-03,1.60e+01,
300,-1.00e-03,1.56e+01,
301,-3.00e-03,1.60e+01,
302,-1.00e-03,1.56e+01,
303,-1.00e-03,1.56e+01,
304,-3.00e-03,1.56e+01,
305,-3.00e-03,1.56e+01,
306,1.00e-03,1.56e+01,
307,-1.00e-03,1.52e+01,
308,-1.00e-03,1.52e+01,
309,-5.00e-03,1.52e+01,
310,1.00e-03,1.52e+01,
311,-1.00e-03,1.48e+01,
312,-1.00e-03,1.48e+01,
313,-1.00e-03,1.52e+01,
314,1.00e-03,1.48e+01,
315,-1.00e-03,1.44e+01,
316,1.00e-03,1.44e+01,
317,-3.00e-03,1.44e+01,
318,1.00e-03,1.44e+01,
319,-1.00e-03,1.44e+01,
320,-3.00e-03,1.36e+01,
321,1.00e-03,1.44e+01,
322,1.00e-03,1.44e+01,
323,-1.00e-03,1.36e+01,
324,-1.00e-03,1.36e+01,
325,-3.00e-03,1.36e+01,
326,-1.00e-03,1.36e+01,
327,-3.00e-03,1.36e+01,
328,1.00e-03,1.32e+01,
329,-1.00e-03,1.36e+01,
330,-1.00e-03,1.32e+01,
331,1.00e-03,1.32e+01,
332,-1.00e-03,1.28e+01,
333,-1.00e-03,1.32e+01,
334,-1.00e-03,1.32e+01,
335,-1.00e-03,1.28e+01,
336,-1.00e-03,1.28e+01,
337,-1.00e-03,1.32e+01,
338,1.00e-03,1.28e+01,
339,1.00e-03,1.28e+01,
340,-1.00e-03,1.24e+01,
341,-1.00e-03,1.28e+01,
342,-1.00e-03,1.28e+01,
343,-1.00e-03,1.24e+01,
344,-1.00e-03,1.24e+01,
345,-1.00e-03,1.24e+01,
346,1.00e-03,1.28e+01,
347,1.00e-03,1.24e+01,
348,1.00e-03,1.24e+01,
349,-1.00e-03,1.24e+01,
350,1.00e-03,1.24e+01,
351,1.00e-03,1.24e+01,
352,1.00e-03,1.20e+01,
353,1.00e-03,1.20e+01,
354,1.00e-03,1.24e+01,
355,1.00e-03,1.24e+01,
356,-1.00e-03,1.16e+01,
357,-1.00e-03,1.24e+01,
358,-1.00e-03,1.20e+01,
359,1.00e-03,1.20e+01,
360,-1.00e-03,1.20e+01,
361,1.00e-03,1.20e+01,
362,1.00e-03,1.20e+01,
363,-1.00e-03,1.16e+01,
364,1.00e-03,1.16e+01,
365,-1.00e-03,1.16e+01,
366,1.00e-03,1.20e+01,
367,1.00e-03,1.16e+01,
368,1.00e-03,1.16e+01,
369,-1.00e-03,1.20e+01,
370,1.00e-03,1.20e+01,
371,1.00e-03,1.16e+01,
372,-1.00e-03,1.16e+01,
373,-1.00e-03,1.16e+01,
374,3.00e-03,1.16e+01,
375,1.00e-03,1.16e+01,
376,3.00e-03,1.16e+01,
377,1.00e-03,1.16e+01,
378,1.00e-03,1.16e+01,
379,1.00e-03,1.16e+01,
380,1.00e-03,1.16e+01,
381,1.00e-03,1.16e+01,
382,1.00e-03,1.16e+01,
383,1.00e-03,1.16e+01,
384,-1.00e-03,1.16e+01,
385,1.00e-03,1.16e+01,
386,3.00e-03,1.16e+01,
387,1.00e-03,1.16e+01,
388,1.00e-03,1.16e+01,
389,1.00e-03,1.16e+01,
390,3.00e-03,1.16e+01,
391,1.00e-03,1.16e+01,
392,1.00e-03,1.12e+01,
393,3.00e-03,1.16e+01,
394,5.00e-03,1.16e+01,
395,3.00e-03,1.16e+01,
396,1.00e-03,1.16e+01,
397,1.00e-03,1.16e+01,
398,3.00e-03,1.16e+01,
399,1.00e-03,1.16e+01,
400,1.00e-03,1.12e+01,
401,1.00e-03,1.16e+01,
402,3.00e-03,1.16e+01,
403,3.00e-03,1.16e+01,
404,1.00e-03,1.16e+01,
405,-1.00e-03,1.16e+01,
406,1.00e-03,1.16e+01,
407,1.00e-03,1.16e+01,
408,1.00e-03,1.16e+01,
409,3.00e-03,1.20e+01,
410,3.00e-03,1.20e+01,
411,3.00e-03,1.20e+01,
412,1.00e-03,1.16e+01,
413,-1.00e-03,1.20e+01,
414,3.00e-03,1.20e+01,
415,3.00e-03,1.16e+01,
416,1.00e-03,1.16e+01,
417,3.00e-03,1.20e+01,
418,3.00e-03,1.20e+01,
419,3.00e-03,1.20e+01,
420,3.00e-03,1.20e+01,
421,1.00e-03,1.20e+01,
422,3.00e-03,1.20e+01,
423,1.00e-03,1.20e+01,
424,1.00e-03,1.20e+01,
425,3.00e-03,1.24e+01,
426,3.00e-03,1.24e+01,
427,3.00e-03,1.24e+01,
428,1.00e-03,1.20e+01,
429,1.00e-03,1.24e+01,
430,1.00e-03,1.24e+01,
431,1.00e-03,1.24e+01,
432,3.00e-03,1.24e+01,
433,1.00e-03,1.28e+01,
434,1.00e-03,1.28e+01,
435,3.00e-03,1.24e+01,
436,1.00e-03,1.24e+01,
437,1.00e-03,1.28e+01,
438,3.00e-03,1.28e+01,
439,3.00e-03,1.28e+01,
440,1.00e-03,1.28e+01,
441,3.00e-03,1.32e+01,
442,3.00e-03,1.28e+01,
443,3.00e-03,1.32e+01,
444,1.00e-03,1.28e+01,
445,3.00e-03,1.32e+01,
446,3.00e-03,1.32e+01,
447,3.00e-03,1.32e+01,
448,3.00e-03,1.32e+01,
449,3.00e-03,1.36e+01,
450,3.00e-03,1.36e+01,
451,3.00e-03,1.36e+01,
452,3.00e-03,1.32e+01,
453,1.00e-03,1.36e+01,
454,3.00e-03,1.36e+01,
455,3.00e-03,1.44e+01,
456,1.00e-03,1.36e+01,
457,3.00e-03,1.44e+01,
458,3.00e-03,1.44e+01,
459,5.00e-03,1.44e+01,
460,3.00e-03,1.44e+01,
461,1.00e-03,1.44e+01,
462,5.00e-03,1.48e+01,
463,1.00e-03,1.48e+01,
464,1.00e-03,1.44e+01,
465,3.00e-03,1.48e+01,
466,3.00e-03,1.48e+01,
467,3.00e-03,1.48e+01,
468,3.00e-03,1.48e+01,
469,1.00e-03,1.52e+01,
470,3.00e-03,1.52e+01,
471,3.00e-03,1.52e+01,
472,3.00e-03,1.52e+01,
473,1.00e-03,1.56e+01,
474,5.00e-03,1.56e+01,
475,3.00e-03,1.56e+01,
476,3.00e-03,1.56e+01,
477,1.00e-03,1.60e+01,
478,3.00e-03,1.60e+01,
479,3.00e-03,1.60e+01,
480,3.00e-03,1.60e+01,
481,3.00e-03,1.64e+01,
482,3.00e-03,1.64e+01,
483,3.00e-03,1.64e+01,
484,1.00e-03,1.64e+01,
485,1.00e-03,1.64e+01,
486,3.00e-03,1.64e+01,
487,3.00e-03,1.68e+01,
488,3.00e-03,1.68e+01,
489,1.00e-03,1.68e+01,
490,3.00e-03,1.68e+01,
491,3.00e-03,1.68e+01,
492,3.00e-03,1.68e+01,
493,1.00e-03,1.72e+01,
494,5.00e-03,1.72e+01,
495,1.00e-03,1.72e+01,
496,3.00e-03,1.72e+01,
497,3.00e-03,1.76e+01,
498,3.00e-03,1.76e+01,
499,3.00e-03,1.76e+01,
500,3.00e-03,1.76e+01,
501,3.00e-03,1.80e+01,
502,3.00e-03,1.80e+01,
503,1.00e-03,1.80e+01,
504,1.00e-03,1.80e+01,
505,1.00e-03,1.84e+01,
506,3.00e-03,1.84e+01,
507,1.00e-03,1.84e+01,
508,1.00e-03,1.84e+01,
509,1.00e-03,1.88e+01,
510,3.00e-03,1.88e+01,
511,3.00e-03,1.88e+01,
512,3.00e-03,1.88e+01,
513,3.00e-03,1.92e+01,
514,1.00e-03,1.92e+01,
515,1.00e-03,1.92e+01,
516,3.00e-03,1.92e+01,
517,3.00e-03,1.96e+01,
518,3.00e-03,1.96e+01,
519,1.00e-03,1.96e+01,
520,1.00e-03,1.96e+01,
521,1.00e-03,2.00e+01,
522,3.00e-03,2.00e+01,
523,1.00e-03,2.00e+01,
524,1.00e-03,2.00e+01,
525,-1.00e-03,2.00e+01,
526,3.00e-03,2.04e+01,
527,1.00e-03,2.04e+01,
528,3.00e-03,2.04e+01,
529,3.00e-03,2.08e+01,
530,3.00e-03,2.08e+01,
531,1.00e-03,2.08e+01,
532,1.00e-03,2.08e+01,
533,3.00e-03,2.08e+01,
534,3.00e-03,2.12e+01,
535,3.00e-03,2.12e+01,
536,1.00e-03,2.12e+01,
537,3.00e-03,2.12e+01,
538,1.00e-03,2.12e+01,
539,1.00e-03,2.12e+01,
540,1.00e-03,2.16e+01,
541,-1.00e-03,2.16e+01,
542,3.00e-03,2.16e+01,
543,3.00e-03,2.16e+01,
544,3.00e-03,2.16e+01,
545,1.00e-03,2.24e+01,
546,3.00e-03,2.24e+01,
547,1.00e-03,2.24e+01,
548,1.00e-03,2.24e+01,
549,-1.00e-03,2.28e+01,
550,1.00e-03,2.28e+01,
551,1.00e-03,2.28e+01,
552,1.00e-03,2.28e+01,
553,1.00e-03,2.28e+01,
554,1.00e-03,2.32e+01,
555,1.00e-03,2.32e+01,
556,-1.00e-03,2.32e+01,
557,-1.00e-03,2.32e+01,
558,1.00e-03,2.32e+01,
559,1.00e-03,2.32e+01,
560,1.00e-03,2.32e+01,
561,1.00e-03,2.36e+01,
562,1.00e-03,2.36e+01,
563,1.00e-03,2.36e+01,
564,-1.00e-03,2.36e+01,
565,-1.00e-03,2.36e+01,
566,1.00e-03,2.40e+01,
567,-1.00e-03,2.40e+01,
568,1.00e-03,2.40e+01,
569,1.00e-03,2.40e+01,
570,1.00e-03,2.40e+01,
571,1.00e-03,2.40e+01,
572,-1.00e-03,2.40e+01,
573,-1.00e-03,2.44e+01,
574,1.00e-03,2.44e+01,
575,1.00e-03,2.44e+01,
576,1.00e-03,2.44e+01,
577,1.00e-03,2.44e+01,
578,1.00e-03,2.44e+01,
579,1.00e-03,2.44e+01,
580,-1.00e-03,2.44e+01,
581,-1.00e-03,2.48e+01,
582,1.00e-03,2.48e+01,
583,1.00e-03,2.48e+01,
584,-1.00e-03,2.44e+01,
585,-1.00e-03,2.48e+01,
586,1.00e-03,2.48e+01,
587,3.00e-03,2.48e+01,
588,-1.00e-03,2.48e+01,
589,-1.00e-03,2.48e+01,
590,1.00e-03,2.48e+01,
591,-1.00e-03,2.48e+01,
592,-1.00e-03,2.48e+01,
593,1.00e-03,2.52e+01,
594,1.00e-03,2.48e+01,
595,-1.00e-03,2.48e+01,
596,-1.00e-03,2.48e+01,
597,-3.00e-03,2.48e+01,
598,1.00e-03,2.52e+01,
599,-1.00e-03,2.48e+01,
600,-1.00e-03,2.48e+01,
601,1.00e-03,2.52e+01,
602,1.00e-03,2.52e+01,
603,1.00e-03,2.48e+01,
604,-1.00e-03,2.48e+01,
605,-3.00e-03,2.48e+01,
606,1.00e-03,2.52e+01,
607,-1.00e-03,2.48e+01,
608,-1.00e-03,2.48e+01,
609,1.00e-03,2.48e+01,
610,1.00e-03,2.52e+01,
611,1.00e-03,2.48e+01,
612,-1.00e-03,2.48e+01,
613,-1.00e-03,2.48e+01,
614,-1.00e-03,2.48e+01,
615,-3.00e-03,2.48e+01,
616,-1.00e-03,2.48e+01,
617,-1.00e-03,2.48e+01,
618,-1.00e-03,2.48e+01,
619,1.00e-03,2.48e+01,
620,-1.00e-03,2.48e+01,
621,-3.00e-03,2.48e+01,
622,-1.00e-03,2.48e+01,
623,-1.00e-03,2.48e+01,
624,-1.00e-03,2.48e+01,
625,-1.00e-03,2.48e+01,
626,-1.00e-03,2.48e+01,
627,-1.00e-03,2.44e+01,
628,-1.00e-03,2.44e+01,
629,-3.00e-03,2.44e+01,
630,-1.00e-03,2.44e+01,
631,-1.00e-03,2.44e+01,
632,-3.00e-03,2.44e+01,
633,-3.00e-03,2.44e+01,
634,-1.00e-03,2.44e+01,
635,-1.00e-03,2.44e+01,
636,-1.00e-03,2.44e+01,
637,-3.00e-03,2.40e+01,
638,-1.00e-03,2.44e+01,
639,-1.00e-03,2.40e+01,
640,-1.00e-03,2.40e+01,
641,1.00e-03,2.40e+01,
642,-1.00e-03,2.40e+01,
643,-3.00e-03,2.40e+01,
644,-3.00e-03,2.36e+01,
645,-5.00e-03,2.40e+01,
646,-1.00e-03,2.36e+01,
647,-1.00e-03,2.36e+01,
648,-3.00e-03,2.36e+01,
649,-1.00e-03,2.36e+01,
650,-1.00e-03,2.36e+01,
651,-1.00e-03,2.36e+01,
652,-1.00e-03,2.32e+01,
653,-5.00e-03,2.32e+01,
654,-1.00e-03,2.32e+01,
655,-1.00e-03,2.32e+01,
656,-5.00e-03,2.28e+01,
657,-1.00e-03,2.32e+01,
658,-1.00e-03,2.32e+01,
659,-3.00e-03,2.28e+01,
660,-3.00e-03,2.28e+01,
661,-5.00e-03,2.28e+01,
662,-1.00e-03,2.28e+01,
663,-1.00e-03,2.24e+01,
664,-1.00e-03,2.24e+01,
665,-1.00e-03,2.24e+01,
666,-1.00e-03,2.24e+01,
667,-3.00e-03,2.24e+01,
668,-1.00e-03,2.16e+01,
669,-3.00e-03,2.16e+01,
670,-1.00e-03,2.16e+01,
671,-3.00e-03,2.16e+01,
672,-1.00e-03,2.12e+01,
673,-1.00e-03,2.16e+01,
674,-1.00e-03,2.12e+01,
675,-1.00e-03,2.12e+01,
676,-3.00e-03,2.12e+01,
677,-3.00e-03,2.12e+01,
678,-1.00e-03,2.08e+01,
679,-3.00e-03,2.08e+01,
680,-3.00e-03,2.08e+01,
681,-3.00e-03,2.08e+01,
682,-1.00e-03,2.08e+01,
683,-1.00e-03,2.08e+01,
684,-3.00e-03,2.04e+01,
685,-3.00e-03,2.04e+01,
686,-1.00e-03,2.04e+01,
687,-3.00e-03,2.00e+01,
688,-1.00e-03,2.00e+01,
689,-1.00e-03,2.00e+01,
690,-1.00e-03,2.00e+01,
691,-1.00e-03,1.96e+01,
692,-3.00e-03,1.96e+01,
693,-3.00e-03,1.96e+01,
694,-1.00e-03,1.96e+01,
695,-1.00e-03,1.92e+01,
696,-1.00e-03,1.92e+01,
697,-1.00e-03,1.92e+01,
698,-1.00e-03,1.92e+01,
699,-3.00e-03,1.92e+01,
700,-1.00e-03,1.88e+01,
701,-3.00e-03,1.88e+01,
702,-1.00e-03,1.88e+01,
703,-1.00e-03,1.88e+01,
704,-1.00e-03,1.84e+01,
705,-1.00e-03,1.88e+01,
706,-1.00e-03,1.84e+01,
707,-1.00e-03,1.84e+01,
708,-3.00e-03,1.80e+01,
709,-3.00e-03,1.80e+01,
710,-1.00e-03,1.80e+01,
711,-1.00e-03,1.80e+01,
712,-1.00e-03,1.76e+01,
713,-1.00e-03,1.80e+01,
714,-1.00e-03,1.80e+01,
715,-1.00e-03,1.76e+01,
716,-1.00e-03,1.76e+01,
717,-3.00e-03,1.76e+01,
718,-1.00e-03,1.76e+01,
719,-1.00e-03,1.72e+01,
720,-1.00e-03,1.72e+01,
721,-1.00e-03,1.72e+01,
722,-1.00e-03,1.72e+01,
723,1.00e-03,1.68e+01,
724,-1.00e-03,1.68e+01,
725,-3.00e-03,1.68e+01,
726,-1.00e-03,1.68e+01,
727,-1.00e-03,1.68e+01,
728,-1.00e-03,1.64e+01,
729,-1.00e-03,1.68e+01,
730,-1.00e-03,1.64e+01,
731,1.00e-03,1.64e+01,
732,-1.00e-03,1.60e+01,
733,-3.00e-03,1.60e+01,
734,-1.00e-03,1.60e+01,
735,-3.00e-03,1.60e+01,
736,-1.00e-03,1.56e+01,
737,1.00e-03,1.60e+01,
738,-1.00e-03,1.60e+01,
739,-1.00e-03,1.56e+01,
740,-1.00e-03,1.56e+01,
741,-1.00e-03,1.56e+01,
742,1.00e-03,1.56e+01,
743,-1.00e-03,1.56e+01,
744,-1.00e-03,1.52e+01,
745,1.00e-03,1.52e+01,
746,1.00e-03,1.52e+01,
747,1.00e-03,1.52e+01,
748,1.00e-03,1.48e+01,
749,-3.00e-03,1.52e+01,
750,-1.00e-03,1.52e+01,
751,-1.00e-03,1.48e+01,
752,-1.00e-03,1.48e+01,
753,-1.00e-03,1.48e+01,
754,1.00e-03,1.48e+01,
755,-1.00e-03,1.48e+01,
756,1.00e-03,1.44e+01,
757,-1.00e-03,1.48e+01,
758,-1.00e-03,1.44e+01,
759,-1.00e-03,1.44e+01,
760,-1.00e-03,1.44e+01,
761,1.00e-03,1.44e+01,
762,1.00e-03,1.44e+01,
763,1.00e-03,1.36e+01,
764,-1.00e-03,1.36e+01,
765,-1.00e-03,1.36e+01,
766,1.00e-03,1.36e+01,
767,-1.00e-03,1.36e+01,
768,1.00e-03,1.32e+01,
769,-1.00e-03,1.36e+01,
770,-1.00e-03,1.36e+01,
771,1.00e-03,1.32e+01,
772,-1.00e-03,1.32e+01,
773,-3.00e-03,1.32e+01,
774,1.00e-03,1.32e+01,
775,-3.00e-03,1.32e+01,
776,1.00e-03,1.28e+01,
777,1.00e-03,1.32e+01,
778,1.00e-03,1.32e+01,
779,3.00e-03,1.28e+01,
780,-1.00e-03,1.28e+01,
781,-1.00e-03,1.32e+01,
782,-1.00e-03,1.28e+01,
783,1.00e-03,1.28e+01,
784,1.00e-03,1.28e+01,
785,1.00e-03,1.28e+01,
786,1.00e-03,1.28e+01,
787,1.00e-03,1.28e+01,
788,-1.00e-03,1.28e+01,
789,-1.00e-03,1.28e+01,
790,1.00e-03,1.28e+01,
791,1.00e-03,1.24e+01,
792,1.00e-03,1.24e+01,
793,1.00e-03,1.28e+01,
794,3.00e-03,1.24e+01,
795,1.00e-03,1.24e+01,
796,1.00e-03,1.24e+01,
797,-3.00e-03,1.24e+01,
798,1.00e-03,1.24e+01,
799,-1.00e-03,1.24e+01,
800,1.00e-03,1.24e+01,
801,-1.00e-03,1.24e+01,
802,3.00e-03,1.24e+01,
803,3.00e-03,1.24e+01,
804,1.00e-03,1.24e+01,
805,-1.00e-03,1.24e+01,
806,1.00e-03,1.24e+01,
807,1.00e-03,1.24e+01,
808,1.00e-03,1.20e+01,
809,1.00e-03,1.24e+01,
810,3.00e-03,1.24e+01,
811,3.00e-03,1.20e+01,
812,1.00e-03,1.20e+01,
813,-1.00e-03,1.24e+01,
814,1.00e-03,1.24e+01,
815,1.00e-03,1.20e+01,
816,1.00e-03,1.20e+01,
817,3.00e-03,1.24e+01,
818,1.00e-03,1.24e+01,
819,1.00e-03,1.24e+01,
820,-1.00e-03,1.20e+01,
821,-1.00e-03,1.24e+01,
822,1.00e-03,1.24e+01,
823,1.00e-03,1.20e+01,
824,1.00e-03,1.20e+01,
825,3.00e-03,1.24e+01,
826,3.00e-03,1.24e+01,
827,1.00e-03,1.20e+01,
828,1.00e-03,1.20e+01,
829,1.00e-03,1.24e+01,
830,1.00e-03,1.24e+01,
831,3.00e-03,1.20e+01,
832,3.00e-03,1.20e+01,
833,3.00e-03,1.24e+01,
834,3.00e-03,1.24e+01,
835,3.00e-03,1.24e+01,
836,1.00e-03,1.20e+01,
837,1.00e-03,1.24e+01,
838,1.00e-03,1.24e+01,
839,1.00e-03,1.24e+01,
840,1.00e-03,1.20e+01,
841,1.00e-03,1.24e+01,
842,3.00e-03,1.24e+01,
843,1.00e-03,1.24e+01,
844,1.00e-03,1.24e+01,
845,1.00e-03,1.24e+01,
846,3.00e-03,1.24e+01,
847,1.00e-03,1.24e+01,
848,3.00e-03,1.24e+01,
849,3.00e-03,1.28e+01,
850,3.00e-03,1.28e+01,
851,3.00e-03,1.24e+01,
852,1.00e-03,1.24e+01,
853,-1.00e-03,1.28e+01,
