lab9/scope/baseline_10V.csv

X,CH1,CH2,Start,Increment,
Sequence,Volt,Volt,-3.000000e-05,2.000000e-09
0,2.00e-03,1.34e+01,
1,2.00e-03,1.34e+01,
2,2.00e-03,1.30e+01,
3,6.00e-03,1.34e+01,
4,2.00e-03,1.34e+01,
5,6.00e-03,1.30e+01,
6,2.00e-03,1.26e+01,
7,6.00e-03,1.34e+01,
8,2.00e-03,1.30e+01,
9,6.00e-03,1.30e+01,
10,2.00e-03,1.26e+01,
11,6.00e-03,1.30e+01,
12,2.00e-03,1.30e+01,
13,6.00e-03,1.26e+01,
14,2.00e-03,1.26e+01,
15,6.00e-03,1.26e+01,
16,6.00e-03,1.26e+01,
17,2.00e-03,1.26e+01,
18,2.00e-03,1.22e+01,
19,2.00e-03,1.26e+01,
20,6.00e-03,1.26e+01,
21,6.00e-03,1.22e+01,
22,2.00e-03,1.18e+01,
23,6.00e-03,1.22e+01,
24,6.00e-03,1.22e+01,
25,6.00e-03,1.22e+01,
26,2.00e-03,1.18e+01,
27,6.00e-03,1.22e+01,
28,6.00e-03,1.22e+01,
29,6.00e-03,1.18e+01,
30,2.00e-03,1.18e+01,
31,6.00e-03,1.18e+01,
32,2.00e-03,1.18e+01,
33,6.00e-03,1.18e+01,
34,2.00e-03,1.14e+01,
35,6.00e-03,1.18e+01,
36,2.00e-03,1.18e+01,
37,6.00e-03,1.14e+01,
38,6.00e-03,1.14e+01,
39,6.00e-03,1.14e+01,
40,2.00e-03,1.14e+01,
41,6.00e-03,1.14e+01,
42,2.00e-03,1.10e+01,
43,6.00e-03,1.14e+01,
44,6.00e-03,1.14e+01,
45,6.00e-03,1.14e+01,
46,2.00e-03,1.10e+01,
47,6.00e-03,1.14e+01,
48,6.00e-03,1.10e+01,
49,6.00e-03,1.10e+01,
50,2.00e-03,1.06e+01,
51,2.00e-03,1.10e+01,
52,6.00e-03,1.10e+01,
53,6.00e-03,1.10e+01,
54,2.00e-03,1.06e+01,
55,6.00e-03,1.10e+01,
56,6.00e-03,1.10e+01,
57,6.00e-03,1.06e+01,
58,2.00e-03,1.06e+01,
59,6.00e-03,1.06e+01,
60,6.00e-03,1.06e+01,
61,6.00e-03,1.06e+01,
62,2.00e-03,1.02e+01,
63,2.00e-03,1.06e+01,
64,2.00e-03,1.06e+01,
65,6.00e-03,1.06e+01,
66,2.00e-03,1.02e+01,
67,6.00e-03,1.06e+01,
68,6.00e-03,1.06e+01,
69,6.00e-03,1.06e+01,
70,2.00e-03,1.02e+01,
71,6.00e-03,1.02e+01,
72,2.00e-03,1.02e+01,
73,6.00e-03,1.02e+01,
74,2.00e-03,9.80e+00,
75,6.00e-03,1.02e+01,
76,6.00e-03,1.02e+01,
77,6.00e-03,1.02e+01,
78,2.00e-03,9.80e+00,
79,6.00e-03,1.02e+01,
80,6.00e-03,1.02e+01,
81,6.00e-03,9.80e+00,
82,2.00e-03,9.80e+00,
83,6.00e-03,1.02e+01,
84,6.00e-03,1.02e+01,
85,6.00e-03,1.02e+01,
86,6.00e-03,9.80e+00,
87,6.00e-03,1.02e+01,
88,6.00e-03,9.80e+00,
89,6.00e-03,9.80e+00,
90,2.00e-03,9.80e+00,
91,6.00e-03,1.02e+01,
92,2.00e-03,9.80e+00,
93,6.00e-03,9.80e+00,
94,6.00e-03,9.40e+00,
95,6.00e-03,1.02e+01,
96,2.00e-03,9.80e+00,
97,6.00e-03,9.80e+00,
98,6.00e-03,9.40e+00,
99,6.00e-03,9.80e+00,
100,6.00e-03,9.80e+00,
101,6.00e-03,9.80e+00,
102,2.00e-03,9.40e+00,
103,6.00e-03,9.80e+00,
104,2.00e-03,9.80e+00,
105,6.00e-03,9.80e+00,
106,6.00e-03,9.40e+00,
107,6.00e-03,9.80e+00,
108,6.00e-03,9.80e+00,
109,6.00e-03,9.80e+00,
110,6.00e-03,9.40e+00,
111,6.00e-03,9.80e+00,
112,6.00e-03,9.80e+00,
113,6.00e-03,9.40e+00,
114,6.00e-03,9.40e+00,
115,6.00e-03,9.80e+00,
116,6.00e-03,9.80e+00,
117,6.00e-03,9.80e+00,
118,6.00e-03,9.40e+00,
119,6.00e-03,9.80e+00,
120,6.00e-03,9.80e+00,
121,6.00e-03,9.40e+00,
122,2.00e-03,9.40e+00,
123,6.00e-03,9.80e+00,
124,6.00e-03,9.40e+00,
125,6.00e-03,9.40e+00,
126,6.00e-03,9.40e+00,
127,6.00e-03,9.80e+00,
128,6.00e-03,9.80e+00,
129,6.00e-03,9.40e+00,
130,6.00e-03,9.40e+00,
131,6.00e-03,9.40e+00,
132,6.00e-03,9.80e+00,
133,2.00e-03,9.40e+00,
134,2.00e-03,9.40e+00,
135,1.00e-02,9.80e+00,
136,6.00e-03,9.80e+00,
137,2.00e-03,9.40e+00,
138,6.00e-03,9.40e+00,
139,6.00e-03,9.80e+00,
140,2.00e-03,9.80e+00,
141,1.00e-02,9.80e+00,
142,6.00e-03,9.40e+00,
143,2.00e-03,9.80e+00,
144,6.00e-03,9.80e+00,
145,6.00e-03,9.80e+00,
146,2.00e-03,9.40e+00,
147,6.00e-03,9.80e+00,
148,6.00e-03,9.80e+00,
149,6.00e-03,9.80e+00,
150,2.00e-03,9.40e+00,
151,6.00e-03,9.80e+00,
152,6.00e-03,9.80e+00,
153,6.00e-03,9.80e+00,
154,6.00e-03,9.40e+00,
155,6.00e-03,9.80e+00,
156,6.00e-03,9.80e+00,
157,6.00e-03,9.80e+00,
158,6.00e-03,9.40e+00,
159,6.00e-03,9.80e+00,
160,6.00e-03,9.80e+00,
161,6.00e-03,9.80e+00,
162,2.00e-03,9.80e+00,
163,6.00e-03,9.80e+00,
164,6.00e-03,9.80e+00,
165,6.00e-03,1.02e+01,
166,2.00e-03,9.40e+00,
167,6.00e-03,1.02e+01,
168,6.00e-03,1.02e+01,
169,6.00e-03,9.80e+00,
170,2.00e-03,9.80e+00,
171,6.00e-03,1.02e+01,
172,6.00e-03,9.80e+00,
173,6.00e-03,1.02e+01,
174,6.00e-03,9.80e+00,
175,6.00e-03,1.02e+01,
176,6.00e-03,1.02e+01,
177,6.00e-03,1.02e+01,
178,6.00e-03,1.02e+01,
179,6.00e-03,1.02e+01,
180,1.00e-02,1.06e+01,
181,6.00e-03,1.02e+01,
182,6.00e-03,1.02e+01,
183,6.00e-03,1.06e+01,
184,6.00e-03,1.06e+01,
185,6.00e-03,1.02e+01,
186,2.00e-03,1.02e+01,
187,6.00e-03,1.06e+01,
188,6.00e-03,1.06e+01,
189,6.00e-03,1.06e+01,
190,6.00e-03,1.02e+01,
191,6.00e-03,1.06e+01,
192,6.00e-03,1.06e+01,
193,6.00e-03,1.06e+01,
194,2.00e-03,1.02e+01,
195,6.00e-03,1.06e+01,
196,6.00e-03,1.06e+01,
197,6.00e-03,1.10e+01,
198,6.00e-03,1.06e+01,
199,6.00e-03,1.10e+01,
200,6.00e-03,1.10e+01,
201,1.00e-02,1.10e+01,
202,2.00e-03,1.06e+01,
203,6.00e-03,1.10e+01,
204,6.00e-03,1.10e+01,
205,6.00e-03,1.10e+01,
206,2.00e-03,1.10e+01,
207,6.00e-03,1.14e+01,
208,6.00e-03,1.14e+01,
209,6.00e-03,1.14e+01,
210,2.00e-03,1.10e+01,
211,6.00e-03,1.14e+01,
212,6.00e-03,1.14e+01,
213,6.00e-03,1.14e+01,
214,6.00e-03,1.10e+01,
215,6.00e-03,1.14e+01,
216,6.00e-03,1.18e+01,
217,6.00e-03,1.14e+01,
218,6.00e-03,1.14e+01,
219,6.00e-03,1.18e+01,
220,6.00e-03,1.18e+01,
221,6.00e-03,1.18e+01,
222,6.00e-03,1.14e+01,
223,6.00e-03,1.18e+01,
224,6.00e-03,1.18e+01,
225,6.00e-03,1.18e+01,
226,2.00e-03,1.18e+01,
227,6.00e-03,1.22e+01,
228,6.00e-03,1.22e+01,
229,6.00e-03,1.22e+01,
230,6.00e-03,1.18e+01,
231,6.00e-03,1.22e+01,
232,6.00e-03,1.22e+01,
233,6.00e-03,1.22e+01,
234,2.00e-03,1.22e+01,
235,6.00e-03,1.26e+01,
236,6.00e-03,1.26e+01,
237,6.00e-03,1.26e+01,
238,6.00e-03,1.22e+01,
239,6.00e-03,1.26e+01,
240,6.00e-03,1.26e+01,
241,6.00e-03,1.26e+01,
242,2.00e-03,1.26e+01,
243,6.00e-03,1.30e+01,
244,6.00e-03,1.30e+01,
245,1.00e-02,1.30e+01,
246,6.00e-03,1.26e+01,
247,6.00e-03,1.30e+01,
248,6.00e-03,1.34e+01,
249,6.00e-03,1.30e+01,
250,6.00e-03,1.30e+01,
251,6.00e-03,1.34e+01,
252,6.00e-03,1.34e+01,
253,6.00e-03,1.34e+01,
254,6.00e-03,1.30e+01,
255,6.00e-03,1.38e+01,
256,6.00e-03,1.34e+01,
257,6.00e-03,1.34e+01,
258,6.00e-03,1.34e+01,
259,6.00e-03,1.38e+01,
260,6.00e-03,1.38e+01,
261,6.00e-03,1.38e+01,
262,6.00e-03,1.34e+01,
263,6.00e-03,1.38e+01,
264,6.00e-03,1.38e+01,
265,6.00e-03,1.38e+01,
266,6.00e-03,1.38e+01,
267,6.00e-03,1.42e+01,
268,6.00e-03,1.42e+01,
269,1.00e-02,1.42e+01,
270,6.00e-03,1.42e+01,
271,6.00e-03,1.46e+01,
272,6.00e-03,1.46e+01,
273,6.00e-03,1.46e+01,
274,6.00e-03,1.42e+01,
275,6.00e-03,1.46e+01,
276,6.00e-03,1.46e+01,
277,6.00e-03,1.46e+01,
278,6.00e-03,1.46e+01,
279,6.00e-03,1.50e+01,
280,6.00e-03,1.50e+01,
281,6.00e-03,1.50e+01,
282,6.00e-03,1.50e+01,
283,6.00e-03,1.50e+01,
284,6.00e-03,1.58e+01,
285,6.00e-03,1.50e+01,
286,6.00e-03,1.50e+01,
287,6.00e-03,1.58e+01,
288,6.00e-03,1.58e+01,
289,6.00e-03,1.58e+01,
290,6.00e-03,1.58e+01,
291,6.00e-03,1.62e+01,
292,6.00e-03,1.62e+01,
293,6.00e-03,1.58e+01,
294,6.00e-03,1.62e+01,
295,6.00e-03,1.62e+01,
296,6.00e-03,1.62e+01,
297,6.00e-03,1.66e+01,
298,2.00e-03,1.62e+01,
299,6.00e-03,1.66e+01,
300,6.00e-03,1.66e+01,
301,6.00e-03,1.66e+01,
302,6.00e-03,1.66e+01,
303,2.00e-03,1.70e+01,
304,6.00e-03,1.66e+01,
305,6.00e-03,1.70e+01,
306,2.00e-03,1.66e+01,
307,6.00e-03,1.70e+01,
308,6.00e-03,1.70e+01,
309,6.00e-03,1.70e+01,
310,6.00e-03,1.70e+01,
311,6.00e-03,1.74e+01,
312,6.00e-03,1.74e+01,
313,6.00e-03,1.74e+01,
314,2.00e-03,1.74e+01,
315,6.00e-03,1.78e+01,
316,6.00e-03,1.74e+01,
317,6.00e-03,1.78e+01,
318,6.00e-03,1.74e+01,
319,2.00e-03,1.78e+01,
320,6.00e-03,1.78e+01,
321,6.00e-03,1.78e+01,
322,2.00e-03,1.78e+01,
323,6.00e-03,1.82e+01,
324,6.00e-03,1.82e+01,
325,6.00e-03,1.82e+01,
326,2.00e-03,1.82e+01,
327,6.00e-03,1.86e+01,
328,6.00e-03,1.82e+01,
329,6.00e-03,1.82e+01,
330,2.00e-03,1.82e+01,
331,6.00e-03,1.86e+01,
332,6.00e-03,1.86e+01,
333,6.00e-03,1.86e+01,
334,2.00e-03,1.86e+01,
335,6.00e-03,1.90e+01,
336,2.00e-03,1.90e+01,
337,6.00e-03,1.90e+01,
338,2.00e-03,1.86e+01,
339,6.00e-03,1.90e+01,
340,6.00e-03,1.90e+01,
341,6.00e-03,1.90e+01,
342,6.00e-03,1.90e+01,
343,6.00e-03,1.94e+01,
344,6.00e-03,1.94e+01,
345,6.00e-03,1.94e+01,
346,2.00e-03,1.94e+01,
347,6.00e-03,1.94e+01,
348,6.00e-03,1.94e+01,
349,6.00e-03,1.98e+01,
350,6.00e-03,1.94e+01,
351,6.00e-03,1.98e+01,
352,6.00e-03,1.98e+01,
353,6.00e-03,1.98e+01,
354,2.00e-03,1.98e+01,
355,2.00e-03,2.02e+01,
356,6.00e-03,2.02e+01,
357,6.00e-03,2.02e+01,
358,6.00e-03,1.98e+01,
359,6.00e-03,2.02e+01,
360,2.00e-03,2.02e+01,
361,6.00e-03,2.02e+01,
362,2.00e-03,2.02e+01,
363,6.00e-03,2.06e+01,
364,6.00e-03,2.06e+01,
365,6.00e-03,2.06e+01,
366,6.00e-03,2.06e+01,
367,6.00e-03,2.06e+01,
368,2.00e-03,2.10e+01,
369,2.00e-03,2.06e+01,
370,2.00e-03,2.06e+01,
371,6.00e-03,2.10e+01,
372,6.00e-03,2.10e+01,
373,6.00e-03,2.10e+01,
374,2.00e-03,2.10e+01,
375,6.00e-03,2.10e+01,
376,2.00e-03,2.14e+01,
377,6.00e-03,2.10e+01,
378,2.00e-03,2.10e+01,
379,6.00e-03,2.14e+01,
380,6.00e-03,2.14e+01,
381,6.00e-03,2.14e+01,
382,2.00e-03,2.14e+01,
383,6.00e-03,2.18e+01,
384,2.00e-03,2.18e+01,
385,6.00e-03,2.14e+01,
386,2.00e-03,2.14e+01,
387,6.00e-03,2.18e+01,
388,6.00e-03,2.18e+01,
389,6.00e-03,2.18e+01,
390,2.00e-03,2.18e+01,
391,6.00e-03,2.22e+01,
392,6.00e-03,2.22e+01,
393,2.00e-03,2.22e+01,
394,2.00e-03,2.18e+01,
395,6.00e-03,2.22e+01,
396,6.00e-03,2.22e+01,
397,6.00e-03,2.22e+01,
398,2.00e-03,2.22e+01,
399,2.00e-03,2.22e+01,
400,2.00e-03,2.22e+01,
401,6.00e-03,2.22e+01,
402,2.00e-03,2.22e+01,
403,2.00e-03,2.26e+01,
404,6.00e-03,2.26e+01,
405,6.00e-03,2.26e+01,
406,2.00e-03,2.26e+01,
407,6.00e-03,2.26e+01,
408,6.00e-03,2.26e+01,
409,6.00e-03,2.26e+01,
410,2.00e-03,2.26e+01,
411,6.00e-03,2.26e+01,
412,6.00e-03,2.30e+01,
413,6.00e-03,2.30e+01,
414,2.00e-03,2.30e+01,
415,6.00e-03,2.30e+01,
416,6.00e-03,2.30e+01,
417,6.00e-03,2.30e+01,
418,2.00e-03,2.30e+01,
419,6.00e-03,2.30e+01,
420,6.00e-03,2.30e+01,
421,6.00e-03,2.38e+01,
422,2.00e-03,2.30e+01,
423,2.00e-03,2.38e+01,
424,2.00e-03,2.38e+01,
425,6.00e-03,2.38e+01,
426,2.00e-03,2.38e+01,
427,6.00e-03,2.38e+01,
428,6.00e-03,2.38e+01,
429,6.00e-03,2.38e+01,
430,2.00e-03,2.38e+01,
431,6.00e-03,2.42e+01,
432,6.00e-03,2.42e+01,
433,6.00e-03,2.42e+01,
434,2.00e-03,2.38e+01,
435,2.00e-03,2.42e+01,
436,2.00e-03,2.42e+01,
437,6.00e-03,2.42e+01,
438,6.00e-03,2.42e+01,
439,6.00e-03,2.42e+01,
440,6.00e-03,2.42e+01,
441,6.00e-03,2.42e+01,
442,2.00e-03,2.42e+01,
443,6.00e-03,2.42e+01,
444,6.00e-03,2.46e+01,
445,6.00e-03,2.46e+01,
446,2.00e-03,2.42e+01,
447,2.00e-03,2.46e+01,
448,2.00e-03,2.46e+01,
449,6.00e-03,2.46e+01,
450,2.00e-03,2.46e+01,
451,2.00e-03,2.46e+01,
452,2.00e-03,2.46e+01,
453,6.00e-03,2.46e+01,
454,2.00e-03,2.46e+01,
455,6.00e-03,2.46e+01,
456,2.00e-03,2.46e+01,
457,6.00e-03,2.46e+01,
458,2.00e-03,2.46e+01,
459,2.00e-03,2.46e+01,
460,6.00e-03,2.46e+01,
461,6.00e-03,2.46e+01,
462,2.00e-03,2.46e+01,
463,6.00e-03,2.50e+01,
464,2.00e-03,2.46e+01,
465,6.00e-03,2.46e+01,
466,2.00e-03,2.46e+01,
467,2.00e-03,2.50e+01,
468,6.00e-03,2.50e+01,
469,6.00e-03,2.50e+01,
470,2.00e-03,2.46e+01,
471,6.00e-03,2.50e+01,
472,2.00e-03,2.50e+01,
473,2.00e-03,2.50e+01,
474,2.00e-03,2.50e+01,
475,6.00e-03,2.50e+01,
476,2.00e-03,2.50e+01,
477,6.00e-03,2.50e+01,
478,2.00e-03,2.50e+01,
479,6.00e-03,2.50e+01,
480,2.00e-03,2.50e+01,
481,2.00e-03,2.50e+01,
482,2.00e-03,2.50e+01,
483,2.00e-03,2.50e+01,
484,6.00e-03,2.50e+01,
485,6.00e-03,2.50e+01,
486,2.00e-03,2.50e+01,
487,2.00e-03,2.50e+01,
488,2.00e-03,2.50e+01,
489,6.00e-03,2.50e+01,
490,2.00e-03,2.50e+01,
491,2.00e-03,2.50e+01,
492,2.00e-03,2.50e+01,
493,6.00e-03,2.50e+01,
494,2.00e-03,2.50e+01,
495,2.00e-03,2.54e+01,
496,2.00e-03,2.50e+01,
497,6.00e-03,2.50e+01,
498,2.00e-03,2.50e+01,
499,2.00e-03,2.50e+01,
500,6.00e-03,2.50e+01,
501,6.00e-03,2.50e+01,
502,6.00e-03,2.50e+01,
503,2.00e-03,2.54e+01,
504,2.00e-03,2.50e+01,
505,6.00e-03,2.50e+01,
506,2.00e-03,2.50e+01,
507,2.00e-03,2.50e+01,
508,2.00e-03,2.50e+01,
509,2.00e-03,2.50e+01,
510,2.00e-03,2.50e+01,
511,2.00e-03,2.50e+01,
512,6.00e-03,2.50e+01,
513,6.00e-03,2.50e+01,
514,2.00e-03,2.50e+01,
515,2.00e-03,2.50e+01,
516,6.00e-03,2.50e+01,
517,6.00e-03,2.50e+01,
518,2.00e-03,2.50e+01,
519,2.00e-03,2.50e+01,
520,6.00e-03,2.50e+01,
521,2.00e-03,2.50e+01,
522,2.00e-03,2.50e+01,
523,2.00e-03,2.50e+01,
524,6.00e-03,2.50e+01,
525,6.00e-03,2.50e+01,
526,2.00e-03,2.46e+01,
527,6.00e-03,2.50e+01,
528,2.00e-03,2.50e+01,
529,2.00e-03,2.50e+01,
530,2.00e-03,2.50e+01,
531,6.00e-03,2.50e+01,
532,6.00e-03,2.50e+01,
533,6.00e-03,2.50e+01,
534,2.00e-03,2.46e+01,
535,2.00e-03,2.50e+01,
536,6.00e-03,2.50e+01,
537,6.00e-03,2.46e+01,
538,2.00e-03,2.46e+01,
539,2.00e-03,2.46e+01,
540,2.00e-03,2.50e+01,
541,6.00e-03,2.50e+01,
542,2.00e-03,2.46e+01,
543,2.00e-03,2.46e+01,
544,2.00e-03,2.46e+01,
545,6.00e-03,2.46e+01,
546,2.00e-03,2.46e+01,
547,2.00e-03,2.46e+01,
548,2.00e-03,2.46e+01,
549,6.00e-03,2.46e+01,
550,2.00e-03,2.46e+01,
551,2.00e-03,2.46e+01,
552,6.00e-03,2.46e+01,
553,2.00e-03,2.46e+01,
554,2.00e-03,2.42e+01,
555,2.00e-03,2.46e+01,
556,6.00e-03,2.46e+01,
557,6.00e-03,2.46e+01,
558,2.00e-03,2.42e+01,
559,6.00e-03,2.46e+01,
560,2.00e-03,2.42e+01,
561,6.00e-03,2.42e+01,
562,2.00e-03,2.42e+01,
563,2.00e-03,2.42e+01,
564,6.00e-03,2.42e+01,
565,6.00e-03,2.42e+01,
566,2.00e-03,2.42e+01,
567,2.00e-03,2.42e+01,
568,6.00e-03,2.42e+01,
569,2.00e-03,2.38e+01,
570,2.00e-03,2.42e+01,
571,6.00e-03,2.42e+01,
572,2.00e-03,2.38e+01,
573,2.00e-03,2.42e+01,
574,-2.00e-03,2.38e+01,
575,2.00e-03,2.42e+01,
576,2.00e-03,2.38e+01,
577,2.00e-03,2.38e+01,
578,2.00e-03,2.38e+01,
579,2.00e-03,2.38e+01,
580,2.00e-03,2.38e+01,
581,6.00e-03,2.38e+01,
582,2.00e-03,2.30e+01,
583,2.00e-03,2.38e+01,
584,2.00e-03,2.38e+01,
585,2.00e-03,2.38e+01,
586,2.00e-03,2.30e+01,
587,2.00e-03,2.30e+01,
588,2.00e-03,2.30e+01,
589,2.00e-03,2.30e+01,
590,2.00e-03,2.30e+01,
591,2.00e-03,2.30e+01,
592,2.00e-03,2.30e+01,
593,2.00e-03,2.30e+01,
594,2.00e-03,2.26e+01,
595,2.00e-03,2.30e+01,
596,6.00e-03,2.30e+01,
597,2.00e-03,2.30e+01,
598,2.00e-03,2.26e+01,
599,2.00e-03,2.30e+01,
600,2.00e-03,2.26e+01,
601,6.00e-03,2.26e+01,
602,2.00e-03,2.26e+01,
603,2.00e-03,2.26e+01,
604,2.00e-03,2.26e+01,
605,2.00e-03,2.26e+01,
606,2.00e-03,2.22e+01,
607,2.00e-03,2.26e+01,
608,6.00e-03,2.22e+01,
609,2.00e-03,2.22e+01,
610,2.00e-03,2.22e+01,
611,2.00e-03,2.22e+01,
612,2.00e-03,2.22e+01,
613,6.00e-03,2.22e+01,
614,2.00e-03,2.18e+01,
615,2.00e-03,2.22e+01,
616,2.00e-03,2.22e+01,
617,2.00e-03,2.18e+01,
618,2.00e-03,2.18e+01,
619,6.00e-03,2.18e+01,
620,2.00e-03,2.18e+01,
621,2.00e-03,2.18e+01,
622,2.00e-03,2.18e+01,
623,6.00e-03,2.18e+01,
624,2.00e-03,2.18e+01,
625,6.00e-03,2.14e+01,
626,2.00e-03,2.14e+01,
627,2.00e-03,2.14e+01,
628,6.00e-03,2.14e+01,
629,6.00e-03,2.14e+01,
630,2.00e-03,2.14e+01,
631,2.00e-03,2.14e+01,
632,2.00e-03,2.14e+01,
633,2.00e-03,2.10e+01,
634,2.00e-03,2.10e+01,
635,2.00e-03,2.14e+01,
636,6.00e-03,2.10e+01,
637,2.00e-03,2.10e+01,
638,2.00e-03,2.06e+01,
639,2.00e-03,2.10e+01,
640,2.00e-03,2.10e+01,
641,2.00e-03,2.10e+01,
642,2.00e-03,2.06e+01,
643,2.00e-03,2.10e+01,
644,6.00e-03,2.10e+01,
645,6.00e-03,2.06e+01,
646,2.00e-03,2.02e+01,
647,2.00e-03,2.06e+01,
648,2.00e-03,2.06e+01,
649,2.00e-03,2.06e+01,
650,2.00e-03,2.02e+01,
651,2.00e-03,2.06e+01,
652,2.00e-03,2.06e+01,
653,6.00e-03,2.02e+01,
654,2.00e-03,2.02e+01,
655,2.00e-03,2.02e+01,
656,2.00e-03,2.02e+01,
657,6.00e-03,2.02e+01,
658,2.00e-03,1.98e+01,
659,2.00e-03,2.02e+01,
660,6.00e-03,2.02e+01,
661,6.00e-03,1.98e+01,
662,2.00e-03,1.98e+01,
663,2.00e-03,2.02e+01,
664,2.00e-03,1.98e+01,
665,2.00e-03,1.98e+01,
666,2.00e-03,1.94e+01,
667,2.00e-03,1.98e+01,
668,6.00e-03,1.98e+01,
669,2.00e-03,1.94e+01,
670,2.00e-03,1.94e+01,
671,6.00e-03,1.98e+01,
672,2.00e-03,1.94e+01,
673,2.00e-03,1.94e+01,
674,2.00e-03,1.94e+01,
675,2.00e-03,1.94e+01,
676,2.00e-03,1.94e+01,
677,2.00e-03,1.94e+01,
678,2.00e-03,1.90e+01,
679,2.00e-03,1.94e+01,
680,2.00e-03,1.90e+01,
681,6.00e-03,1.90e+01,
682,2.00e-03,1.86e+01,
683,2.00e-03,1.90e+01,
684,2.00e-03,1.90e+01,
685,6.00e-03,1.90e+01,
686,2.00e-03,1.86e+01,
687,2.00e-03,1.90e+01,
688,2.00e-03,1.86e+01,
689,2.00e-03,1.86e+01,
690,2.00e-03,1.86e+01,
691,2.00e-03,1.86e+01,
692,2.00e-03,1.86e+01,
693,2.00e-03,1.82e+01,
694,2.00e-03,1.82e+01,
695,6.00e-03,1.86e+01,
696,2.00e-03,1.82e+01,
697,6.00e-03,1.82e+01,
698,2.00e-03,1.82e+01,
699,2.00e-03,1.82e+01,
700,6.00e-03,1.82e+01,
701,2.00e-03,1.82e+01,
702,2.00e-03,1.78e+01,
703,2.00e-03,1.82e+01,
704,2.00e-03,1.82e+01,
705,6.00e-03,1.78e+01,
706,-2.00e-03,1.78e+01,
707,2.00e-03,1.78e+01,
708,6.00e-03,1.78e+01,
709,6.00e-03,1.78e+01,
710,2.00e-03,1.78e+01,
711,2.00e-03,1.78e+01,
712,2.00e-03,1.78e+01,
713,6.00e-03,1.74e+01,
714,2.00e-03,1.74e+01,
715,2.00e-03,1.74e+01,
716,2.00e-03,1.74e+01,
717,2.00e-03,1.74e+01,
718,2.00e-03,1.70e+01,
719,2.00e-03,1.74e+01,
720,2.00e-03,1.74e+01,
721,2.00e-03,1.70e+01,
722,-2.00e-03,1.70e+01,
723,2.00e-03,1.70e+01,
724,2.00e-03,1.70e+01,
725,6.00e-03,1.70e+01,
726,2.00e-03,1.70e+01,
727,2.00e-03,1.70e+01,
728,2.00e-03,1.70e+01,
729,6.00e-03,1.70e+01,
730,-2.00e-03,1.66e+01,
731,2.00e-03,1.66e+01,
732,6.00e-03,1.70e+01,
733,6.00e-03,1.66e+01,
734,2.00e-03,1.66e+01,
735,2.00e-03,1.66e+01,
736,2.00e-03,1.66e+01,
737,2.00e-03,1.66e+01,
738,2.00e-03,1.62e+01,
739,2.00e-03,1.66e+01,
740,6.00e-03,1.66e+01,
741,2.00e-03,1.66e+01,
742,2.00e-03,1.62e+01,
743,6.00e-03,1.66e+01,
744,2.00e-03,1.62e+01,
745,2.00e-03,1.62e+01,
746,2.00e-03,1.58e+01,
747,2.00e-03,1.62e+01,
748,2.00e-03,1.62e+01,
749,2.00e-03,1.62e+01,
750,2.00e-03,1.58e+01,
751,2.00e-03,1.62e+01,
752,6.00e-03,1.62e+01,
753,6.00e-03,1.62e+01,
754,2.00e-03,1.58e+01,
755,2.00e-03,1.58e+01,
756,2.00e-03,1.58e+01,
757,2.00e-03,1.58e+01,
758,2.00e-03,1.50e+01,
759,2.00e-03,1.58e+01,
760,2.00e-03,1.58e+01,
761,2.00e-03,1.50e+01,
762,2.00e-03,1.50e+01,
763,2.00e-03,1.58e+01,
764,2.00e-03,1.58e+01,
765,6.00e-03,1.50e+01,
766,2.00e-03,1.50e+01,
767,2.00e-03,1.58e+01,
768,2.00e-03,1.58e+01,
769,2.00e-03,1.50e+01,
770,2.00e-03,1.50e+01,
771,2.00e-03,1.50e+01,
772,2.00e-03,1.50e+01,
773,6.00e-03,1.50e+01,
774,2.00e-03,1.46e+01,
775,2.00e-03,1.50e+01,
776,2.00e-03,1.50e+01,
777,2.00e-03,1.46e+01,
778,2.00e-03,1.46e+01,
779,2.00e-03,1.46e+01,
780,6.00e-03,1.46e+01,
781,2.00e-03,1.46e+01,
782,2.00e-03,1.46e+01,
783,2.00e-03,1.46e+01,
784,2.00e-03,1.46e+01,
785,2.00e-03,1.46e+01,
786,2.00e-03,1.42e+01,
787,2.00e-03,1.46e+01,
788,6.00e-03,1.46e+01,
789,2.00e-03,1.46e+01,
790,2.00e-03,1.42e+01,
791,6.00e-03,1.46e+01,
792,2.00e-03,1.46e+01,
793,2.00e-03,1.42e+01,
794,2.00e-03,1.42e+01,
795,2.00e-03,1.46e+01,
796,2.00e-03,1.42e+01,
797,6.00e-03,1.42e+01,
798,2.00e-03,1.38e+01,
799,2.00e-03,1.42e+01,
800,6.00e-03,1.42e+01,
801,2.00e-03,1.42e+01,
802,2.00e-03,1.42e+01,
803,2.00e-03,1.42e+01,
804,2.00e-03,1.42e+01,
805,6.00e-03,1.42e+01,
806,2.00e-03,1.38e+01,
807,2.00e-03,1.42e+01,
808,2.00e-03,1.38e+01,
809,2.00e-03,1.38e+01,
810,2.00e-03,1.38e+01,
811,2.00e-03,1.42e+01,
812,2.00e-03,1.42e+01,
813,6.00e-03,1.38e+01,
814,2.00e-03,1.38e+01,
815,2.00e-03,1.42e+01,
816,2.00e-03,1.38e+01,
817,6.00e-03,1.38e+01,
818,2.00e-03,1.38e+01,
819,2.00e-03,1.38e+01,
820,6.00e-03,1.38e+01,
821,6.00e-03,1.38e+01,
822,2.00e-03,1.34e+01,
823,2.00e-03,1.38e+01,
824,2.00e-03,1.38e+01,
825,2.00e-03,1.38e+01,
826,2.00e-03,1.34e+01,
827,2.00e-03,1.38e+01,
828,6.00e-03,1.38e+01,
829,6.00e-03,1.38e+01,
830,2.00e-03,1.34e+01,
831,6.00e-03,1.38e+01,
832,2.00e-03,1.38e+01,
833,2.00e-03,1.34e+01,
834,2.00e-03,1.34e+01,
835,2.00e-03,1.38e+01,
836,2.00e-03,1.38e+01,
837,6.00e-03,1.34e+01,
838,2.00e-03,1.34e+01,
839,2.00e-03,1.38e+01,
840,2.00e-03,1.34e+01,
841,2.00e-03,1.34e+01,
842,2.00e-03,1.34e+01,
843,2.00e-03,1.34e+01,
844,2.00e-03,1.34e+01,
845,6.00e-03,1.34e+01,
846,2.00e-03,1.30e+01,
847,2.00e-03,1.38e+01,
848,2.00e-03,1.34e+01,
849,6.00e-03,1.34e+01,
850,2.00e-03,1.30e+01,
851,2.00e-03,1.34e+01,
852,6.00e-03,1.34e+01,
853,2.00e-03,1.34e+01,
854,2.00e-03,1.30e+01,
855,2.00e-03,1.34e+01,
856,2.00e-03,1.34e+01,
857,2.00e-03,1.34e+01,
858,2.00e-03,1.30e+01,
859,6.00e-03,1.34e+01,
860,6.00e-03,1.34e+01,
861,6.00e-03,1.34e+01,
862,2.00e-03,1.30e+01,
863,2.00e-03,1.34e+01,
864,2.00e-03,1.34e+01,
865,6.00e-03,1.34e+01,
866,2.00e-03,1.30e+01,
867,2.00e-03,1.34e+01,
868,6.00e-03,1.34e+01,
869,6.00e-03,1.34e+01,
870,2.00e-03,1.30e+01,
