lab3/oscilloscope/task 4/buck_9v.csv

X,CH1,CH2,Start,Increment,
Sequence,Volt,Volt,-1.039999e-06,2.000000e-09
0,-6.00e-01,-2.00e-01,
1,-6.00e-01,-2.00e-01,
2,-6.00e-01,-2.00e-01,
3,-6.00e-01,-2.00e-01,
4,-6.00e-01,-2.00e-01,
5,-6.00e-01,-2.00e-01,
6,-6.00e-01,-2.00e-01,
7,-6.00e-01,-2.00e-01,
8,-6.00e-01,-2.00e-01,
9,-6.00e-01,-2.00e-01,
10,-6.00e-01,-2.00e-01,
11,-6.00e-01,-2.00e-01,
12,-6.00e-01,-2.00e-01,
13,-6.00e-01,-2.00e-01,
14,-6.00e-01,-2.00e-01,
15,-6.00e-01,-2.00e-01,
16,-6.00e-01,-2.00e-01,
17,-6.00e-01,-2.00e-01,
18,-6.00e-01,-2.00e-01,
19,-6.00e-01,-2.00e-01,
20,-6.00e-01,-2.00e-01,
21,-6.00e-01,-2.00e-01,
22,-6.00e-01,-2.00e-01,
23,-6.00e-01,-2.00e-01,
24,-6.00e-01,-2.00e-01,
25,-6.00e-01,-2.00e-01,
26,-6.00e-01,-2.00e-01,
27,-6.00e-01,-2.00e-01,
28,-6.00e-01,-2.00e-01,
29,-6.00e-01,-2.00e-01,
30,-6.00e-01,-2.00e-01,
31,-6.00e-01,-2.00e-01,
32,-6.00e-01,-2.00e-01,
33,-6.00e-01,-2.00e-01,
34,-6.00e-01,-2.00e-01,
35,-6.00e-01,-2.00e-01,
36,-6.00e-01,-2.00e-01,
37,-6.00e-01,-2.00e-01,
38,-6.00e-01,-2.00e-01,
39,-6.00e-01,-2.00e-01,
40,-6.00e-01,-2.00e-01,
41,-6.00e-01,-2.00e-01,
42,-6.00e-01,-2.00e-01,
43,-6.00e-01,-2.00e-01,
44,-6.00e-01,-2.00e-01,
45,-6.00e-01,-2.00e-01,
46,-4.00e-01,-2.00e-01,
47,-6.00e-01,-2.00e-01,
48,-6.00e-01,-2.00e-01,
49,-6.00e-01,-2.00e-01,
50,-6.00e-01,-2.00e-01,
51,-6.00e-01,-2.00e-01,
52,-6.00e-01,-2.00e-01,
53,-6.00e-01,-2.00e-01,
54,-4.00e-01,-2.00e-01,
55,-6.00e-01,-2.00e-01,
56,-4.00e-01,-2.00e-01,
57,-6.00e-01,-2.00e-01,
58,-4.00e-01,-2.00e-01,
59,-4.00e-01,-2.00e-01,
60,-4.00e-01,-2.00e-01,
61,-4.00e-01,-2.00e-01,
62,-4.00e-01,-2.00e-01,
63,-4.00e-01,-2.00e-01,
64,-4.00e-01,-2.00e-01,
65,-4.00e-01,-2.00e-01,
66,-4.00e-01,-2.00e-01,
67,-4.00e-01,-2.00e-01,
68,-4.00e-01,-2.00e-01,
69,-4.00e-01,-4.35e-05,
70,-4.00e-01,-2.00e-01,
71,-4.00e-01,-2.00e-01,
72,-4.00e-01,-2.00e-01,
73,-4.00e-01,-2.00e-01,
74,-4.00e-01,-2.00e-01,
75,-4.00e-01,-2.00e-01,
76,-4.00e-01,-2.00e-01,
77,-4.00e-01,-4.35e-05,
78,-4.00e-01,-2.00e-01,
79,-4.00e-01,-2.00e-01,
80,-4.00e-01,-2.00e-01,
81,-4.00e-01,-2.00e-01,
82,-4.00e-01,-2.00e-01,
83,-4.00e-01,-2.00e-01,
84,-4.00e-01,-2.00e-01,
85,-4.00e-01,-4.35e-05,
86,-4.00e-01,-2.00e-01,
87,-4.00e-01,-2.00e-01,
88,-4.00e-01,-2.00e-01,
89,-4.00e-01,-2.00e-01,
90,-4.00e-01,-2.00e-01,
91,-4.00e-01,-2.00e-01,
92,-4.00e-01,-2.00e-01,
93,-4.00e-01,-4.35e-05,
94,-4.00e-01,-2.00e-01,
95,-4.00e-01,-4.35e-05,
96,-4.00e-01,-2.00e-01,
97,-4.00e-01,-2.00e-01,
98,-4.00e-01,-2.00e-01,
99,-4.00e-01,-2.00e-01,
100,-4.00e-01,-2.00e-01,
101,-4.00e-01,-4.35e-05,
102,-4.00e-01,-2.00e-01,
103,-4.00e-01,-2.00e-01,
104,-4.00e-01,-2.00e-01,
105,-4.00e-01,-2.00e-01,
106,-4.00e-01,-4.35e-05,
107,-4.00e-01,-4.35e-05,
108,-4.00e-01,-2.00e-01,
109,-4.00e-01,-4.35e-05,
110,-4.00e-01,-2.00e-01,
111,-4.00e-01,-2.00e-01,
112,-4.00e-01,-2.00e-01,
113,-4.00e-01,-2.00e-01,
114,-4.35e-05,-2.00e-01,
115,-4.00e-01,-4.35e-05,
116,-4.00e-01,-2.00e-01,
117,-4.00e-01,-4.35e-05,
118,-4.35e-05,-4.35e-05,
119,-4.00e-01,-2.00e-01,
120,-4.35e-05,-2.00e-01,
121,-4.00e-01,-4.35e-05,
122,-4.35e-05,-4.35e-05,
123,-4.35e-05,-4.35e-05,
124,-4.00e-01,-2.00e-01,
125,-4.00e-01,-4.35e-05,
126,-4.35e-05,-4.35e-05,
127,-4.35e-05,-4.35e-05,
128,-4.35e-05,-2.00e-01,
129,-4.35e-05,-2.00e-01,
130,-4.35e-05,-4.35e-05,
131,-4.35e-05,-4.35e-05,
132,-4.35e-05,-2.00e-01,
133,-4.35e-05,-4.35e-05,
134,-4.35e-05,-4.35e-05,
135,-4.35e-05,-2.00e-01,
136,-4.35e-05,-2.00e-01,
137,-4.35e-05,-4.35e-05,
138,-4.35e-05,-4.35e-05,
139,-4.35e-05,-4.35e-05,
140,-4.35e-05,-2.00e-01,
141,-4.35e-05,-4.35e-05,
142,-4.35e-05,-4.35e-05,
143,-4.35e-05,-4.35e-05,
144,-4.35e-05,-2.00e-01,
145,-4.35e-05,-4.35e-05,
146,-4.35e-05,-4.35e-05,
147,-4.35e-05,-4.35e-05,
148,-4.35e-05,-2.00e-01,
149,-4.35e-05,-4.35e-05,
150,-4.35e-05,-4.35e-05,
151,-4.35e-05,-4.35e-05,
152,-4.35e-05,-4.35e-05,
153,-4.35e-05,-4.35e-05,
154,-4.35e-05,-4.35e-05,
155,-4.35e-05,-4.35e-05,
156,-4.35e-05,-2.00e-01,
157,-4.35e-05,-4.35e-05,
158,-4.35e-05,-4.35e-05,
159,-4.35e-05,-4.35e-05,
160,-4.35e-05,-4.35e-05,
161,-4.35e-05,-4.35e-05,
162,-4.35e-05,-4.35e-05,
163,-4.35e-05,-4.35e-05,
164,-4.35e-05,-4.35e-05,
165,-4.35e-05,-4.35e-05,
166,-4.35e-05,-4.35e-05,
167,-4.35e-05,-4.35e-05,
168,-4.35e-05,-4.35e-05,
169,-4.35e-05,-4.35e-05,
170,-4.35e-05,-4.35e-05,
171,-4.35e-05,-4.35e-05,
172,-4.35e-05,-4.35e-05,
173,-4.35e-05,-4.35e-05,
174,2.00e-01,-4.35e-05,
175,-4.35e-05,-4.35e-05,
176,2.00e-01,-4.35e-05,
177,-4.35e-05,-4.35e-05,
178,-4.35e-05,-4.35e-05,
179,2.00e-01,-4.35e-05,
180,-4.35e-05,-2.00e-01,
181,-4.35e-05,-4.35e-05,
182,2.00e-01,-4.35e-05,
183,2.00e-01,-4.35e-05,
184,2.00e-01,-4.35e-05,
185,-4.35e-05,-4.35e-05,
186,2.00e-01,-4.35e-05,
187,2.00e-01,-4.35e-05,
188,-4.35e-05,-4.35e-05,
189,-4.35e-05,-4.35e-05,
190,2.00e-01,-4.35e-05,
191,-4.35e-05,-4.35e-05,
192,2.00e-01,-4.35e-05,
193,2.00e-01,-4.35e-05,
194,2.00e-01,-4.35e-05,
195,2.00e-01,-4.35e-05,
196,2.00e-01,-2.00e-01,
197,2.00e-01,-4.35e-05,
198,2.00e-01,-4.35e-05,
199,2.00e-01,-4.35e-05,
200,2.00e-01,-4.35e-05,
201,2.00e-01,-4.35e-05,
202,2.00e-01,-4.35e-05,
203,2.00e-01,-4.35e-05,
204,2.00e-01,-2.00e-01,
205,2.00e-01,-4.35e-05,
206,2.00e-01,-4.35e-05,
207,2.00e-01,-4.35e-05,
208,2.00e-01,-4.35e-05,
209,2.00e-01,-4.35e-05,
210,2.00e-01,-4.35e-05,
211,2.00e-01,-4.35e-05,
212,2.00e-01,-4.35e-05,
213,2.00e-01,-4.35e-05,
214,2.00e-01,-4.35e-05,
215,2.00e-01,-4.35e-05,
216,2.00e-01,-4.35e-05,
217,2.00e-01,-4.35e-05,
218,2.00e-01,-4.35e-05,
219,2.00e-01,-4.35e-05,
220,2.00e-01,-4.35e-05,
221,2.00e-01,-4.35e-05,
222,2.00e-01,-4.35e-05,
223,2.00e-01,-4.35e-05,
224,2.00e-01,-4.35e-05,
225,2.00e-01,-4.35e-05,
226,2.00e-01,-4.35e-05,
227,2.00e-01,-4.35e-05,
228,2.00e-01,-4.35e-05,
229,2.00e-01,-4.35e-05,
230,2.00e-01,-4.35e-05,
231,2.00e-01,-4.35e-05,
232,2.00e-01,-4.35e-05,
233,2.00e-01,-4.35e-05,
234,2.00e-01,-4.35e-05,
235,2.00e-01,-4.35e-05,
236,2.00e-01,-4.35e-05,
237,2.00e-01,-4.35e-05,
238,2.00e-01,-4.35e-05,
239,2.00e-01,-4.35e-05,
240,2.00e-01,-4.35e-05,
241,2.00e-01,-4.35e-05,
242,2.00e-01,-4.35e-05,
243,2.00e-01,-4.35e-05,
244,2.00e-01,-4.35e-05,
245,2.00e-01,-4.35e-05,
246,2.00e-01,-4.35e-05,
247,2.00e-01,-4.35e-05,
248,2.00e-01,-4.35e-05,
249,2.00e-01,-4.35e-05,
250,2.00e-01,-4.35e-05,
251,2.00e-01,-4.35e-05,
252,2.00e-01,-4.35e-05,
253,2.00e-01,-4.35e-05,
254,2.00e-01,-4.35e-05,
255,2.00e-01,-4.35e-05,
256,2.00e-01,-4.35e-05,
257,2.00e-01,-4.35e-05,
258,2.00e-01,-4.35e-05,
259,2.00e-01,-4.35e-05,
260,2.00e-01,-4.35e-05,
261,2.00e-01,-4.35e-05,
262,2.00e-01,-4.35e-05,
263,2.00e-01,-4.35e-05,
264,2.00e-01,-4.35e-05,
265,2.00e-01,-4.35e-05,
266,2.00e-01,-4.35e-05,
267,2.00e-01,-4.35e-05,
268,2.00e-01,-4.35e-05,
269,2.00e-01,-4.35e-05,
270,2.00e-01,-4.35e-05,
271,2.00e-01,-4.35e-05,
272,2.00e-01,-4.35e-05,
273,2.00e-01,-4.35e-05,
274,2.00e-01,-4.35e-05,
275,2.00e-01,-4.35e-05,
276,2.00e-01,-4.35e-05,
277,2.00e-01,-4.35e-05,
278,2.00e-01,-4.35e-05,
279,2.00e-01,-4.35e-05,
280,2.00e-01,-4.35e-05,
281,2.00e-01,-4.35e-05,
282,2.00e-01,-4.35e-05,
283,2.00e-01,-4.35e-05,
284,2.00e-01,-2.00e-01,
285,-4.35e-05,-4.35e-05,
286,2.00e-01,-4.35e-05,
287,-4.35e-05,-4.35e-05,
288,2.00e-01,-4.35e-05,
289,-4.35e-05,-4.35e-05,
290,2.00e-01,-4.35e-05,
291,-4.35e-05,-4.35e-05,
292,-4.35e-05,-2.00e-01,
293,-4.35e-05,-4.35e-05,
294,2.00e-01,-4.35e-05,
295,-4.35e-05,-4.35e-05,
296,2.00e-01,-4.35e-05,
297,-4.35e-05,-4.35e-05,
298,2.00e-01,-4.35e-05,
299,-4.35e-05,-4.35e-05,
300,-4.35e-05,-2.00e-01,
301,-4.35e-05,-4.35e-05,
302,-4.35e-05,-4.35e-05,
303,-4.35e-05,-4.35e-05,
304,-4.35e-05,-4.35e-05,
305,-4.35e-05,-4.35e-05,
306,-4.35e-05,-4.35e-05,
307,-4.35e-05,-4.35e-05,
308,-4.35e-05,-2.00e-01,
309,-4.35e-05,-4.35e-05,
310,-4.35e-05,-4.35e-05,
311,-4.35e-05,-4.35e-05,
312,-4.35e-05,-4.35e-05,
313,-4.35e-05,-4.35e-05,
314,-4.35e-05,-4.35e-05,
315,-4.35e-05,-4.35e-05,
316,-4.35e-05,-2.00e-01,
317,-4.35e-05,-4.35e-05,
318,-4.35e-05,-4.35e-05,
319,-4.35e-05,-4.35e-05,
320,-4.35e-05,-4.35e-05,
321,-4.35e-05,-4.35e-05,
322,-4.35e-05,-4.35e-05,
323,-4.35e-05,-4.35e-05,
324,-4.35e-05,-2.00e-01,
325,-4.35e-05,-4.35e-05,
326,-4.35e-05,-4.35e-05,
327,-4.35e-05,-4.35e-05,
328,-4.35e-05,-4.35e-05,
329,-4.35e-05,-4.35e-05,
330,-4.35e-05,-4.35e-05,
331,-4.35e-05,-4.35e-05,
332,-4.35e-05,-2.00e-01,
333,-4.35e-05,-4.35e-05,
334,-4.35e-05,-4.35e-05,
335,-4.35e-05,-4.35e-05,
336,-4.35e-05,-4.35e-05,
337,-4.35e-05,-4.35e-05,
338,-4.35e-05,-4.35e-05,
339,-4.35e-05,-4.35e-05,
340,-4.35e-05,-4.35e-05,
341,-4.35e-05,-4.35e-05,
342,-4.35e-05,-4.35e-05,
343,-4.35e-05,-4.35e-05,
344,-4.35e-05,-2.00e-01,
345,-4.35e-05,-4.35e-05,
346,-4.35e-05,-4.35e-05,
347,-4.35e-05,-4.35e-05,
348,-4.35e-05,-2.00e-01,
349,-4.35e-05,-4.35e-05,
350,-4.35e-05,-4.35e-05,
351,-4.35e-05,-4.35e-05,
352,-4.35e-05,-4.35e-05,
353,-4.35e-05,-2.00e-01,
354,-4.35e-05,-4.35e-05,
355,-4.35e-05,-4.35e-05,
356,-4.35e-05,-2.00e-01,
357,-4.35e-05,-4.35e-05,
358,-4.35e-05,-4.35e-05,
359,-4.35e-05,-4.35e-05,
360,-4.35e-05,-2.00e-01,
361,-4.35e-05,-4.35e-05,
362,-4.35e-05,-4.35e-05,
363,-4.35e-05,-4.35e-05,
364,-4.35e-05,-2.00e-01,
365,-4.35e-05,-4.35e-05,
366,-4.35e-05,-4.35e-05,
367,-4.35e-05,-2.00e-01,
368,-4.35e-05,-2.00e-01,
369,-4.35e-05,-4.35e-05,
370,-4.35e-05,-4.35e-05,
371,-4.35e-05,-4.35e-05,
372,-4.00e-01,-2.00e-01,
373,-4.35e-05,-4.35e-05,
374,-4.35e-05,-4.35e-05,
375,-4.35e-05,-2.00e-01,
376,-4.35e-05,-2.00e-01,
377,-4.00e-01,-2.00e-01,
378,-4.35e-05,-2.00e-01,
379,-4.35e-05,-4.35e-05,
380,-4.00e-01,-2.00e-01,
381,-4.00e-01,-4.35e-05,
382,-4.35e-05,-4.35e-05,
383,-4.00e-01,-4.35e-05,
384,-4.35e-05,-2.00e-01,
385,-4.00e-01,-2.00e-01,
386,-4.35e-05,-4.35e-05,
387,-4.00e-01,-4.35e-05,
388,-4.00e-01,-2.00e-01,
389,-4.00e-01,-4.35e-05,
390,-4.00e-01,-4.35e-05,
391,-4.00e-01,-2.00e-01,
392,-4.00e-01,-2.00e-01,
393,-4.00e-01,-2.00e-01,
394,-4.00e-01,-2.00e-01,
395,-4.00e-01,-2.00e-01,
396,-4.00e-01,-2.00e-01,
397,-4.00e-01,-4.35e-05,
398,-4.00e-01,-2.00e-01,
399,-4.00e-01,-4.35e-05,
400,-4.00e-01,-2.00e-01,
401,-4.00e-01,-2.00e-01,
402,-4.00e-01,-4.35e-05,
403,-4.00e-01,-2.00e-01,
404,-4.00e-01,-2.00e-01,
405,-4.00e-01,-4.35e-05,
406,-4.00e-01,-4.35e-05,
407,-4.00e-01,-2.00e-01,
408,-4.00e-01,-2.00e-01,
409,-4.00e-01,-2.00e-01,
410,-4.00e-01,-2.00e-01,
411,-4.00e-01,-4.35e-05,
412,-4.00e-01,-2.00e-01,
413,-4.00e-01,-4.35e-05,
414,-4.00e-01,-4.35e-05,
415,-4.00e-01,-2.00e-01,
416,-4.00e-01,-2.00e-01,
417,-4.00e-01,-4.35e-05,
418,-4.00e-01,-4.35e-05,
419,-4.00e-01,-2.00e-01,
420,-4.00e-01,-2.00e-01,
421,-4.00e-01,-4.35e-05,
422,-4.00e-01,-4.35e-05,
423,-4.00e-01,-2.00e-01,
424,-4.00e-01,-2.00e-01,
425,-4.00e-01,-2.00e-01,
426,-4.00e-01,-4.35e-05,
427,-4.00e-01,-2.00e-01,
428,-4.00e-01,-2.00e-01,
429,-4.00e-01,-4.35e-05,
430,-4.00e-01,-4.35e-05,
431,-4.00e-01,-2.00e-01,
432,-4.00e-01,-2.00e-01,
433,-4.00e-01,-2.00e-01,
434,-4.00e-01,-2.00e-01,
435,-4.00e-01,-2.00e-01,
436,-4.00e-01,-2.00e-01,
437,-4.00e-01,-2.00e-01,
438,-4.00e-01,-4.35e-05,
439,-4.00e-01,-2.00e-01,
440,-4.00e-01,-2.00e-01,
441,-4.00e-01,-2.00e-01,
442,-4.00e-01,-2.00e-01,
443,-4.00e-01,-2.00e-01,
444,-4.00e-01,-2.00e-01,
445,-4.00e-01,-2.00e-01,
446,-4.00e-01,-4.35e-05,
447,-4.00e-01,-2.00e-01,
448,-4.00e-01,-2.00e-01,
449,-4.00e-01,-2.00e-01,
450,-4.00e-01,-2.00e-01,
451,-4.00e-01,-2.00e-01,
452,-4.00e-01,-2.00e-01,
453,-6.00e-01,-2.00e-01,
454,-4.00e-01,-2.00e-01,
455,-4.00e-01,-2.00e-01,
456,-4.00e-01,-2.00e-01,
457,-4.00e-01,-2.00e-01,
458,-4.00e-01,-2.00e-01,
459,-4.00e-01,-2.00e-01,
460,-4.00e-01,-2.00e-01,
461,-4.00e-01,-2.00e-01,
462,-4.00e-01,-2.00e-01,
463,-4.00e-01,-2.00e-01,
464,-4.00e-01,-2.00e-01,
465,-6.00e-01,-2.00e-01,
466,-4.00e-01,-2.00e-01,
467,-4.00e-01,-2.00e-01,
468,-4.00e-01,-2.00e-01,
469,-6.00e-01,-2.00e-01,
470,-4.00e-01,-2.00e-01,
471,-6.00e-01,-2.00e-01,
472,-4.00e-01,-2.00e-01,
473,-6.00e-01,-2.00e-01,
474,-4.00e-01,-2.00e-01,
475,-6.00e-01,-2.00e-01,
476,-6.00e-01,-2.00e-01,
477,-6.00e-01,-2.00e-01,
478,-6.00e-01,-2.00e-01,
479,-6.00e-01,-2.00e-01,
480,-6.00e-01,-2.00e-01,
481,-6.00e-01,-2.00e-01,
482,-6.00e-01,-2.00e-01,
483,-6.00e-01,-2.00e-01,
484,-6.00e-01,-2.00e-01,
485,-6.00e-01,-2.00e-01,
486,-6.00e-01,-2.00e-01,
487,-6.00e-01,-2.00e-01,
488,-6.00e-01,-4.35e-05,
489,-4.00e-01,2.00e-01,
490,-4.00e-01,6.00e-01,
491,-4.00e-01,1.40e+00,
492,-4.00e-01,1.80e+00,
493,-4.35e-05,2.60e+00,
494,-4.35e-05,3.60e+00,
495,-4.35e-05,4.20e+00,
496,2.00e-01,4.80e+00,
497,2.00e-01,5.40e+00,
498,4.00e-01,6.00e+00,
499,4.00e-01,6.60e+00,
500,6.00e-01,7.20e+00,
501,8.00e-01,7.60e+00,
502,8.00e-01,8.00e+00,
503,1.00e+00,8.80e+00,
504,1.20e+00,9.40e+00,
505,1.40e+00,1.00e+01,
506,1.60e+00,1.08e+01,
507,1.80e+00,1.14e+01,
508,2.00e+00,1.22e+01,
509,2.40e+00,1.28e+01,
510,2.60e+00,1.36e+01,
511,2.80e+00,1.42e+01,
512,3.00e+00,1.46e+01,
513,3.20e+00,1.48e+01,
514,3.40e+00,1.50e+01,
515,3.80e+00,1.52e+01,
516,4.00e+00,1.56e+01,
517,4.20e+00,1.56e+01,
518,4.40e+00,1.56e+01,
519,4.60e+00,1.58e+01,
520,5.00e+00,1.60e+01,
521,5.20e+00,1.58e+01,
522,5.40e+00,1.60e+01,
523,5.60e+00,1.60e+01,
524,5.60e+00,1.62e+01,
525,5.60e+00,1.60e+01,
526,5.40e+00,1.60e+01,
527,5.60e+00,1.60e+01,
528,5.60e+00,1.62e+01,
529,5.60e+00,1.60e+01,
530,5.40e+00,1.60e+01,
531,5.60e+00,1.60e+01,
532,5.40e+00,1.62e+01,
533,5.60e+00,1.60e+01,
534,5.40e+00,1.60e+01,
535,5.60e+00,1.60e+01,
536,5.40e+00,1.62e+01,
537,5.60e+00,1.60e+01,
538,5.40e+00,1.60e+01,
539,5.60e+00,1.62e+01,
540,5.60e+00,1.62e+01,
541,5.60e+00,1.62e+01,
542,5.40e+00,1.62e+01,
543,5.60e+00,1.62e+01,
544,5.60e+00,1.62e+01,
545,5.60e+00,1.62e+01,
546,5.60e+00,1.62e+01,
547,5.80e+00,1.62e+01,
548,5.80e+00,1.62e+01,
549,6.00e+00,1.62e+01,
550,6.00e+00,1.62e+01,
551,6.20e+00,1.62e+01,
552,6.40e+00,1.64e+01,
553,6.40e+00,1.62e+01,
554,6.60e+00,1.62e+01,
555,6.80e+00,1.64e+01,
556,6.80e+00,1.64e+01,
557,7.00e+00,1.64e+01,
558,7.00e+00,1.62e+01,
559,7.20e+00,1.64e+01,
560,7.20e+00,1.66e+01,
561,7.60e+00,1.64e+01,
562,7.60e+00,1.64e+01,
563,7.80e+00,1.64e+01,
564,7.80e+00,1.66e+01,
565,8.00e+00,1.64e+01,
566,8.00e+00,1.64e+01,
567,8.20e+00,1.66e+01,
568,8.20e+00,1.66e+01,
569,8.20e+00,1.64e+01,
570,8.40e+00,1.66e+01,
571,8.60e+00,1.66e+01,
572,8.60e+00,1.66e+01,
573,8.60e+00,1.66e+01,
574,8.60e+00,1.66e+01,
575,9.00e+00,1.66e+01,
576,8.80e+00,1.66e+01,
577,9.00e+00,1.66e+01,
578,9.00e+00,1.66e+01,
579,9.20e+00,1.64e+01,
580,9.20e+00,1.70e+01,
581,9.20e+00,1.66e+01,
582,9.40e+00,1.66e+01,
583,9.60e+00,1.68e+01,
584,9.40e+00,1.68e+01,
585,1.00e+01,1.68e+01,
586,9.60e+00,1.66e+01,
587,1.00e+01,1.68e+01,
588,1.00e+01,1.68e+01,
589,1.02e+01,1.68e+01,
590,1.02e+01,1.68e+01,
591,1.04e+01,1.68e+01,
592,1.04e+01,1.68e+01,
593,1.04e+01,1.68e+01,
594,1.04e+01,1.68e+01,
595,1.06e+01,1.68e+01,
596,1.06e+01,1.68e+01,
597,1.08e+01,1.68e+01,
598,1.06e+01,1.68e+01,
599,1.10e+01,1.68e+01,
600,1.08e+01,1.70e+01,
601,1.10e+01,1.68e+01,
602,1.10e+01,1.68e+01,
603,1.12e+01,1.68e+01,
604,1.12e+01,1.70e+01,
605,1.12e+01,1.68e+01,
606,1.12e+01,1.68e+01,
607,1.14e+01,1.70e+01,
608,1.14e+01,1.70e+01,
609,1.14e+01,1.70e+01,
610,1.14e+01,1.70e+01,
611,1.16e+01,1.70e+01,
612,1.16e+01,1.70e+01,
613,1.16e+01,1.70e+01,
614,1.16e+01,1.70e+01,
615,1.20e+01,1.70e+01,
616,1.18e+01,1.72e+01,
617,1.20e+01,1.70e+01,
618,1.18e+01,1.70e+01,
619,1.22e+01,1.70e+01,
620,1.20e+01,1.70e+01,
621,1.22e+01,1.70e+01,
622,1.22e+01,1.70e+01,
623,1.26e+01,1.70e+01,
624,1.22e+01,1.72e+01,
625,1.26e+01,1.70e+01,
626,1.22e+01,1.70e+01,
627,1.28e+01,1.70e+01,
628,1.26e+01,1.72e+01,
629,1.28e+01,1.70e+01,
630,1.28e+01,1.70e+01,
631,1.30e+01,1.70e+01,
632,1.28e+01,1.72e+01,
633,1.30e+01,1.72e+01,
634,1.28e+01,1.70e+01,
635,1.32e+01,1.72e+01,
636,1.30e+01,1.72e+01,
637,1.32e+01,1.72e+01,
638,1.30e+01,1.70e+01,
639,1.34e+01,1.72e+01,
640,1.32e+01,1.72e+01,
641,1.34e+01,1.72e+01,
642,1.32e+01,1.72e+01,
643,1.36e+01,1.72e+01,
644,1.34e+01,1.72e+01,
645,1.34e+01,1.72e+01,
646,1.34e+01,1.72e+01,
647,1.36e+01,1.72e+01,
648,1.36e+01,1.72e+01,
649,1.36e+01,1.72e+01,
650,1.36e+01,1.72e+01,
651,1.38e+01,1.72e+01,
652,1.36e+01,1.74e+01,
653,1.38e+01,1.72e+01,
654,1.38e+01,1.72e+01,
655,1.40e+01,1.72e+01,
656,1.38e+01,1.74e+01,
657,1.40e+01,1.72e+01,
658,1.38e+01,1.72e+01,
659,1.42e+01,1.72e+01,
660,1.40e+01,1.74e+01,
661,1.42e+01,1.72e+01,
662,1.40e+01,1.72e+01,
663,1.42e+01,1.72e+01,
664,1.42e+01,1.74e+01,
665,1.42e+01,1.72e+01,
666,1.42e+01,1.72e+01,
667,1.44e+01,1.72e+01,
668,1.42e+01,1.74e+01,
669,1.44e+01,1.72e+01,
670,1.42e+01,1.72e+01,
671,1.46e+01,1.72e+01,
672,1.44e+01,1.74e+01,
673,1.46e+01,1.72e+01,
674,1.44e+01,1.72e+01,
675,1.46e+01,1.74e+01,
676,1.44e+01,1.74e+01,
677,1.46e+01,1.74e+01,
678,1.44e+01,1.72e+01,
679,1.48e+01,1.74e+01,
680,1.46e+01,1.74e+01,
681,1.48e+01,1.72e+01,
682,1.46e+01,1.72e+01,
683,1.48e+01,1.74e+01,
684,1.48e+01,1.74e+01,
685,1.48e+01,1.74e+01,
686,1.46e+01,1.72e+01,
687,1.52e+01,1.74e+01,
688,1.48e+01,1.74e+01,
689,1.52e+01,1.74e+01,
690,1.48e+01,1.74e+01,
691,1.52e+01,1.74e+01,
692,1.52e+01,1.74e+01,
693,1.52e+01,1.74e+01,
694,1.48e+01,1.74e+01,
695,1.54e+01,1.74e+01,
696,1.52e+01,1.74e+01,
697,1.54e+01,1.74e+01,
698,1.52e+01,1.74e+01,
699,1.56e+01,1.74e+01,
700,1.54e+01,1.74e+01,
701,1.54e+01,1.74e+01,
702,1.52e+01,1.74e+01,
703,1.56e+01,1.74e+01,
704,1.54e+01,1.76e+01,
705,1.56e+01,1.74e+01,
706,1.54e+01,1.74e+01,
707,1.56e+01,1.74e+01,
708,1.54e+01,1.74e+01,
709,1.56e+01,1.74e+01,
710,1.54e+01,1.74e+01,
711,1.58e+01,1.74e+01,
712,1.56e+01,1.76e+01,
713,1.56e+01,1.74e+01,
714,1.56e+01,1.74e+01,
715,1.58e+01,1.74e+01,
716,1.56e+01,1.76e+01,
717,1.58e+01,1.74e+01,
718,1.56e+01,1.74e+01,
719,1.60e+01,1.74e+01,
720,1.58e+01,1.76e+01,
721,1.58e+01,1.74e+01,
722,1.56e+01,1.74e+01,
723,1.60e+01,1.74e+01,
724,1.58e+01,1.76e+01,
725,1.58e+01,1.74e+01,
726,1.58e+01,1.74e+01,
727,1.60e+01,1.74e+01,
728,1.58e+01,1.76e+01,
729,1.60e+01,1.74e+01,
730,1.58e+01,1.74e+01,
731,1.60e+01,1.74e+01,
732,1.60e+01,1.76e+01,
733,1.60e+01,1.74e+01,
734,1.58e+01,1.74e+01,
735,1.62e+01,1.74e+01,
736,1.60e+01,1.76e+01,
737,1.62e+01,1.74e+01,
738,1.58e+01,1.74e+01,
739,1.62e+01,1.74e+01,
740,1.60e+01,1.76e+01,
741,1.62e+01,1.74e+01,
742,1.60e+01,1.74e+01,
743,1.62e+01,1.74e+01,
744,1.62e+01,1.76e+01,
745,1.62e+01,1.74e+01,
746,1.60e+01,1.74e+01,
747,1.64e+01,1.76e+01,
748,1.60e+01,1.76e+01,
749,1.62e+01,1.74e+01,
750,1.60e+01,1.74e+01,
751,1.64e+01,1.74e+01,
752,1.62e+01,1.76e+01,
753,1.64e+01,1.74e+01,
754,1.62e+01,1.74e+01,
755,1.64e+01,1.74e+01,
756,1.62e+01,1.76e+01,
757,1.64e+01,1.76e+01,
758,1.62e+01,1.74e+01,
759,1.64e+01,1.76e+01,
760,1.64e+01,1.76e+01,
761,1.64e+01,1.74e+01,
762,1.62e+01,1.74e+01,
763,1.66e+01,1.76e+01,
764,1.64e+01,1.76e+01,
765,1.64e+01,1.74e+01,
766,1.62e+01,1.74e+01,
767,1.66e+01,1.76e+01,
768,1.64e+01,1.76e+01,
769,1.64e+01,1.74e+01,
770,1.64e+01,1.74e+01,
771,1.66e+01,1.74e+01,
772,1.64e+01,1.76e+01,
773,1.66e+01,1.74e+01,
774,1.64e+01,1.74e+01,
775,1.66e+01,1.76e+01,
776,1.64e+01,1.76e+01,
777,1.66e+01,1.76e+01,
778,1.64e+01,1.76e+01,
779,1.64e+01,1.74e+01,
780,1.66e+01,1.80e+01,
781,1.66e+01,1.74e+01,
782,1.64e+01,1.74e+01,
783,1.68e+01,1.76e+01,
784,1.64e+01,1.76e+01,
785,1.68e+01,1.76e+01,
786,1.64e+01,1.74e+01,
787,1.68e+01,1.74e+01,
788,1.66e+01,1.76e+01,
789,1.66e+01,1.76e+01,
790,1.66e+01,1.76e+01,
791,1.68e+01,1.76e+01,
792,1.66e+01,1.76e+01,
793,1.68e+01,1.76e+01,
794,1.66e+01,1.74e+01,
795,1.68e+01,1.76e+01,
796,1.66e+01,1.76e+01,
797,1.68e+01,1.76e+01,
798,1.66e+01,1.74e+01,
799,1.68e+01,1.76e+01,
800,1.66e+01,1.76e+01,
801,1.68e+01,1.76e+01,
802,1.66e+01,1.74e+01,
803,1.68e+01,1.76e+01,
804,1.68e+01,1.76e+01,
805,1.68e+01,1.74e+01,
806,1.66e+01,1.76e+01,
807,1.70e+01,1.76e+01,
808,1.68e+01,1.76e+01,
809,1.68e+01,1.76e+01,
810,1.66e+01,1.74e+01,
811,1.70e+01,1.76e+01,
812,1.68e+01,1.76e+01,
813,1.68e+01,1.76e+01,
814,1.66e+01,1.74e+01,
815,1.70e+01,1.76e+01,
816,1.68e+01,1.76e+01,
817,1.70e+01,1.76e+01,
818,1.66e+01,1.74e+01,
819,1.70e+01,1.76e+01,
820,1.68e+01,1.76e+01,
821,1.68e+01,1.76e+01,
822,1.68e+01,1.76e+01,
823,1.70e+01,1.76e+01,
824,1.68e+01,1.76e+01,
825,1.70e+01,1.76e+01,
826,1.68e+01,1.74e+01,
827,1.70e+01,1.76e+01,
828,1.68e+01,1.76e+01,
829,1.70e+01,1.76e+01,
830,1.68e+01,1.76e+01,
831,1.70e+01,1.76e+01,
832,1.68e+01,1.76e+01,
